1.327938735485076904e-01
3.513040542602539062e-01
1.000000000000000000e+00
1.000000000000000000e+00
1.000000000000000000e+00
9.995172619819641113e-01
1.000000000000000000e+00
6.317191720008850098e-01
9.999902248382568359e-01
8.196451663970947266e-01
1.000000000000000000e+00
1.000000000000000000e+00
1.755672991275787354e-01
9.999923706054687500e-01
1.387724578380584717e-01
1.000000000000000000e+00
9.786158204078674316e-01
6.566770076751708984e-01
9.999974966049194336e-01
1.000000000000000000e+00
4.099309146404266357e-01
2.330451607704162598e-01
9.999799728393554688e-01
9.988098144531250000e-01
1.401734054088592529e-01
6.188440322875976562e-01
7.445728778839111328e-02
1.000000000000000000e+00
1.000000000000000000e+00
1.000000000000000000e+00
9.946461319923400879e-01
1.000000000000000000e+00
1.188144385814666748e-01
5.713217854499816895e-01
1.969125568866729736e-01
3.118284940719604492e-01
7.607085704803466797e-01
2.843980789184570312e-01
1.885741949081420898e-03
1.008643507957458496e-01
1.000000000000000000e+00
9.998359680175781250e-01
9.999908804893493652e-01
5.317126512527465820e-01
9.999997615814208984e-01
2.792513370513916016e-02
9.999984502792358398e-01
4.279014468193054199e-02
2.813864350318908691e-01
3.806388378143310547e-02
3.502845764160156250e-01
7.566452026367187500e-03
3.453621268272399902e-01
1.000000000000000000e+00
7.177957296371459961e-01
9.998205900192260742e-01
1.000000000000000000e+00
1.968119442462921143e-01
5.579842329025268555e-01
1.334161758422851562e-01
9.999967813491821289e-01
1.233384013175964355e-02
9.815424680709838867e-01
4.884073138236999512e-02
3.064209222793579102e-02
1.000000000000000000e+00
9.999749660491943359e-01
9.945726990699768066e-01
1.000000000000000000e+00
9.998380541801452637e-01
2.008206844329833984e-01
7.171308994293212891e-02
3.378608226776123047e-01
9.997082948684692383e-01
9.999983310699462891e-01
4.143689870834350586e-01
1.000000000000000000e+00
2.856299281120300293e-01
3.376135230064392090e-01
4.857268929481506348e-02
9.565150141716003418e-01
5.014968514442443848e-01
9.999858736991882324e-01
1.589977443218231201e-01
5.795903205871582031e-01
4.122511148452758789e-01
7.564329504966735840e-01
1.000000000000000000e+00
5.866378545761108398e-01
5.541166663169860840e-02
3.696301579475402832e-02
1.448236703872680664e-01
2.325475513935089111e-01
9.997220039367675781e-01
1.591372787952423096e-01
9.999953508377075195e-01
9.045164585113525391e-01
1.347789764404296875e-01
1.803855895996093750e-01
3.500499129295349121e-01
9.796414375305175781e-01
6.077185869216918945e-01
5.289880037307739258e-01
9.725581407546997070e-01
4.310208559036254883e-02
9.930105209350585938e-01
7.185891866683959961e-01
5.239365100860595703e-01
6.427991986274719238e-01
9.994760751724243164e-01
8.442451953887939453e-01
5.898076081353731404e-14
2.894822359085083008e-01
7.338398694992065430e-01
9.485796093940734863e-01
9.787243008613586426e-01
1.769559979438781738e-01
5.030345916748046875e-02
1.000000000000000000e+00
8.142247200012207031e-01
1.000000000000000000e+00
6.684052944183349609e-01
1.000000000000000000e+00
9.995899200439453125e-01
3.441030979156494141e-01
9.998656511306762695e-01
9.997944235801696777e-01
2.222210168838500977e-01
2.302208542823791504e-02
1.582941412925720215e-02
9.999954700469970703e-01
9.194066524505615234e-01
3.155622482299804688e-01
9.999989271163940430e-01
9.887181520462036133e-01
7.532027959823608398e-01
4.769425988197326660e-01
5.911045074462890625e-01
1.835460066795349121e-01
1.000000000000000000e+00
2.736693322658538818e-01
1.000000000000000000e+00
3.595222234725952148e-01
8.750303983688354492e-01
9.998411536216735840e-01
1.000000000000000000e+00
9.999989271163940430e-01
6.156174540519714355e-01
3.789126873016357422e-03
9.990033507347106934e-01
1.000000000000000000e+00
9.999992847442626953e-01
9.986369609832763672e-01
7.448288798332214355e-01
7.407476305961608887e-01
5.191938281059265137e-01
2.368180453777313232e-01
5.023977160453796387e-02
9.997068643569946289e-01
9.419125318527221680e-02
1.058384180068969727e-01
3.830091372947208583e-06
1.000000000000000000e+00
9.997614622116088867e-01
4.860858321189880371e-01
4.315593242645263672e-01
9.616088867187500000e-01
1.742550730705261230e-01
9.742930531501770020e-02
9.871850609779357910e-01
5.116415023803710938e-02
1.000000000000000000e+00
3.128572404384613037e-01
9.286513328552246094e-01
9.874056577682495117e-01
1.849734485149383545e-01
9.999304413795471191e-01
2.769431471824645996e-01
4.433765709400177002e-01
2.079020142555236816e-01
9.999971985816955566e-01
1.000000000000000000e+00
4.206299781799316406e-04
9.748883247375488281e-01
9.999972581863403320e-01
1.000000000000000000e+00
9.992719888687133789e-01
9.999797344207763672e-01
9.421011805534362793e-02
5.900632739067077637e-01
9.993700981140136719e-01
1.000000000000000000e+00
9.999994039535522461e-01
9.999960660934448242e-01
1.000000000000000000e+00
1.000000000000000000e+00
1.000000000000000000e+00
1.000000000000000000e+00
9.971678256988525391e-01
1.000000000000000000e+00
9.953211545944213867e-01
9.996343851089477539e-01
9.999961256980895996e-01
9.985811114311218262e-01
9.991766810417175293e-01
7.656261920928955078e-01
9.742356538772583008e-01
9.999980926513671875e-01
9.997174739837646484e-01
7.057357430458068848e-01
9.999953508377075195e-01
3.973733186721801758e-01
1.566922664642333984e-01
1.000000000000000000e+00
7.723000645637512207e-02
9.994534254074096680e-01
3.523969382968061836e-08
1.000000000000000000e+00
4.196081161499023438e-01
1.444528698921203613e-01
9.999994635581970215e-01
4.313784241676330566e-01
8.092361092567443848e-01
9.999766945838928223e-01
1.000000000000000000e+00
9.999990463256835938e-01
1.000000000000000000e+00
4.869755506515502930e-01
1.000000000000000000e+00
9.999942779541015625e-01
1.358466744422912598e-01
3.500153124332427979e-01
1.775038242340087891e-01
5.794576406478881836e-01
1.908008456230163574e-01
9.999772310256958008e-01
2.689063549041748047e-03
9.525130987167358398e-01
2.134703397750854492e-01
9.414480328559875488e-01
3.540636897087097168e-01
9.999198913574218750e-01
6.375244259834289551e-02
6.667494773864746094e-02
9.122318029403686523e-01
9.678922891616821289e-01
2.414854466915130615e-01
6.812996268272399902e-01
1.000000000000000000e+00
3.251793980598449707e-01
3.141676187515258789e-01
1.998448371887207031e-02
2.298154532909393311e-01
1.000000000000000000e+00
9.784551858901977539e-01
6.538718938827514648e-02
1.000000000000000000e+00
1.000000000000000000e+00
1.608627736568450928e-01
1.000000000000000000e+00
6.738880276679992676e-01
5.502434968948364258e-01
9.985260963439941406e-01
9.999969005584716797e-01
9.919565916061401367e-01
1.163542270660400391e-03
1.000000000000000000e+00
7.028141021728515625e-01
2.548449635505676270e-01
2.834656834602355957e-01
1.000000000000000000e+00
4.931500554084777832e-02
9.896481633186340332e-01
4.141667485237121582e-01
6.699045115965418518e-06
5.740013718605041504e-02
9.941116571426391602e-01
9.657690525054931641e-01
5.093067884445190430e-03
5.305222868919372559e-01
8.665935397148132324e-01
1.703354716300964355e-02
9.552009105682373047e-01
9.999995231628417969e-01
5.297371745109558105e-01
9.989038705825805664e-01
1.000000000000000000e+00
1.360437870025634766e-01
9.999998211860656738e-01
7.703771591186523438e-01
6.049776077270507812e-01
7.515106201171875000e-01
4.463495314121246338e-01
9.998811483383178711e-01
9.999901652336120605e-01
9.853959679603576660e-01
9.831271171569824219e-01
9.494351148605346680e-01
9.999908208847045898e-01
1.054111421108245850e-01
1.000000000000000000e+00
9.974887967109680176e-01
1.000000000000000000e+00
9.999997019767761230e-01
7.605314254760742188e-03
9.999914765357971191e-01
8.163208365440368652e-01
4.835249483585357666e-01
9.673082232475280762e-01
9.999561309814453125e-01
8.686682581901550293e-01
2.465695440769195557e-01
2.123087644577026367e-03
5.193256735801696777e-01
8.057600259780883789e-02
4.368626773357391357e-01
9.999465942382812500e-01
8.615452051162719727e-02
1.000000000000000000e+00
2.043724060058593750e-02
9.999957084655761719e-01
7.952250242233276367e-01
9.999997019767761230e-01
9.999535083770751953e-01
4.350021183490753174e-01
1.022174954414367676e-01
5.182167887687683105e-02
9.925900697708129883e-01
8.092903494834899902e-01
8.167245388031005859e-01
2.909995019435882568e-01
2.150531113147735596e-01
9.997433423995971680e-01
9.391632676124572754e-01
1.438336312276078388e-06
2.374134063720703125e-01
4.105013310909271240e-01
6.953913139762235573e-11
9.999958276748657227e-01
1.000000000000000000e+00
9.999988079071044922e-01
1.000000000000000000e+00
3.124434351921081543e-01
9.993020892143249512e-01
3.687468171119689941e-02
1.765374839305877686e-01
9.449690580368041992e-03
3.709068298339843750e-01
2.925080657005310059e-01
9.999732971191406250e-01
1.228359639644622803e-01
1.000000000000000000e+00
9.980944395065307617e-01
6.408128142356872559e-01
9.999655485153198242e-01
9.999643564224243164e-01
4.004072546958923340e-01
6.770599484443664551e-01
8.986532092094421387e-01
9.743770956993103027e-02
9.687881469726562500e-01
1.000000000000000000e+00
9.994438886642456055e-01
6.441998481750488281e-01
7.451185584068298340e-01
5.250307917594909668e-02
6.285644769668579102e-01
3.112929463386535645e-01
7.832984328269958496e-01
3.252378106117248535e-02
7.925200462341308594e-01
8.722136020660400391e-01
9.982230663299560547e-01
8.187397122383117676e-01
3.831623196601867676e-01
7.094374299049377441e-01
8.725762367248535156e-01
1.000000000000000000e+00
2.890976071357727051e-01
9.998180866241455078e-01
1.000000000000000000e+00
1.000000000000000000e+00
3.970433771610260010e-01
6.059406995773315430e-01
9.999977350234985352e-01
9.999997615814208984e-01
9.488307237625122070e-01
6.791651248931884766e-02
4.854051470756530762e-01
5.752538442611694336e-01
3.689177036285400391e-01
1.883558411464036908e-07
3.964409188483841717e-05
9.991812109947204590e-01
9.999995231628417969e-01
5.083060264587402344e-01
2.398312985897064209e-01
1.000000000000000000e+00
2.949357032775878906e-03
4.821404218673706055e-01
4.095425307750701904e-01
9.749515056610107422e-01
9.867295026779174805e-01
9.853823184967041016e-01
9.999948143959045410e-01
1.897819340229034424e-01
8.520869016647338867e-01
1.701232492923736572e-01
5.944049358367919922e-02
9.457606077194213867e-01
9.045588970184326172e-01
9.999973773956298828e-01
8.743550181388854980e-01
9.999939799308776855e-01
9.883165359497070312e-01
9.999952912330627441e-01
1.504283249378204346e-01
9.999970197677612305e-01
1.000000000000000000e+00
3.101400136947631836e-01
6.067620515823364258e-01
5.343681573867797852e-02
1.314867436885833740e-01
8.948530554771423340e-01
3.182940483093261719e-01
4.807869195938110352e-01
9.999941587448120117e-01
3.845231533050537109e-01
2.544642388820648193e-01
3.364257216453552246e-01
5.683555603027343750e-01
5.589546561241149902e-01
3.528584837913513184e-01
9.302507638931274414e-01
1.857287883758544922e-01
9.999423027038574219e-01
6.124223470687866211e-01
6.856418251991271973e-01
9.297977685928344727e-01
9.997697472572326660e-01
8.653287887573242188e-01
2.501658201217651367e-01
1.000000000000000000e+00
0.000000000000000000e+00
3.298392891883850098e-01
1.178480982780456543e-01
5.047157406806945801e-01
9.999499320983886719e-01
9.430549144744873047e-01
9.208706021308898926e-01
1.000000000000000000e+00
1.000000000000000000e+00
9.334673881530761719e-01
7.993638515472412109e-01
4.329274296760559082e-01
7.939474582672119141e-01
3.139841258525848389e-01
2.783311181531189504e-08
1.000000000000000000e+00
9.658327102661132812e-01
8.623774051666259766e-01
5.108026862144470215e-01
1.000000000000000000e+00
5.547621846199035645e-01
7.580876350402832031e-01
5.701938271522521973e-01
2.538030147552490234e-01
1.000000000000000000e+00
1.115034818649291992e-01
9.999536275863647461e-01
1.957285702228546143e-01
1.656810939311981201e-01
9.999192953109741211e-01
9.999755620956420898e-01
1.000000000000000000e+00
5.703790783882141113e-01
3.157199025154113770e-01
3.422200679779052734e-04
9.313420653343200684e-01
5.515413880348205566e-01
1.535704731941223145e-02
9.431047439575195312e-01
1.074327826499938965e-01
5.784589648246765137e-01
3.286717534065246582e-01
4.382731318473815918e-01
1.000000000000000000e+00
1.000000000000000000e+00
1.542811393737792969e-01
4.133833646774291992e-01
9.999394416809082031e-01
3.603557944297790527e-01
4.117157757282257080e-01
6.112557649612426758e-02
9.155112504959106445e-02
1.868011951446533203e-01
1.000000000000000000e+00
4.310782551765441895e-01
5.184729099273681641e-01
1.000000000000000000e+00
9.999995231628417969e-01
9.998455047607421875e-01
2.174177765846252441e-01
4.892075061798095703e-02
5.891250967979431152e-01
9.423710107803344727e-01
1.065979599952697754e-01
2.090079486370086670e-01
6.782162785530090332e-01
9.989864230155944824e-01
9.999705553054809570e-01
5.676432251930236816e-01
1.464554667472839355e-02
3.737490773200988770e-01
4.678888320922851562e-01
9.925187826156616211e-01
9.999982118606567383e-01
9.243154525756835938e-01
1.000000000000000000e+00
8.218520879745483398e-01
9.646613597869873047e-01
4.383217096328735352e-01
9.243695735931396484e-01
2.045793235301971436e-01
6.917690038681030273e-01
4.925663769245147705e-01
2.882993221282958984e-01
2.041936218738555908e-01
1.000000000000000000e+00
9.999421238899230957e-01
3.495150208473205566e-01
6.367277503013610840e-01
9.976983070373535156e-01
7.490465044975280762e-02
1.428383588790893555e-02
2.058385908603668213e-01
4.494630098342895508e-01
1.566833257675170898e-01
3.287224769592285156e-01
9.999970197677612305e-01
9.999985694885253906e-01
4.661230444908142090e-01
1.536866426467895508e-01
3.674921393394470215e-01
1.000000000000000000e+00
9.970871210098266602e-01
9.775105118751525879e-01
1.000000000000000000e+00
9.994192719459533691e-01
8.484147787094116211e-01
1.967489421367645264e-01
6.343901157379150391e-02
4.968879520893096924e-01
2.484473586082458496e-02
8.197912573814392090e-02
1.392134726047515869e-01
4.905446767807006836e-01
1.822445690631866455e-01
2.383371889591217041e-01
1.529108881950378418e-01
3.347419202327728271e-01
1.228739023208618164e-01
4.127104878425598145e-01
1.022507250308990479e-01
1.844498515129089355e-01
1.018553972244262695e-03
9.147235155105590820e-01
5.829343199729919434e-01
8.965033292770385742e-02
8.121430873870849609e-04
4.010098278522491455e-01
1.000000000000000000e+00
5.076560378074645996e-02
2.651449143886566162e-01
4.259051084518432617e-01
3.111507296562194824e-01
8.562260866165161133e-02
1.318998038768768311e-01
6.807905435562133789e-01
6.448389291763305664e-01
2.119860351085662842e-01
1.199808120727539062e-01
1.156376004219055176e-01
2.283903360366821289e-01
7.997850179672241211e-01
3.624220788478851318e-01
2.041845321655273438e-01
8.510124683380126953e-02
8.524321317672729492e-01
2.166997492313385010e-01
2.945187687873840332e-01
4.828014075756072998e-01
4.468654096126556396e-01
6.287688612937927246e-01
7.105373144149780273e-01
1.684855818748474121e-01
1.211736500263214111e-01
4.067128611495718360e-05
8.440753221511840820e-01
5.569106340408325195e-01
7.179000377655029297e-01
2.278479039669036865e-01
1.395967602729797363e-02
5.385202765464782715e-01
3.569843173027038574e-01
1.201040446758270264e-01
2.249773740768432617e-01
8.559617996215820312e-01
1.978270113468170166e-01
4.217326641082763672e-04
1.334277391433715820e-01
6.872456197015708312e-06
4.908334612846374512e-01
2.018675506114959717e-01
5.365033149719238281e-01
1.537796556949615479e-01
2.251279652118682861e-01
7.561408877372741699e-01
1.365048289299011230e-01
5.087586641311645508e-01
4.482617974281311035e-02
9.849591255187988281e-01
6.104331612586975098e-01
6.914624571800231934e-02
4.023671448230743408e-01
1.835076212882995605e-01
1.259720325469970703e-02
9.505345821380615234e-01
9.609754681587219238e-01
9.440714120864868164e-01
1.130930185317993164e-01
3.675568103790283203e-02
7.819518446922302246e-02
2.359817922115325928e-01
3.263319730758666992e-01
3.870815038681030273e-03
9.306813478469848633e-01
9.711220264434814453e-01
1.497244238853454590e-01
4.281712770462036133e-01
3.501935601234436035e-01
1.332376897335052490e-01
3.911614418029785156e-03
8.794695138931274414e-03
4.547256231307983398e-01
8.251795172691345215e-02
2.762057781219482422e-01
2.014460563659667969e-01
5.061293840408325195e-01
1.249197721481323242e-01
6.732524633407592773e-01
2.099821865558624268e-01
2.370129823684692383e-01
7.530814409255981445e-02
3.699955940246582031e-01
2.423173189163208008e-02
8.798000216484069824e-02
3.342719674110412598e-01
4.491459131240844727e-01
3.863767683506011963e-01
8.655494451522827148e-01
9.999185800552368164e-01
1.882066130638122559e-01
2.707943916320800781e-01
1.547831296920776367e-01
2.772335410118103027e-01
1.612204015254974365e-01
4.075327515602111816e-02
6.584600806236267090e-01
2.926242947578430176e-01
3.030042052268981934e-01
3.035593032836914062e-02
1.386157870292663574e-01
3.724247217178344727e-02
1.086590886116027832e-01
3.002556562423706055e-01
4.655332565307617188e-01
3.409287929534912109e-01
9.890687465667724609e-01
6.770272254943847656e-01
2.140261232852935791e-01
5.353317260742187500e-01
3.326138854026794434e-01
5.033129453659057617e-02
5.810260772705078125e-01
2.767379581928253174e-01
1.895123720169067383e-01
3.981447517871856689e-01
4.252982735633850098e-01
8.122831583023071289e-02
2.912864089012145996e-02
9.967532753944396973e-02
1.637706160545349121e-02
5.400586128234863281e-02
1.962481439113616943e-01
7.912467718124389648e-01
2.474597096443176270e-02
3.537022173404693604e-01
9.151575565338134766e-01
4.631036520004272461e-02
3.427351415157318115e-01
4.604011774063110352e-03
1.979595422744750977e-02
4.599004983901977539e-03
5.601961016654968262e-01
7.632991671562194824e-02
4.284363985061645508e-02
1.634545028209686279e-01
1.394575834274291992e-02
3.435900807380676270e-02
3.348395228385925293e-01
5.778390169143676758e-02
7.731903791427612305e-01
4.436342716217041016e-01
4.462063312530517578e-01
9.734742641448974609e-01
2.943594455718994141e-01
4.610616862773895264e-01
1.122736930847167969e-02
2.646540403366088867e-01
6.647408008575439453e-04
4.358941018581390381e-01
4.595618844032287598e-01
4.316120445728302002e-01
4.185730218887329102e-02
5.030305385589599609e-01
2.686755657196044922e-01
8.247060775756835938e-01
6.235799193382263184e-02
6.885281205177307129e-01
9.825688004493713379e-01
8.251275420188903809e-01
2.737782001495361328e-01
7.489039301872253418e-01
9.714995622634887695e-01
7.558856010437011719e-01
3.733350634574890137e-01
8.345152735710144043e-01
6.839591264724731445e-02
9.998700618743896484e-01
1.034829020500183105e-02
5.334583520889282227e-01
2.023352384567260742e-01
1.565455794334411621e-01
1.976438760757446289e-01
7.084474563598632812e-01
4.803005158901214600e-01
2.436621189117431641e-01
8.935515880584716797e-01
7.998645305633544922e-04
1.207451224327087402e-01
9.789264202117919922e-02
1.201138794422149658e-01
6.580944061279296875e-01
2.338090538978576660e-01
4.807403683662414551e-02
8.824383020401000977e-01
1.894468069076538086e-01
1.730030179023742676e-01
2.770052850246429443e-01
1.330844461917877197e-01
9.511409401893615723e-01
4.194678664207458496e-01
5.588820576667785645e-02
6.274708509445190430e-01
6.611669659614562988e-01
5.799084901809692383e-03
4.426905512809753418e-02
9.549720287322998047e-01
3.206232190132141113e-02
1.401578485965728760e-01
4.214993715286254883e-01
8.282692432403564453e-01
2.282878458499908447e-01
3.810529112815856934e-01
3.568051457405090332e-01
4.821392893791198730e-01
2.811600565910339355e-01
7.468491792678833008e-03
4.103544354438781738e-01
3.625816404819488525e-01
2.685856223106384277e-01
5.033670067787170410e-01
7.044153213500976562e-01
1.923004090785980225e-01
9.325577020645141602e-01
9.996292591094970703e-01
3.392438292503356934e-01
9.085780382156372070e-02
1.836802065372467041e-01
1.845915615558624268e-01
1.014149188995361328e-02
1.369136571884155273e-01
7.413725852966308594e-01
1.488212049007415771e-01
1.123373508453369141e-01
8.786358833312988281e-01
4.856618940830230713e-01
2.757191658020019531e-02
2.093587219715118408e-01
1.090184748172760010e-01
9.699846506118774414e-01
2.626611888408660889e-01
7.879592180252075195e-01
6.741100549697875977e-01
1.313638687133789062e-02
5.148656368255615234e-01
9.296011924743652344e-01
2.033865749835968018e-01
8.249582648277282715e-01
1.000000000000000000e+00
5.181525349617004395e-01
4.450657367706298828e-01
7.025247216224670410e-01
1.835004389286041260e-01
2.662539482116699219e-04
1.500366330146789551e-01
5.341152548789978027e-01
4.965429306030273438e-01
5.426626801490783691e-01
1.957550644874572754e-01
9.652215242385864258e-02
2.671419978141784668e-01
2.689240574836730957e-01
9.939829111099243164e-01
5.190017819404602051e-01
9.844001531600952148e-01
5.649676322937011719e-01
4.839168190956115723e-01
1.712568220568755351e-08
4.899042844772338867e-02
6.254619359970092773e-02
8.226123452186584473e-02
1.007189154624938965e-01
7.058024406433105469e-02
1.313362717628479004e-01
1.886468231678009033e-01
9.197235107421875000e-03
4.902984201908111572e-01
3.518475294113159180e-01
7.178357243537902832e-02
8.696072101593017578e-01
3.953148722648620605e-01
4.420161247253417969e-03
4.600784182548522949e-02
4.063676595687866211e-01
1.506390273571014404e-01
7.710168361663818359e-01
2.469136416912078857e-01
8.373134136199951172e-01
9.208827018737792969e-01
5.882040262222290039e-01
1.988176405429840088e-01
1.079680919647216797e-01
4.436440467834472656e-01
1.268464028835296631e-01
7.590115070343017578e-03
1.571249663829803467e-01
5.229825377464294434e-01
1.704049110412597656e-02
1.950892210006713867e-01
5.275717377662658691e-02
4.328095912933349609e-02
3.371534943580627441e-01
6.523329615592956543e-01
9.291994571685791016e-01
5.193212628364562988e-02
4.894647598266601562e-01
3.254517316818237305e-01
3.171029090881347656e-01
4.872313439846038818e-01
3.491358458995819092e-01
3.596272468566894531e-01
1.840559244155883789e-01
3.435103893280029297e-01
8.312931656837463379e-01
7.022250294685363770e-01
5.614436268806457520e-01
1.449069259251700714e-05
1.378968060016632080e-01
1.412266194820404053e-01
2.860947847366333008e-01
9.503277540206909180e-01
1.002909541130065918e-01
6.415766477584838867e-01
7.570368051528930664e-02
1.752819120883941650e-01
3.254967331886291504e-01
6.640684604644775391e-01
3.449162840843200684e-02
8.953422307968139648e-03
1.251772046089172363e-01
3.952643965021707118e-06
2.014841982145298971e-07
1.154853701591491699e-01
2.636198699474334717e-01
5.959570407867431641e-04
3.047811090946197510e-01
5.213022232055664062e-04
3.124189242953434587e-05
2.497909665107727051e-01
9.330353350378572941e-05
6.929162144660949707e-02
1.573562622070312500e-03
4.435500502586364746e-02
2.015829086303710938e-03
1.206135749816894531e-02
7.621011137962341309e-02
2.008464634418487549e-01
1.030077040195465088e-01
1.053476631641387939e-01
2.314195334911346436e-01
1.437248885631561279e-01
2.632090449333190918e-02
2.949725421785842627e-05
8.928674459457397461e-02
1.296988129615783691e-02
2.491345107555389404e-01
1.120765805244445801e-01
5.114637613296508789e-01
7.878296971321105957e-01
1.451561729481909424e-05
7.280712127685546875e-01
2.121120393276214600e-01
1.392984390258789062e-02
4.363956749439239502e-01
8.026481866836547852e-01
3.978028893470764160e-01
3.809660673141479492e-03
7.997459173202514648e-02
2.923190593719482422e-03
3.213570117950439453e-01
6.466841697692871094e-01
1.000274717807769775e-01
1.053026914596557617e-01
1.963440477848052979e-01
1.886608600616455078e-01
3.564938902854919434e-02
6.831696629524230957e-02
2.703272998332977295e-01
1.512926816940307617e-02
1.218509674072265625e-01
5.290682452141481917e-07
8.625367642345338481e-10
5.280480399960651994e-05
1.708894968032836914e-03
1.798171699047088623e-01
3.421336412429809570e-03
2.922390401363372803e-01
3.419405221939086914e-01
1.582684218883514404e-01
1.664634943008422852e-01
2.829483151435852051e-02
4.444740625331178308e-05
1.156499981880187988e-02
1.449024677276611328e-02
6.567537784576416016e-04
6.179466843605041504e-02
1.425533264409750700e-05
4.787119626998901367e-01
1.878062486648559570e-01
5.693571567535400391e-01
2.214187383651733398e-01
3.343061208724975586e-01
3.228890895843505859e-02
4.766820073127746582e-01
9.947807192802429199e-01
9.101015329360961914e-02
9.006363153457641602e-02
1.087386310100555420e-01
1.780874729156494141e-01
4.756288528442382812e-01
1.654559373855590820e-02
2.135353684425354004e-01
1.159191131591796875e-03
5.250751972198486328e-03
7.877234816551208496e-01
1.598679721355438232e-01
7.014713287353515625e-01
4.045674800872802734e-01
9.673693776130676270e-02
6.534880399703979492e-01
9.830769896507263184e-01
2.242324650287628174e-01
4.162147641181945801e-02
1.507393121719360352e-01
6.039923429489135742e-01
3.435787558555603027e-01
6.836493611335754395e-01
2.175118327140808105e-01
2.608329057693481445e-03
1.553297042846679688e-04
4.175034165382385254e-01
4.639764726161956787e-01
2.469232976436614990e-01
1.422676444053649902e-02
5.865743756294250488e-02
2.628508210182189941e-02
3.945443034172058105e-02
6.013572216033935547e-02
2.188896536827087402e-01
8.633109927177429199e-02
1.143417954444885254e-01
4.427440464496612549e-01
1.004045903682708740e-01
1.534213423728942871e-01
4.094666242599487305e-02
2.876579761505126953e-02
1.306340098381042480e-02
2.303543686866760254e-02
8.204585313796997070e-02
1.231832206249237061e-01
1.316240131855010986e-01
3.130349516868591309e-02
2.367105185985565186e-01
8.779248595237731934e-02
4.214406013488769531e-03
9.838533401489257812e-02
3.034815192222595215e-02
8.358091115951538086e-02
6.784561872482299805e-01
8.826968073844909668e-02
6.200909614562988281e-02
5.334150791168212891e-02
8.844745159149169922e-02
8.614119887351989746e-02
6.496024131774902344e-02
1.270633339881896973e-01
2.326071262359619141e-04
6.047827005386352539e-02
1.410235762596130371e-01
1.406548917293548584e-01
8.741056919097900391e-02
1.179356873035430908e-01
9.999464750289916992e-01
4.186794161796569824e-02
9.963035583496093750e-02
2.998148500919342041e-01
7.503074407577514648e-02
2.278017997741699219e-02
1.547982394695281982e-01
2.381334900856018066e-01
1.482993364334106445e-03
9.173421859741210938e-01
6.741052865982055664e-02
1.105560362339019775e-01
1.993784308433532715e-02
6.110201478004455566e-01
2.427238821983337402e-01
1.167414486408233643e-01
4.604046642780303955e-01
4.005774557590484619e-01
1.281888484954833984e-01
9.973400235176086426e-01
1.881143152713775635e-01
3.636344671249389648e-01
1.203954219818115234e-03
7.715633511543273926e-02
4.320297241210937500e-01
6.922239065170288086e-01
4.346460998058319092e-01
7.664397954940795898e-01
6.850391626358032227e-03
2.291218042373657227e-01
7.899305224418640137e-02
6.114751100540161133e-03
1.370160877704620361e-01
4.610165655612945557e-01
9.806062579154968262e-01
1.229412853717803955e-01
3.752970695495605469e-02
6.706076860427856445e-02
1.325280666351318359e-01
7.617368102073669434e-01
1.821438670158386230e-01
3.730189502239227295e-01
3.143474757671356201e-01
8.984004855155944824e-01
1.796575784683227539e-01
9.999791383743286133e-01
3.920657932758331299e-01
5.476423501968383789e-01
2.496090531349182129e-01
2.077845633029937744e-01
1.482789516448974609e-01
1.434197723865509033e-01
1.845785081386566162e-01
1.698669791221618652e-01
9.924566745758056641e-02
3.496059775352478027e-02
1.728072166442871094e-01
9.168270230293273926e-02
5.681294202804565430e-02
3.079445958137512207e-01
1.603878438472747803e-01
8.218356966972351074e-02
1.454438567161560059e-01
1.853856444358825684e-02
4.882559180259704590e-02
