2.000000000000000000e+00
1.000000000000000000e+00
9.999998211860656738e-01
9.999997019767761230e-01
9.999995231628417969e-01
9.999990463256835938e-01
9.999989271163940430e-01
9.999971985816955566e-01
9.999970197677612305e-01
9.999954700469970703e-01
9.999953508377075195e-01
9.999797344207763672e-01
9.999791383743286133e-01
9.999465942382812500e-01
9.999464750289916992e-01
9.999192953109741211e-01
9.999185800552368164e-01
9.998811483383178711e-01
9.998700618743896484e-01
9.996343851089477539e-01
9.996292591094970703e-01
9.974887967109680176e-01
9.973400235176086426e-01
9.953211545944213867e-01
9.947807192802429199e-01
9.941116571426391602e-01
9.939829111099243164e-01
9.896481633186340332e-01
9.890687465667724609e-01
9.853823184967041016e-01
9.844001531600952148e-01
9.831271171569824219e-01
9.825688004493713379e-01
9.815424680709838867e-01
9.806062579154968262e-01
9.742356538772583008e-01
9.734742641448974609e-01
9.725581407546997070e-01
9.699846506118774414e-01
9.616088867187500000e-01
9.609754681587219238e-01
9.552009105682373047e-01
9.549720287322998047e-01
9.525130987167358398e-01
9.503277540206909180e-01
9.457606077194213867e-01
9.440714120864868164e-01
9.334673881530761719e-01
9.325577020645141602e-01
9.313420653343200684e-01
9.306813478469848633e-01
9.297977685928344727e-01
9.291994571685791016e-01
9.243154525756835938e-01
9.208827018737792969e-01
9.194066524505615234e-01
9.147235155105590820e-01
8.986532092094421387e-01
8.984004855155944824e-01
8.948530554771423340e-01
8.786358833312988281e-01
8.722136020660400391e-01
8.696072101593017578e-01
8.665935397148132324e-01
8.655494451522827148e-01
8.623774051666259766e-01
8.524321317672729492e-01
8.520869016647338867e-01
8.484147787094116211e-01
8.442451953887939453e-01
8.247060775756835938e-01
8.092361092567443848e-01
7.997850179672241211e-01
7.925200462341308594e-01
7.877234816551208496e-01
7.832984328269958496e-01
7.710168361663818359e-01
7.703771591186523438e-01
7.664397954940795898e-01
7.656261920928955078e-01
7.617368102073669434e-01
7.564329504966735840e-01
7.558856010437011719e-01
7.515106201171875000e-01
7.489039301872253418e-01
7.448288798332214355e-01
7.413725852966308594e-01
7.338398694992065430e-01
7.280712127685546875e-01
7.185891866683959961e-01
7.179000377655029297e-01
7.177957296371459961e-01
7.105373144149780273e-01
7.094374299049377441e-01
7.084474563598632812e-01
7.057357430458068848e-01
7.044153213500976562e-01
7.028141021728515625e-01
6.922239065170288086e-01
6.917690038681030273e-01
6.885281205177307129e-01
6.856418251991271973e-01
6.836493611335754395e-01
6.812996268272399902e-01
6.784561872482299805e-01
6.770599484443664551e-01
6.741100549697875977e-01
6.738880276679992676e-01
6.732524633407592773e-01
6.684052944183349609e-01
6.580944061279296875e-01
6.566770076751708984e-01
6.448389291763305664e-01
6.427991986274719238e-01
6.415766477584838867e-01
6.317191720008850098e-01
6.287688612937927246e-01
6.285644769668579102e-01
6.274708509445190430e-01
6.124223470687866211e-01
6.104331612586975098e-01
6.049776077270507812e-01
6.039923429489135742e-01
5.891250967979431152e-01
5.882040262222290039e-01
5.866378545761108398e-01
5.810260772705078125e-01
5.701938271522521973e-01
5.693571567535400391e-01
5.676432251930236816e-01
5.601961016654968262e-01
5.579842329025268555e-01
5.569106340408325195e-01
5.502434968948364258e-01
5.334583520889282227e-01
5.239365100860595703e-01
5.229825377464294434e-01
5.191938281059265137e-01
5.190017819404602051e-01
5.184729099273681641e-01
5.114637613296508789e-01
5.108026862144470215e-01
5.087586641311645508e-01
5.083060264587402344e-01
5.061293840408325195e-01
5.047157406806945801e-01
5.030305385589599609e-01
5.014968514442443848e-01
4.965429306030273438e-01
4.925663769245147705e-01
4.872313439846038818e-01
4.860858321189880371e-01
4.856618940830230713e-01
4.854051470756530762e-01
4.839168190956115723e-01
4.835249483585357666e-01
4.828014075756072998e-01
4.821404218673706055e-01
4.821392893791198730e-01
4.807869195938110352e-01
4.787119626998901367e-01
4.769425988197326660e-01
4.756288528442382812e-01
4.661230444908142090e-01
4.547256231307983398e-01
4.494630098342895508e-01
4.468654096126556396e-01
4.463495314121246338e-01
4.436342716217041016e-01
4.433765709400177002e-01
4.427440464496612549e-01
4.368626773357391357e-01
4.358941018581390381e-01
4.350021183490753174e-01
4.346460998058319092e-01
4.329274296760559082e-01
4.316120445728302002e-01
4.310782551765441895e-01
4.214993715286254883e-01
4.196081161499023438e-01
4.175034165382385254e-01
4.133833646774291992e-01
4.127104878425598145e-01
4.105013310909271240e-01
4.103544354438781738e-01
4.095425307750701904e-01
4.005774557590484619e-01
4.004072546958923340e-01
3.978028893470764160e-01
3.970433771610260010e-01
3.863767683506011963e-01
3.831623196601867676e-01
3.810529112815856934e-01
3.737490773200988770e-01
3.730189502239227295e-01
3.709068298339843750e-01
3.699955940246582031e-01
3.674921393394470215e-01
3.624220788478851318e-01
3.603557944297790527e-01
3.596272468566894531e-01
3.595222234725952148e-01
3.568051457405090332e-01
3.540636897087097168e-01
3.537022173404693604e-01
3.528584837913513184e-01
3.518475294113159180e-01
3.502845764160156250e-01
3.501935601234436035e-01
3.495150208473205566e-01
3.491358458995819092e-01
3.441030979156494141e-01
3.392438292503356934e-01
3.376135230064392090e-01
3.371534943580627441e-01
3.364257216453552246e-01
3.326138854026794434e-01
3.286717534065246582e-01
3.254517316818237305e-01
3.251793980598449707e-01
3.213570117950439453e-01
3.182940483093261719e-01
3.171029090881347656e-01
3.155622482299804688e-01
3.143474757671356201e-01
3.112929463386535645e-01
3.111507296562194824e-01
3.101400136947631836e-01
2.926242947578430176e-01
2.925080657005310059e-01
2.922390401363372803e-01
2.882993221282958984e-01
2.860947847366333008e-01
2.813864350318908691e-01
2.770052850246429443e-01
2.769431471824645996e-01
2.737782001495361328e-01
2.736693322658538818e-01
2.626611888408660889e-01
2.501658201217651367e-01
2.469136416912078857e-01
2.465695440769195557e-01
2.427238821983337402e-01
2.398312985897064209e-01
2.381334900856018066e-01
2.374134063720703125e-01
2.370129823684692383e-01
2.368180453777313232e-01
2.338090538978576660e-01
2.325475513935089111e-01
2.314195334911346436e-01
2.298154532909393311e-01
2.242324650287628174e-01
2.222210168838500977e-01
2.175118327140808105e-01
2.174177765846252441e-01
2.166997492313385010e-01
2.150531113147735596e-01
2.135353684425354004e-01
2.134703397750854492e-01
2.093587219715118408e-01
2.079020142555236816e-01
2.077845633029937744e-01
2.041936218738555908e-01
2.008464634418487549e-01
2.008206844329833984e-01
1.976438760757446289e-01
1.968119442462921143e-01
1.957550644874572754e-01
1.957285702228546143e-01
1.923004090785980225e-01
1.897819340229034424e-01
1.878062486648559570e-01
1.849734485149383545e-01
1.836802065372467041e-01
1.835460066795349121e-01
1.821438670158386230e-01
1.803855895996093750e-01
1.780874729156494141e-01
1.755672991275787354e-01
1.752819120883941650e-01
1.742550730705261230e-01
1.728072166442871094e-01
1.701232492923736572e-01
1.664634943008422852e-01
1.656810939311981201e-01
1.612204015254974365e-01
1.608627736568450928e-01
1.598679721355438232e-01
1.589977443218231201e-01
1.571249663829803467e-01
1.566833257675170898e-01
1.547831296920776367e-01
1.542811393737792969e-01
1.537796556949615479e-01
1.536866426467895508e-01
1.506390273571014404e-01
1.504283249378204346e-01
1.454438567161560059e-01
1.444528698921203613e-01
1.406548917293548584e-01
1.401734054088592529e-01
1.392134726047515869e-01
1.387724578380584717e-01
1.365048289299011230e-01
1.347789764404296875e-01
1.334277391433715820e-01
1.334161758422851562e-01
1.330844461917877197e-01
1.327938735485076904e-01
1.316240131855010986e-01
1.314867436885833740e-01
1.228739023208618164e-01
1.228359639644622803e-01
1.199808120727539062e-01
1.188144385814666748e-01
1.179356873035430908e-01
1.178480982780456543e-01
1.120765805244445801e-01
1.115034818649291992e-01
1.079680919647216797e-01
1.054111421108245850e-01
1.022507250308990479e-01
1.008643507957458496e-01
9.789264202117919922e-02
9.742930531501770020e-02
9.652215242385864258e-02
9.419125318527221680e-02
9.168270230293273926e-02
9.155112504959106445e-02
8.633109927177429199e-02
8.615452051162719727e-02
8.122831583023071289e-02
8.057600259780883789e-02
7.819518446922302246e-02
7.723000645637512207e-02
7.503074407577514648e-02
7.445728778839111328e-02
7.178357243537902832e-02
7.171308994293212891e-02
6.831696629524230957e-02
6.791651248931884766e-02
6.706076860427856445e-02
6.538718938827514648e-02
6.496024131774902344e-02
6.375244259834289551e-02
6.179466843605041504e-02
6.112557649612426758e-02
6.013572216033935547e-02
5.944049358367919922e-02
5.778390169143676758e-02
5.740013718605041504e-02
5.588820576667785645e-02
5.541166663169860840e-02
5.400586128234863281e-02
5.343681573867797852e-02
5.275717377662658691e-02
5.250307917594909668e-02
5.193212628364562988e-02
5.116415023803710938e-02
5.033129453659057617e-02
4.931500554084777832e-02
4.899042844772338867e-02
4.884073138236999512e-02
4.882559180259704590e-02
4.857268929481506348e-02
4.328095912933349609e-02
4.310208559036254883e-02
4.284363985061645508e-02
4.279014468193054199e-02
3.945443034172058105e-02
3.806388378143310547e-02
3.724247217178344727e-02
3.687468171119689941e-02
3.435900807380676270e-02
3.252378106117248535e-02
3.130349516868591309e-02
3.064209222793579102e-02
2.829483151435852051e-02
2.792513370513916016e-02
2.303543686866760254e-02
2.302208542823791504e-02
2.278017997741699219e-02
1.998448371887207031e-02
1.704049110412597656e-02
1.703354716300964355e-02
1.637706160545349121e-02
1.535704731941223145e-02
1.512926816940307617e-02
1.464554667472839355e-02
1.449024677276611328e-02
1.428383588790893555e-02
1.259720325469970703e-02
1.233384013175964355e-02
1.014149188995361328e-02
9.449690580368041992e-03
8.794695138931274414e-03
7.605314254760742188e-03
7.590115070343017578e-03
7.566452026367187500e-03
5.250751972198486328e-03
5.093067884445190430e-03
3.809660673141479492e-03
3.789126873016357422e-03
3.421336412429809570e-03
2.949357032775878906e-03
2.923190593719482422e-03
2.689063549041748047e-03
2.608329057693481445e-03
2.123087644577026367e-03
2.015829086303710938e-03
1.885741949081420898e-03
1.203954219818115234e-03
1.163542270660400391e-03
4.217326641082763672e-04
3.422200679779052734e-04
4.067128611495718360e-05
3.964409188483841717e-05
6.872456197015708312e-06
6.699045115965418518e-06
3.952643965021707118e-06
1.438336312276078388e-06
2.014841982145298971e-07
2.783311181531189504e-08
8.625367642345338481e-10
0.000000000000000000e+00
