0.000000000000000000e+00
2.590673575129533775e-03
2.590673575129533775e-03
2.590673575129533775e-03
2.590673575129533775e-03
2.590673575129533775e-03
2.590673575129533775e-03
2.590673575129533775e-03
5.181347150259067551e-03
5.181347150259067551e-03
7.772020725388600892e-03
7.772020725388600892e-03
1.036269430051813510e-02
1.036269430051813510e-02
1.295336787564766758e-02
1.295336787564766758e-02
1.554404145077720178e-02
1.554404145077720178e-02
1.813471502590673426e-02
1.813471502590673426e-02
2.331606217616580268e-02
2.331606217616580268e-02
2.590673575129533515e-02
2.590673575129533515e-02
2.849740932642487110e-02
2.849740932642487110e-02
3.108808290155440357e-02
3.108808290155440357e-02
3.367875647668393951e-02
3.367875647668393951e-02
3.626943005181346852e-02
3.626943005181346852e-02
4.145077720207254041e-02
4.145077720207254041e-02
4.663212435233160535e-02
4.663212435233160535e-02
4.922279792746114130e-02
4.922279792746114130e-02
5.181347150259067030e-02
5.181347150259067030e-02
5.440414507772020625e-02
5.440414507772020625e-02
6.735751295336787903e-02
6.735751295336787903e-02
7.253886010362693704e-02
7.253886010362693704e-02
7.772020725388600892e-02
7.772020725388600892e-02
8.031088082901553793e-02
8.031088082901553793e-02
8.290155440414508081e-02
8.290155440414508081e-02
8.549222797927460982e-02
8.549222797927460982e-02
9.585492227979273971e-02
9.585492227979273971e-02
1.062176165803108835e-01
1.062176165803108835e-01
1.139896373056994844e-01
1.139896373056994844e-01
1.295336787564766723e-01
1.295336787564766723e-01
1.347150259067357581e-01
1.347150259067357581e-01
1.398963730569948161e-01
1.398963730569948161e-01
1.424870466321243589e-01
1.424870466321243589e-01
1.450777202072538741e-01
1.450777202072538741e-01
1.476683937823834170e-01
1.476683937823834170e-01
1.502590673575129598e-01
1.502590673575129598e-01
1.554404145077720178e-01
1.554404145077720178e-01
1.580310880829015607e-01
1.580310880829015607e-01
1.606217616580310759e-01
1.606217616580310759e-01
1.658031088082901616e-01
1.658031088082901616e-01
1.735751295336787625e-01
1.735751295336787625e-01
1.761658031088082776e-01
1.761658031088082776e-01
1.787564766839378205e-01
1.787564766839378205e-01
1.891191709844559643e-01
1.891191709844559643e-01
1.917098445595854794e-01
1.917098445595854794e-01
1.968911917098445652e-01
1.968911917098445652e-01
1.994818652849740803e-01
1.994818652849740803e-01
2.072538860103626812e-01
2.072538860103626812e-01
2.098445595854922241e-01
2.098445595854922241e-01
2.124352331606217670e-01
2.124352331606217670e-01
2.202072538860103679e-01
2.202072538860103679e-01
2.253886010362694259e-01
2.253886010362694259e-01
2.331606217616580268e-01
2.331606217616580268e-01
2.383419689119170848e-01
2.383419689119170848e-01
2.435233160621761705e-01
2.435233160621761705e-01
2.461139896373056857e-01
2.461139896373056857e-01
2.512953367875647714e-01
2.512953367875647714e-01
2.564766839378238572e-01
2.564766839378238572e-01
2.590673575129533446e-01
2.590673575129533446e-01
2.616580310880828875e-01
2.616580310880828875e-01
2.642487046632124303e-01
2.642487046632124303e-01
2.694300518134715161e-01
2.694300518134715161e-01
2.772020725388600892e-01
2.772020725388600892e-01
2.823834196891191750e-01
2.823834196891191750e-01
2.875647668393782608e-01
2.875647668393782608e-01
3.005181347150259197e-01
3.005181347150259197e-01
3.031088082901554626e-01
3.031088082901554626e-01
3.082901554404144928e-01
3.082901554404144928e-01
3.108808290155440357e-01
3.108808290155440357e-01
3.134715025906735786e-01
3.134715025906735786e-01
3.316062176165803232e-01
3.316062176165803232e-01
3.341968911917098661e-01
3.341968911917098661e-01
3.445595854922279822e-01
3.445595854922279822e-01
3.601036269430051839e-01
3.601036269430051839e-01
4.041450777202072464e-01
4.041450777202072464e-01
4.093264248704663322e-01
4.093264248704663322e-01
4.170984455958549053e-01
4.170984455958549053e-01
4.222797927461139911e-01
4.222797927461139911e-01
4.300518134715025642e-01
4.300518134715025642e-01
4.352331606217616500e-01
4.352331606217616500e-01
4.481865284974093089e-01
4.481865284974093089e-01
4.533678756476683946e-01
4.533678756476683946e-01
4.637305699481865107e-01
4.637305699481865107e-01
4.663212435233160535e-01
4.663212435233160535e-01
4.689119170984455964e-01
4.689119170984455964e-01
4.766839378238341696e-01
4.766839378238341696e-01
4.818652849740932553e-01
4.818652849740932553e-01
4.896373056994818840e-01
4.896373056994818840e-01
4.922279792746113714e-01
4.922279792746113714e-01
4.948186528497409142e-01
4.948186528497409142e-01
5.051813471502590858e-01
5.051813471502590858e-01
5.129533678756477144e-01
5.129533678756477144e-01
5.233160621761657749e-01
5.233160621761657749e-01
5.440414507772021180e-01
5.440414507772021180e-01
5.569948186528497214e-01
5.569948186528497214e-01
5.621761658031088071e-01
5.621761658031088071e-01
5.673575129533678929e-01
5.673575129533678929e-01
5.699481865284974358e-01
5.699481865284974358e-01
5.751295336787565216e-01
5.751295336787565216e-01
5.777202072538860644e-01
5.777202072538860644e-01
5.829015544041450392e-01
5.829015544041450392e-01
5.906735751295336678e-01
5.906735751295336678e-01
5.932642487046632107e-01
5.932642487046632107e-01
6.036269430051813822e-01
6.036269430051813822e-01
6.113989637305698999e-01
6.113989637305698999e-01
6.295336787564767000e-01
6.295336787564767000e-01
6.398963730569948716e-01
6.398963730569948716e-01
6.424870466321243034e-01
6.424870466321243034e-01
6.554404145077720178e-01
6.554404145077720178e-01
6.658031088082901894e-01
6.658031088082901894e-01
6.683937823834197323e-01
6.683937823834197323e-01
6.761658031088082499e-01
6.761658031088082499e-01
6.865284974093264214e-01
6.865284974093264214e-01
6.968911917098445929e-01
6.968911917098445929e-01
6.994818652849741358e-01
6.994818652849741358e-01
7.020725388601036787e-01
7.020725388601036787e-01
7.072538860103626535e-01
7.072538860103626535e-01
7.176165803108808250e-01
7.176165803108808250e-01
7.227979274611399108e-01
7.227979274611399108e-01
7.435233160621761428e-01
7.435233160621761428e-01
7.461139896373056857e-01
7.461139896373056857e-01
7.564766839378238572e-01
7.564766839378238572e-01
7.590673575129534001e-01
7.590673575129534001e-01
7.616580310880829430e-01
7.616580310880829430e-01
7.694300518134714606e-01
7.694300518134714606e-01
7.746113989637305464e-01
7.746113989637305464e-01
7.823834196891191750e-01
7.823834196891191750e-01
7.849740932642487179e-01
7.849740932642487179e-01
7.875647668393782608e-01
7.875647668393782608e-01
8.186528497409326643e-01
8.186528497409326643e-01
8.212435233160622072e-01
8.212435233160622072e-01
8.341968911917098106e-01
8.341968911917098106e-01
8.367875647668393535e-01
8.367875647668393535e-01
8.419689119170984393e-01
8.419689119170984393e-01
8.445595854922279822e-01
8.445595854922279822e-01
8.652849740932642142e-01
8.652849740932642142e-01
8.678756476683937571e-01
8.678756476683937571e-01
8.756476683937823857e-01
8.756476683937823857e-01
8.782383419689119286e-01
8.782383419689119286e-01
8.808290155440414715e-01
8.808290155440414715e-01
8.886010362694301001e-01
8.886010362694301001e-01
8.911917098445595320e-01
8.911917098445595320e-01
9.093264248704663322e-01
9.093264248704663322e-01
9.222797927461139356e-01
9.222797927461139356e-01
9.248704663212434784e-01
9.248704663212434784e-01
9.274611398963730213e-01
9.274611398963730213e-01
9.300518134715025642e-01
9.300518134715025642e-01
9.352331606217616500e-01
9.352331606217616500e-01
9.404145077720207357e-01
9.404145077720207357e-01
9.481865284974093644e-01
9.481865284974093644e-01
9.559585492227978820e-01
9.559585492227978820e-01
9.637305699481865107e-01
9.637305699481865107e-01
9.844559585492227427e-01
9.844559585492227427e-01
9.870466321243522856e-01
9.870466321243522856e-01
9.896373056994818285e-01
9.896373056994818285e-01
9.948186528497409142e-01
9.948186528497409142e-01
1.000000000000000000e+00
