2.000000000000000000e+00
1.000000000000000000e+00
9.999998807907104492e-01
9.999998211860656738e-01
9.999996423721313477e-01
9.999986290931701660e-01
9.999976158142089844e-01
9.997547864913940430e-01
9.997515082359313965e-01
9.990090131759643555e-01
9.988449811935424805e-01
9.980657100677490234e-01
9.972245693206787109e-01
9.970659017562866211e-01
9.970597028732299805e-01
9.838986396789550781e-01
9.832530021667480469e-01
9.728307723999023438e-01
9.715891480445861816e-01
9.552547931671142578e-01
9.343631267547607422e-01
9.303705692291259766e-01
9.299499988555908203e-01
9.003218412399291992e-01
8.951824903488159180e-01
8.790974617004394531e-01
8.737192153930664062e-01
8.391051292419433594e-01
8.389120101928710938e-01
8.179509639739990234e-01
8.167396783828735352e-01
8.050174713134765625e-01
7.962441444396972656e-01
7.852523922920227051e-01
7.725360393524169922e-01
7.543209791183471680e-01
7.497439384460449219e-01
7.473958730697631836e-01
7.417892813682556152e-01
7.413177490234375000e-01
7.255334258079528809e-01
7.247289419174194336e-01
7.099783420562744141e-01
7.084029912948608398e-01
7.055725455284118652e-01
7.040906548500061035e-01
6.947666406631469727e-01
6.712385416030883789e-01
6.666551828384399414e-01
6.624279618263244629e-01
6.615349054336547852e-01
6.570703387260437012e-01
6.455304026603698730e-01
6.363564729690551758e-01
6.186838150024414062e-01
6.060478687286376953e-01
5.974293351173400879e-01
5.934621691703796387e-01
5.758835673332214355e-01
5.632790327072143555e-01
5.415647029876708984e-01
5.170100331306457520e-01
5.155163407325744629e-01
5.150735974311828613e-01
5.104154944419860840e-01
5.095103979110717773e-01
5.080845952033996582e-01
4.974555075168609619e-01
4.916663467884063721e-01
4.897115230560302734e-01
4.893636703491210938e-01
4.842237234115600586e-01
4.836556315422058105e-01
4.757786095142364502e-01
4.709594249725341797e-01
4.705606698989868164e-01
4.684940576553344727e-01
4.649164676666259766e-01
4.617066085338592529e-01
4.598511159420013428e-01
4.580920040607452393e-01
4.567789435386657715e-01
4.552066326141357422e-01
4.547674059867858887e-01
4.498940408229827881e-01
4.473055005073547363e-01
4.460562467575073242e-01
4.452993869781494141e-01
4.411986768245697021e-01
4.376963973045349121e-01
4.346449971199035645e-01
4.236201345920562744e-01
4.198719859123229980e-01
4.181466400623321533e-01
4.164389073848724365e-01
4.044890403747558594e-01
3.965678215026855469e-01
3.933425545692443848e-01
3.929883241653442383e-01
3.819784522056579590e-01
3.800393939018249512e-01
3.782138228416442871e-01
3.726822137832641602e-01
3.664043545722961426e-01
3.650807738304138184e-01
3.628807067871093750e-01
3.564032614231109619e-01
3.544445335865020752e-01
3.532069921493530273e-01
3.508164882659912109e-01
3.482106924057006836e-01
3.439202904701232910e-01
3.417472839355468750e-01
3.383725881576538086e-01
3.367855548858642578e-01
3.338392078876495361e-01
3.329339921474456787e-01
3.321959674358367920e-01
3.264968991279602051e-01
3.214249610900878906e-01
3.193151950836181641e-01
3.160204589366912842e-01
3.138908147811889648e-01
3.130946159362792969e-01
3.080865740776062012e-01
3.079514503479003906e-01
3.040806055068969727e-01
3.039500713348388672e-01
3.033314943313598633e-01
3.009041547775268555e-01
2.997873127460479736e-01
2.982644438743591309e-01
2.944997549057006836e-01
2.930541038513183594e-01
2.926077842712402344e-01
2.919231653213500977e-01
2.917743325233459473e-01
2.917008697986602783e-01
2.911471426486968994e-01
2.902925312519073486e-01
2.900882661342620850e-01
2.888023853302001953e-01
2.825529575347900391e-01
2.811273336410522461e-01
2.811108827590942383e-01
2.808930873870849609e-01
2.769088447093963623e-01
2.757185697555541992e-01
2.739645540714263916e-01
2.671751379966735840e-01
2.500924468040466309e-01
2.497728765010833740e-01
2.497101426124572754e-01
2.482078075408935547e-01
2.471288442611694336e-01
2.470490932464599609e-01
2.467336952686309814e-01
2.467058897018432617e-01
2.447995841503143311e-01
2.434481084346771240e-01
2.429133653640747070e-01
2.428683638572692871e-01
2.391405105590820312e-01
2.383027672767639160e-01
2.382567524909973145e-01
2.378436625003814697e-01
2.350713014602661133e-01
2.347623109817504883e-01
2.345562279224395752e-01
2.342608571052551270e-01
2.339758276939392090e-01
2.334843575954437256e-01
2.329023182392120361e-01
2.326573431491851807e-01
2.312848269939422607e-01
2.307967543601989746e-01
2.304057180881500244e-01
2.297458052635192871e-01
2.289933264255523682e-01
2.287871539592742920e-01
2.287512719631195068e-01
2.284193634986877441e-01
2.277486920356750488e-01
2.274164557456970215e-01
2.252888679504394531e-01
2.247551381587982178e-01
2.229282557964324951e-01
2.221690714359283447e-01
2.198945879936218262e-01
2.197857201099395752e-01
2.163461446762084961e-01
2.159527242183685303e-01
2.154104113578796387e-01
2.146692574024200439e-01
2.142138481140136719e-01
2.140565514564514160e-01
2.139005661010742188e-01
2.138131260871887207e-01
2.135283648967742920e-01
2.133810222148895264e-01
2.133420705795288086e-01
2.133081853389739990e-01
2.128640413284301758e-01
2.126606702804565430e-01
2.117348909378051758e-01
2.116234004497528076e-01
2.114865183830261230e-01
2.114391624927520752e-01
2.103050947189331055e-01
2.095997035503387451e-01
2.087824046611785889e-01
2.080050110816955566e-01
2.065033018589019775e-01
2.061574757099151611e-01
2.056871652603149414e-01
2.056688666343688965e-01
2.056023776531219482e-01
2.055656611919403076e-01
2.047099471092224121e-01
2.042629420757293701e-01
2.035764455795288086e-01
2.030394375324249268e-01
2.029372155666351318e-01
2.027088403701782227e-01
2.023317813873291016e-01
2.020550668239593506e-01
2.009688913822174072e-01
2.007099092006683350e-01
2.001763582229614258e-01
2.000012099742889404e-01
1.999973952770233154e-01
1.999484896659851074e-01
1.996736228466033936e-01
1.996321678161621094e-01
1.990619003772735596e-01
1.985969841480255127e-01
1.982457339763641357e-01
1.981386244297027588e-01
1.977111697196960449e-01
1.972343623638153076e-01
1.956697702407836914e-01
1.948439180850982666e-01
1.947119832038879395e-01
1.940148770809173584e-01
1.932418942451477051e-01
1.930678188800811768e-01
1.927701234817504883e-01
1.925749778747558594e-01
1.922824978828430176e-01
1.922217011451721191e-01
1.917861998081207275e-01
1.917529106140136719e-01
1.916655898094177246e-01
1.914451122283935547e-01
1.912630200386047363e-01
1.909658014774322510e-01
1.908312141895294189e-01
1.908086240291595459e-01
1.907563209533691406e-01
1.906276941299438477e-01
1.889040470123291016e-01
1.887129545211791992e-01
1.885414421558380127e-01
1.884399950504302979e-01
1.876110732555389404e-01
1.873413920402526855e-01
1.871562004089355469e-01
1.870333850383758545e-01
1.869729757308959961e-01
1.868636608123779297e-01
1.868070662021636963e-01
1.868033707141876221e-01
1.862367391586303711e-01
1.859949529170989990e-01
1.859018504619598389e-01
1.856551766395568848e-01
1.854619085788726807e-01
1.853845119476318359e-01
1.853627562522888184e-01
1.853486299514770508e-01
1.850555241107940674e-01
1.850506067276000977e-01
1.849142611026763916e-01
1.846792995929718018e-01
1.846546232700347900e-01
1.846456229686737061e-01
1.842943131923675537e-01
1.841829419136047363e-01
1.835345625877380371e-01
1.833416521549224854e-01
1.833205223083496094e-01
1.833131015300750732e-01
1.832104623317718506e-01
1.832061409950256348e-01
1.830048859119415283e-01
1.828517913818359375e-01
1.827496588230133057e-01
1.824848651885986328e-01
1.818139851093292236e-01
1.815469264984130859e-01
1.811966001987457275e-01
1.809180378913879395e-01
1.806853413581848145e-01
1.806367039680480957e-01
1.803666353225708008e-01
1.803371310234069824e-01
1.794937252998352051e-01
1.790139079093933105e-01
1.788192093372344971e-01
1.786420643329620361e-01
1.786080896854400635e-01
1.782510578632354736e-01
1.781148314476013184e-01
1.780586540699005127e-01
1.779939532279968262e-01
