9.794886112213134766e-01
4.440754652023315430e-02
4.188222885131835938e-01
8.297389745712280273e-01
1.293800175189971924e-01
3.811240196228027344e-03
1.757371425628662109e-02
9.520062804222106934e-02
1.695183515548706055e-01
9.960520267486572266e-02
1.813421249389648438e-01
2.292162477970123291e-01
1.387811899185180664e-01
7.433042526245117188e-01
9.924993515014648438e-01
8.942248821258544922e-01
4.817332327365875244e-01
9.832459688186645508e-01
6.227476596832275391e-01
1.246803998947143555e-02
9.999812841415405273e-01
7.010556459426879883e-01
9.318327903747558594e-01
5.968499183654785156e-02
9.999312162399291992e-01
2.768275141716003418e-01
4.387181401252746582e-01
2.668803334236145020e-01
3.828843235969543457e-01
1.431846618652343750e-01
1.069878339767456055e-01
6.021004915237426758e-02
3.020277321338653564e-01
1.202701330184936523e-01
9.989672899246215820e-01
1.332432925701141357e-01
2.490996718406677246e-01
2.873684763908386230e-01
9.996362924575805664e-01
9.775530695915222168e-01
1.549271643161773682e-01
2.560033202171325684e-01
4.884761571884155273e-01
1.000000000000000000e+00
1.838443279266357422e-01
3.387698829174041748e-01
8.382639288902282715e-02
4.402798116207122803e-01
9.997341632843017578e-01
9.804415702819824219e-01
9.930220246315002441e-01
1.000000000000000000e+00
3.218200504779815674e-01
9.970585703849792480e-01
9.192962646484375000e-01
1.071697473526000977e-02
1.298564672470092773e-02
4.173159599304199219e-03
4.568636417388916016e-02
5.735619068145751953e-01
1.465953886508941650e-01
5.216588973999023438e-01
4.874153137207031250e-01
4.418120384216308594e-01
5.728700757026672363e-02
9.999974966049194336e-01
6.976872086524963379e-01
1.000000000000000000e+00
8.550345897674560547e-03
7.956892251968383789e-03
7.434698939323425293e-02
3.231990635395050049e-01
1.581537723541259766e-02
9.618496894836425781e-01
9.999724030494689941e-01
6.056334972381591797e-01
8.402466773986816406e-04
1.091141700744628906e-01
1.992885768413543701e-01
2.807281089189928025e-05
5.316711068153381348e-01
2.604959607124328613e-01
2.723137736320495605e-01
4.597336053848266602e-02
4.184129536151885986e-01
3.147847354412078857e-01
2.605181932449340820e-02
6.013700366020202637e-02
6.309151649475097656e-04
9.999997019767761230e-01
3.513520956039428711e-02
2.407822906970977783e-01
4.989143908023834229e-01
1.587717533111572266e-01
6.473681330680847168e-02
1.996251940727233887e-02
3.323942422866821289e-03
5.687761306762695312e-02
4.980056285858154297e-01
9.480239152908325195e-01
9.992808103561401367e-01
2.132970392704010010e-01
1.139352917671203613e-01
3.646184206008911133e-01
9.995200634002685547e-01
2.301916480064392090e-02
5.777901411056518555e-02
9.839838743209838867e-01
1.107940375804901123e-01
3.786221146583557129e-02
1.237244307994842529e-01
6.460984945297241211e-01
9.550547599792480469e-02
1.830175518989562988e-02
7.100731134414672852e-02
9.999694824218750000e-01
7.837061285972595215e-01
7.694095373153686523e-03
2.495857775211334229e-01
8.352220058441162109e-03
1.762592196464538574e-01
7.702608108520507812e-01
5.384652614593505859e-01
7.673785686492919922e-01
9.337931871414184570e-03
1.000000000000000000e+00
1.000000000000000000e+00
7.199171185493469238e-02
6.625679135322570801e-02
9.050764674611855298e-06
5.590295791625976562e-01
9.999992251396179199e-01
7.495527863502502441e-01
2.129971981048583984e-03
1.585483551025390625e-04
1.807630062103271484e-01
9.999800920486450195e-01
5.931884050369262695e-03
5.818092823028564453e-02
2.488156855106353760e-01
1.989347040653228760e-01
8.132771253585815430e-01
9.692302942276000977e-01
7.800509929656982422e-01
1.142504513263702393e-01
9.999076128005981445e-01
2.575588226318359375e-02
3.936861253661660953e-12
9.985875487327575684e-01
4.515069723129272461e-02
9.889267683029174805e-01
1.105207204818725586e-02
1.000000000000000000e+00
3.309000134468078613e-01
1.000000000000000000e+00
2.058744430541992188e-03
9.646619558334350586e-01
1.338699460029602051e-01
9.761513471603393555e-01
8.522440791130065918e-01
6.298759579658508301e-02
1.715593338012695312e-01
1.000000000000000000e+00
4.850029945373535156e-04
1.181361377239227295e-01
2.023042440414428711e-01
2.534051537513732910e-01
9.781253337860107422e-01
1.412506401538848877e-01
8.945851325988769531e-01
9.991787672042846680e-01
1.466208696365356445e-02
1.012166142463684082e-01
3.368188738822937012e-01
6.294605731964111328e-01
4.689979553222656250e-02
9.999727606773376465e-01
1.353737711906433105e-02
2.893891930580139160e-02
8.794744014739990234e-01
5.032520294189453125e-01
9.937121868133544922e-01
9.547886252403259277e-01
3.845283389091491699e-01
5.547762513160705566e-01
9.091845154762268066e-02
3.101812601089477539e-01
2.521930336952209473e-01
9.999947547912597656e-01
4.888404607772827148e-01
1.117088794708251953e-01
8.402141332626342773e-01
1.045410633087158203e-01
9.990551471710205078e-01
3.929978609085083008e-02
1.000000000000000000e+00
2.525019645690917969e-02
6.293244361877441406e-01
3.748673200607299805e-02
4.658108353614807129e-01
8.710184097290039062e-01
8.002015948295593262e-02
2.366054058074951172e-02
1.601597666740417480e-02
7.896822690963745117e-02
1.001667976379394531e-02
4.283411800861358643e-01
8.930694460868835449e-01
1.207261383533477783e-01
1.355114579200744629e-02
9.999428391456604004e-01
1.868945658206939697e-01
9.996374845504760742e-01
1.768334507942199707e-01
7.240009903907775879e-01
2.990326285362243652e-01
1.207598745822906494e-01
1.773005723953247070e-02
1.252287626266479492e-01
1.110396385192871094e-01
3.773388266563415527e-02
2.161825299263000488e-01
9.639540314674377441e-02
9.999548792839050293e-01
4.048049449920654297e-04
2.282536029815673828e-02
6.690865755081176758e-01
1.607150435447692871e-01
5.506008267402648926e-01
9.997031688690185547e-01
4.331422150135040283e-01
9.747141599655151367e-01
2.231323719024658203e-01
9.999990463256835938e-01
6.279259920120239258e-01
9.977336525917053223e-01
9.845833778381347656e-01
3.745573163032531738e-01
2.622163593769073486e-01
9.999316334724426270e-01
3.293597698211669922e-02
1.042699295794591308e-04
8.852737545967102051e-01
6.175062060356140137e-02
1.000000000000000000e+00
6.232416629791259766e-02
6.030765175819396973e-02
6.541004180908203125e-01
9.861527681350708008e-01
9.515286684036254883e-01
1.035605370998382568e-01
2.147260606288909912e-01
4.237146079540252686e-01
9.945824146270751953e-01
8.420985937118530273e-02
1.370843648910522461e-01
7.775798439979553223e-02
2.153979837894439697e-01
1.709103584289550781e-03
2.004033625125885010e-01
9.928333759307861328e-01
4.363020956516265869e-01
8.325005769729614258e-01
1.000000000000000000e+00
1.000000000000000000e+00
9.999871253967285156e-01
2.950164675712585449e-01
7.820984125137329102e-01
8.925974369049072266e-03
9.957333803176879883e-01
4.186264276504516602e-01
1.808354854583740234e-01
8.954763412475585938e-01
2.260064184665679932e-01
2.355716824531555176e-01
2.388437092304229736e-01
2.866539359092712402e-01
2.999421954154968262e-02
1.297369599342346191e-02
1.950182318687438965e-01
9.999616146087646484e-01
1.962645053863525391e-01
9.589567780494689941e-02
1.370179951190948486e-01
6.000250577926635742e-03
4.034522175788879395e-02
2.146407663822174072e-01
2.970439791679382324e-01
7.304288744926452637e-01
8.717929124832153320e-01
1.054970125551335514e-04
3.807638287544250488e-01
9.999074935913085938e-01
4.944860339164733887e-01
9.999964833259582520e-01
1.137163937091827393e-01
9.999668002128601074e-01
1.861817538738250732e-01
3.520846366882324219e-04
3.489978313446044922e-01
2.487117052078247070e-02
4.800072312355041504e-01
1.169361770153045654e-01
8.192625641822814941e-02
1.370339691638946533e-01
7.592353224754333496e-01
2.654912471771240234e-01
4.347786307334899902e-02
1.000000000000000000e+00
2.875534296035766602e-01
1.849853098392486572e-01
2.932428717613220215e-01
5.534076690673828125e-02
6.463815952884033322e-05
5.455471277236938477e-01
1.684471964836120605e-01
1.000000000000000000e+00
3.337170481681823730e-01
2.173319458961486816e-02
2.468102872371673584e-01
9.999942779541015625e-01
7.910796403884887695e-01
4.954175055027008057e-01
1.000000000000000000e+00
9.999984502792358398e-01
1.410216093063354492e-01
9.967436790466308594e-01
1.233601570129394531e-02
1.000000000000000000e+00
2.520931959152221680e-01
1.897870302200317383e-01
4.368322193622589111e-01
5.747678875923156738e-01
6.178733706474304199e-01
1.638447046279907227e-01
9.709408283233642578e-01
2.053259611129760742e-01
1.424474120140075684e-01
1.269280910491943359e-01
1.020573377609252930e-01
4.437263011932373047e-01
9.069497585296630859e-01
2.362158894538879395e-01
1.217306554317474365e-01
3.488298654556274414e-01
9.999974966049194336e-01
5.302962660789489746e-02
2.098777890205383301e-02
5.700349807739257812e-03
5.987392067909240723e-01
2.354799211025238037e-01
9.999879002571105957e-01
1.034105718135833740e-01
9.999210834503173828e-01
9.702658653259277344e-01
1.630854308605194092e-01
1.202602684497833252e-01
9.999967217445373535e-01
4.426503181457519531e-01
9.999995827674865723e-01
1.000000000000000000e+00
8.496208190917968750e-01
6.368348002433776855e-02
9.814555048942565918e-01
5.814314484596252441e-01
9.999524354934692383e-01
6.307386159896850586e-01
7.397418022155761719e-01
3.537303209304809570e-02
3.749787807464599609e-03
9.980039596557617188e-01
3.309562802314758301e-01
4.482597112655639648e-03
4.332535564899444580e-01
3.142769038677215576e-01
1.768350601196289062e-03
8.148348331451416016e-02
2.859218716621398926e-01
5.095003843307495117e-01
1.661390066146850586e-03
1.272082328796386719e-03
7.397457957267761230e-02
9.809579849243164062e-01
1.697361469268798828e-02
9.074717760086059570e-02
3.835639357566833496e-02
8.768200874328613281e-03
6.492596864700317383e-01
2.213516831398010254e-01
9.999834299087524414e-01
3.120833635330200195e-01
6.200611591339111328e-03
5.152441263198852539e-01
1.740992069244384766e-02
9.999031424522399902e-01
7.099956870079040527e-01
9.846450686454772949e-01
9.558793902397155762e-01
1.000000000000000000e+00
9.920195341110229492e-01
8.056926727294921875e-02
1.000000000000000000e+00
8.193125128746032715e-01
2.114048600196838379e-02
9.783315658569335938e-01
9.995047450065612793e-01
7.360100746154785156e-03
2.054428458213806152e-01
9.996063709259033203e-01
6.242617368698120117e-01
2.255727052688598633e-01
6.423484086990356445e-01
6.421856880187988281e-01
9.125800728797912598e-01
3.622713685035705566e-01
1.000000000000000000e+00
1.672898530960083008e-01
9.982653856277465820e-01
1.470148563385009766e-03
1.358270645141601562e-02
5.652934312820434570e-02
5.164235830307006836e-03
2.412773668766021729e-01
2.768039703369140625e-04
9.994152784347534180e-01
8.807449340820312500e-01
5.611984133720397949e-01
2.857860326766967773e-01
8.399310708045959473e-02
2.087162137031555176e-01
1.248914301395416260e-01
9.610552787780761719e-01
6.408263444900512695e-01
9.236751794815063477e-01
1.501298248767852783e-01
5.036582350730895996e-01
1.551587581634521484e-01
7.478867173194885254e-01
4.189770221710205078e-01
9.304544329643249512e-01
9.580254554748535156e-04
4.794475138187408447e-01
9.999995231628417969e-01
9.995186328887939453e-01
4.364951252937316895e-01
9.913836717605590820e-01
9.994455575942993164e-01
1.000000000000000000e+00
1.122295856475830078e-03
1.000000000000000000e+00
5.548671483993530273e-01
1.000000000000000000e+00
1.000000000000000000e+00
5.788649320602416992e-01
9.997700452804565430e-01
3.789598345756530762e-01
9.690680503845214844e-01
5.187314748764038086e-01
6.459827423095703125e-01
9.988738298416137695e-01
4.101233482360839844e-01
9.982296824455261230e-02
9.482863545417785645e-02
7.372510433197021484e-02
1.000000000000000000e+00
1.533831655979156494e-01
3.112899065017700195e-01
1.000000000000000000e+00
8.227592706680297852e-01
3.747820854187011719e-03
7.331360578536987305e-01
5.216847658157348633e-01
9.754298329353332520e-01
1.007356047630310059e-01
2.862845659255981445e-01
2.577937841415405273e-01
5.830609798431396484e-01
4.367268085479736328e-01
5.040447711944580078e-01
3.912893235683441162e-01
7.644790410995483398e-01
9.328616857528686523e-01
9.989401102066040039e-01
3.710047006607055664e-01
3.759286999702453613e-01
3.348755240440368652e-01
4.982814192771911621e-01
1.000000000000000000e+00
4.113974571228027344e-01
4.686807990074157715e-01
1.000000000000000000e+00
5.813877582550048828e-01
3.892900049686431885e-01
9.652043581008911133e-01
5.831881165504455566e-01
9.855270385742187500e-01
4.147430956363677979e-01
8.325576782226562500e-04
9.983468651771545410e-01
1.249016523361206055e-01
4.157626244705170393e-05
1.626255512237548828e-01
5.831999778747558594e-01
2.867996692657470703e-03
1.000000000000000000e+00
4.738295078277587891e-02
1.456886529922485352e-03
4.399865865707397461e-02
1.000000000000000000e+00
2.496400773525238037e-01
9.991642236709594727e-01
8.473145365715026855e-01
1.000000000000000000e+00
9.999037384986877441e-01
9.427363276481628418e-01
1.000000000000000000e+00
2.421157360076904297e-01
1.168385148048400879e-01
4.077614545822143555e-01
5.205073952674865723e-01
1.925943195819854736e-01
9.999996423721313477e-01
3.951376974582672119e-01
5.940029025077819824e-02
1.640277504920959473e-01
1.337809264659881592e-01
2.084360718727111816e-01
9.190404415130615234e-01
8.730275630950927734e-01
9.022409915924072266e-01
8.605556488037109375e-01
9.999584555625915527e-01
3.615404069423675537e-01
1.000000000000000000e+00
8.423604965209960938e-01
1.000000000000000000e+00
8.570473194122314453e-01
2.609983384609222412e-01
2.121938467025756836e-01
5.834516286849975586e-01
2.233019769191741943e-01
9.997979402542114258e-01
9.999988079071044922e-01
4.215832352638244629e-01
4.875794053077697754e-01
9.042054414749145508e-03
3.041478991508483887e-01
2.153086066246032715e-01
6.412279009819030762e-01
4.017432630062103271e-01
3.793882727622985840e-01
2.706171017052838579e-06
2.757326364517211914e-01
1.000000000000000000e+00
9.999477863311767578e-01
2.206909954547882080e-01
1.220591068267822266e-01
3.961470127105712891e-01
3.680996298789978027e-01
3.857718706130981445e-01
9.350780248641967773e-01
5.602480769157409668e-01
7.830671072006225586e-01
1.000000000000000000e+00
1.986393332481384277e-01
7.198827266693115234e-01
6.378108263015747070e-02
5.583355426788330078e-01
1.325612068176269531e-01
4.410346746444702148e-01
9.819737076759338379e-01
2.381839156150817871e-01
6.449528336524963379e-01
7.922091484069824219e-01
4.420391619205474854e-01
1.778324246406555176e-01
1.000000000000000000e+00
9.999921917915344238e-01
8.684282302856445312e-01
6.151753664016723633e-02
5.343374013900756836e-01
3.694654405117034912e-01
2.108617126941680908e-01
3.838392496109008789e-01
7.762072682380676270e-01
4.075929224491119385e-01
5.196538567543029785e-01
7.374101877212524414e-01
5.052003264427185059e-02
1.000000000000000000e+00
1.060472726821899414e-01
9.999309778213500977e-01
1.170293092727661133e-01
5.149027705192565918e-01
5.251472592353820801e-01
8.368946313858032227e-01
5.555947063839994371e-05
1.580848693847656250e-01
8.723604083061218262e-01
2.822548151016235352e-02
9.426827430725097656e-01
2.293444871902465820e-01
9.842604994773864746e-01
1.194037199020385742e-01
2.181515395641326904e-01
4.190819263458251953e-01
9.794828891754150391e-01
7.443532347679138184e-02
3.147900104522705078e-02
2.004965841770172119e-01
1.000000000000000000e+00
1.864716708660125732e-01
9.991139173507690430e-01
1.778752803802490234e-01
7.665169239044189453e-01
2.306001782417297363e-01
1.000000000000000000e+00
1.551366150379180908e-01
6.954121589660644531e-01
9.977511167526245117e-01
6.415253877639770508e-02
1.000000000000000000e+00
9.848721623420715332e-01
9.919383525848388672e-01
5.262901782989501953e-01
2.909013628959655762e-02
7.156455516815185547e-01
9.730391502380371094e-01
9.999958276748657227e-01
8.142961263656616211e-01
8.708037137985229492e-01
1.000000000000000000e+00
9.999982714653015137e-01
6.451102495193481445e-01
9.731185436248779297e-01
3.534464836120605469e-01
5.092669129371643066e-01
5.967339873313903809e-01
9.912183284759521484e-01
2.003515958786010742e-01
2.827332615852355957e-01
6.365621089935302734e-02
9.999985694885253906e-01
9.771528244018554688e-01
8.276602625846862793e-02
2.106466889381408691e-02
9.999978542327880859e-01
2.249055504798889160e-01
1.000000000000000000e+00
1.552978157997131348e-01
9.740075469017028809e-02
1.698260009288787842e-01
1.000000000000000000e+00
3.609615266323089600e-01
9.993318915367126465e-01
6.560403108596801758e-02
9.905945658683776855e-01
3.218436241149902344e-02
7.698980569839477539e-01
6.655013561248779297e-01
2.667338252067565918e-01
2.069340348243713379e-01
9.539046287536621094e-01
1.163559854030609131e-01
9.655140638351440430e-01
9.999995231628417969e-01
4.501462578773498535e-01
9.012344479560852051e-02
1.239627599716186523e-03
6.060898900032043457e-01
8.410453796386718750e-03
9.392101764678955078e-01
9.995089173316955566e-01
6.719076633453369141e-01
3.500384092330932617e-01
9.609988927841186523e-01
1.898372173309326172e-02
9.999458789825439453e-01
2.836314439773559570e-01
2.033784985542297363e-01
2.789111137390136719e-01
2.095431685447692871e-01
1.006022393703460693e-01
1.976400613784790039e-03
3.612684607505798340e-01
2.352270483970642090e-02
5.723661184310913086e-02
9.167096614837646484e-01
4.003367424011230469e-01
5.308964252471923828e-01
2.960258126258850098e-01
3.074507713317871094e-01
6.510208249092102051e-01
2.621161639690399170e-01
9.976872801780700684e-02
9.997505545616149902e-01
3.238139748573303223e-01
1.000000000000000000e+00
3.255319595336914062e-02
2.857976555824279785e-01
5.647373199462890625e-02
1.103322803974151611e-01
7.895848751068115234e-01
5.024863481521606445e-01
1.000000000000000000e+00
1.743175089359283447e-01
9.999997615814208984e-01
2.984404563903808594e-04
1.000000000000000000e+00
1.186847686767578125e-02
4.014132618904113770e-01
2.591937184333801270e-01
9.999938607215881348e-01
3.148466348648071289e-02
6.158706545829772949e-02
1.842379570007324219e-02
9.725475311279296875e-01
3.126462996006011963e-01
3.791332244873046875e-02
2.787902951240539551e-02
8.340519070625305176e-01
6.866795420646667480e-01
2.010441720485687256e-01
7.193185091018676758e-01
3.076273202896118164e-02
2.715262770652770996e-02
1.236399114131927490e-01
4.058215022087097168e-02
4.328803122043609619e-01
1.636672019958496094e-02
3.842499554157257080e-01
3.242027759552001953e-02
5.176163315773010254e-01
1.822178065776824951e-01
8.189689517021179199e-01
9.999748468399047852e-01
2.100155055522918701e-01
6.411805152893066406e-01
5.249493122100830078e-01
1.455542445182800293e-02
2.250081002712249756e-01
5.331863164901733398e-01
3.255692124366760254e-02
1.319095492362976074e-02
6.743520498275756836e-02
5.708502531051635742e-01
2.422761917114257812e-02
7.097706794738769531e-01
8.729215860366821289e-01
9.880354404449462891e-01
9.759079217910766602e-01
1.296676993370056152e-01
1.029181182384490967e-01
3.931951224803924561e-01
6.806359887123107910e-01
1.652279198169708252e-01
2.054721117019653320e-03
4.838156700134277344e-02
1.837261542902979272e-08
1.237410306930541992e-01
2.258565425872802734e-01
2.468317747116088867e-03
3.979944288730621338e-01
2.609016299247741699e-01
3.092640638351440430e-02
1.000000000000000000e+00
5.983742475509643555e-01
7.427200675010681152e-02
9.999225139617919922e-01
9.431775808334350586e-01
6.353970766067504883e-01
1.416395902633666992e-01
9.283610582351684570e-01
6.002670526504516602e-02
1.407417953014373779e-01
9.828783273696899414e-01
3.045526444911956787e-01
1.637170910835266113e-01
1.506862044334411621e-01
4.103499650955200195e-01
8.161449432373046875e-02
2.430212497711181641e-02
2.465090155601501465e-02
3.870671093463897705e-01
3.948566913604736328e-01
7.348989248275756836e-01
2.850145101547241211e-03
3.066277503967285156e-01
9.930039644241333008e-01
7.967460751533508301e-01
8.880019187927246094e-03
7.500808238983154297e-01
8.007709980010986328e-01
9.018563032150268555e-01
7.627779245376586914e-02
5.323517918586730957e-01
1.000000000000000000e+00
5.663082003593444824e-02
1.000000000000000000e+00
1.000000000000000000e+00
1.000000000000000000e+00
6.174522638320922852e-02
9.961838126182556152e-01
7.408910989761352539e-02
1.000000000000000000e+00
9.995664358139038086e-01
6.874501705169677734e-04
8.093324303627014160e-02
7.125800848007202148e-01
8.249864578247070312e-01
1.175894737243652344e-01
1.000000000000000000e+00
2.494948506355285645e-01
4.169598221778869629e-02
8.600955009460449219e-01
1.092640459537506104e-01
1.322666704654693604e-01
7.302078008651733398e-01
2.471685409545898438e-02
4.935014545917510986e-01
1.927432417869567871e-02
4.129868745803833008e-02
2.833068370819091797e-03
4.057189524173736572e-01
2.615737915039062500e-02
1.278298795223236084e-01
9.294692873954772949e-01
4.345876574516296387e-01
1.000000000000000000e+00
9.626510739326477051e-02
1.940721273422241211e-01
6.551977992057800293e-02
2.287669181823730469e-01
1.697860956192016602e-01
9.999994039535522461e-01
2.815857529640197754e-02
2.683545947074890137e-01
9.990719556808471680e-01
1.139757037162780762e-02
1.703828573226928711e-03
6.648222208023071289e-01
6.976637840270996094e-01
1.000000000000000000e+00
9.999982118606567383e-01
7.581502199172973633e-02
1.347954571247100830e-01
1.024195551872253418e-01
9.857532382011413574e-02
9.981757402420043945e-01
8.260720968246459961e-02
7.624262571334838867e-01
4.702681899070739746e-01
2.043513357639312744e-01
1.713667213916778564e-01
1.110679507255554199e-01
5.448850393295288086e-01
1.694962084293365479e-01
1.210182905197143555e-03
2.821752429008483887e-02
9.999777078628540039e-01
2.958759665489196777e-02
4.435659050941467285e-01
1.000000000000000000e+00
5.747762322425842285e-02
8.696067929267883301e-01
9.833649396896362305e-01
9.999937415122985840e-01
2.827702164649963379e-01
6.848573684692382812e-04
6.926077604293823242e-02
1.111716032028198242e-03
6.297646760940551758e-01
9.946088194847106934e-01
8.177337646484375000e-01
9.971688985824584961e-01
9.811305999755859375e-01
2.924644947052001953e-02
1.249641180038452148e-02
4.347946941852569580e-01
1.179972290992736816e-02
2.747040390968322754e-01
9.999989867210388184e-01
1.559823751449584961e-03
2.880026698112487793e-01
4.610738158226013184e-02
9.999958872795104980e-01
3.453046083450317383e-01
2.798715233802795410e-02
3.021550178527832031e-01
6.424059271812438965e-01
2.450169026851654053e-01
1.000000000000000000e+00
9.986014962196350098e-01
9.264056682586669922e-01
9.639822244644165039e-01
4.512063562870025635e-01
9.939761161804199219e-01
7.626956701278686523e-01
5.210344195365905762e-01
8.605271577835083008e-02
1.122265458106994629e-01
2.571886777877807617e-02
8.692026138305664062e-03
1.522114276885986328e-01
9.555452466011047363e-01
2.043357789516448975e-01
3.559838533401489258e-01
9.593279361724853516e-01
8.235858678817749023e-01
7.036295533180236816e-02
5.758394002914428711e-01
3.083491325378417969e-02
1.628179550170898438e-01
9.391837716102600098e-01
3.154391050338745117e-02
6.697958707809448242e-02
9.131386280059814453e-01
5.582816004753112793e-01
9.639564752578735352e-01
1.549203097820281982e-01
9.926749467849731445e-01
1.000000000000000000e+00
2.079221010208129883e-01
7.960410118103027344e-01
3.456749916076660156e-01
1.000000000000000000e+00
2.196201384067535400e-01
1.000000000000000000e+00
2.911341190338134766e-02
7.756531238555908203e-03
9.191659092903137207e-02
4.620665609836578369e-01
1.000000000000000000e+00
9.245133399963378906e-02
2.120428085327148438e-01
8.892436017049476504e-05
9.165110588073730469e-01
9.999955892562866211e-01
9.994350671768188477e-01
2.256095409393310547e-03
8.125392198562622070e-01
1.000000000000000000e+00
9.995272159576416016e-01
9.621194005012512207e-02
2.879349887371063232e-01
1.453474164009094238e-01
1.505791842937469482e-01
1.000000000000000000e+00
9.999948740005493164e-01
9.829487800598144531e-01
3.458133339881896973e-01
9.999976158142089844e-01
9.999901056289672852e-01
9.988938570022583008e-01
7.375891208648681641e-01
4.985493421554565430e-02
5.476534366607666016e-03
9.984140992164611816e-01
4.320612549781799316e-01
2.849030494689941406e-01
1.552441716194152832e-02
9.998823404312133789e-01
1.000000000000000000e+00
2.327149212360382080e-01
6.378420591354370117e-01
9.999997615814208984e-01
6.028700470924377441e-01
9.972857832908630371e-01
1.354914009571075439e-01
4.083572328090667725e-01
3.271543979644775391e-02
2.275960445404052734e-01
4.313526451587677002e-01
9.998729825019836426e-01
1.085987687110900879e-01
7.582651376724243164e-01
3.230057656764984131e-01
3.491413593292236328e-02
5.971733331680297852e-01
3.421294689178466797e-02
9.093900918960571289e-01
1.616331934928894043e-01
2.976390719413757324e-01
3.352715373039245605e-01
5.345168709754943848e-02
2.165463566780090332e-02
9.999636411666870117e-01
1.567363739013671875e-03
7.087005376815795898e-01
4.834969043731689453e-01
1.486374437808990479e-01
3.836888074874877930e-02
9.996047019958496094e-01
7.663506269454956055e-02
8.492392301559448242e-01
1.000000000000000000e+00
9.648975133895874023e-01
4.318563342094421387e-01
6.770476698875427246e-02
1.843386888504028320e-01
9.688950777053833008e-01
9.862569570541381836e-01
9.620956182479858398e-01
6.003779172897338867e-02
1.955245137214660645e-01
9.890420436859130859e-01
7.325260043144226074e-01
9.367717504501342773e-01
1.000000000000000000e+00
9.997944235801696777e-01
5.257239341735839844e-01
4.053232073783874512e-01
1.000000000000000000e+00
1.882314682006835938e-04
9.999995231628417969e-01
1.356571912765502930e-01
4.150657057762145996e-01
1.467872858047485352e-01
9.959224462509155273e-01
3.466581404209136963e-01
6.956791877746582031e-01
4.903278946876525879e-01
7.154899239540100098e-01
1.851381057349499315e-05
1.000000000000000000e+00
1.818473041057586670e-01
4.148552715778350830e-01
2.696309983730316162e-01
2.753175497055053711e-01
8.429340124130249023e-01
7.998257875442504883e-01
2.300944626331329346e-01
1.455065906047821045e-01
4.974032938480377197e-01
3.291515707969665527e-01
9.765439629554748535e-01
9.709056615829467773e-01
9.997060298919677734e-01
4.578098058700561523e-01
8.528689146041870117e-01
2.099241328323842026e-06
6.777831315994262695e-01
5.890950560569763184e-01
9.061862230300903320e-01
5.610388517379760742e-01
4.010403752326965332e-01
5.495457649230957031e-01
1.833051443099975586e-03
9.999976158142089844e-01
8.734305500984191895e-01
4.624532163143157959e-01
7.146653532981872559e-01
7.612697482109069824e-01
9.968136548995971680e-01
2.164308130741119385e-01
1.321507692337036133e-01
5.162535905838012695e-01
5.675107240676879883e-03
6.365821361541748047e-01
7.461193799972534180e-01
7.217531204223632812e-01
4.801520407199859619e-01
4.709924459457397461e-01
1.000000000000000000e+00
9.996024370193481445e-01
4.412466287612915039e-02
2.752349078655242920e-01
9.771996736526489258e-01
9.985257983207702637e-01
5.498886108398437500e-02
1.000000000000000000e+00
9.986048936843872070e-02
4.589287042617797852e-01
9.999865889549255371e-01
2.578870058059692383e-01
9.612380266189575195e-01
9.999993443489074707e-01
1.000000000000000000e+00
8.824706077575683594e-03
3.847958743572235107e-01
9.810060262680053711e-01
9.252938070858363062e-06
5.666800737380981445e-01
1.000000000000000000e+00
1.588065624237060547e-01
9.059473276138305664e-01
7.137081027030944824e-01
1.000000000000000000e+00
1.563727855682373047e-04
1.000000000000000000e+00
1.378041505813598633e-02
2.836160063743591309e-01
9.921651482582092285e-01
9.999474287033081055e-01
7.758340239524841309e-02
1.086497306823730469e-02
4.755745530128479004e-01
6.670662760734558105e-02
6.437664628028869629e-01
9.611440896987915039e-01
1.113559603691101074e-01
9.538453014101833105e-07
9.307913780212402344e-01
2.051793038845062256e-01
9.999942779541015625e-01
8.777326941490173340e-01
4.397179484367370605e-01
8.333790302276611328e-01
7.459032535552978516e-02
9.999492168426513672e-01
2.610546946525573730e-01
9.988427162170410156e-01
9.813126325607299805e-01
1.400303840637207031e-02
9.970026016235351562e-01
2.117801904678344727e-01
8.929287195205688477e-01
2.619355916976928711e-03
1.051193475723266602e-02
3.028596639633178711e-01
2.150461077690124512e-02
4.572959244251251221e-01
9.926215410232543945e-01
2.522784471511840820e-01
7.657842636108398438e-01
7.740235328674316406e-02
1.111510694026947021e-01
3.817612528800964355e-01
9.999967813491821289e-01
6.037224531173706055e-01
2.343440949916839600e-01
2.021700143814086914e-03
5.183389782905578613e-02
7.821212410926818848e-01
9.999995231628417969e-01
9.999853372573852539e-01
9.997967481613159180e-01
9.985874891281127930e-01
7.034018635749816895e-02
7.901401519775390625e-01
1.000000000000000000e+00
4.092227220535278320e-01
4.950647056102752686e-01
7.073116302490234375e-01
3.735876083374023438e-02
1.000000000000000000e+00
2.072782516479492188e-01
1.000000000000000000e+00
1.845366358757019043e-01
9.488346576690673828e-01
3.485187888145446777e-01
2.717582285404205322e-01
9.206235408782958984e-04
1.000000000000000000e+00
1.000000000000000000e+00
8.521382212638854980e-01
9.999980926513671875e-01
2.827674150466918945e-03
6.132471561431884766e-01
8.747602701187133789e-01
9.999901056289672852e-01
1.000000000000000000e+00
4.787147045135498047e-03
9.923496246337890625e-01
3.198754787445068359e-01
1.000000000000000000e+00
5.834326744079589844e-01
2.862460613250732422e-01
1.068711280822753906e-02
9.997202157974243164e-01
1.928034126758575439e-01
4.665009975433349609e-01
3.004674613475799561e-01
1.814329624176025391e-02
4.305247068405151367e-01
1.794662475585937500e-01
1.000000000000000000e+00
9.999951124191284180e-01
2.869272232055664062e-02
8.344941735267639160e-01
1.000000000000000000e+00
1.186557114124298096e-01
9.999933242797851562e-01
1.000000000000000000e+00
9.999109506607055664e-01
4.295582175254821777e-01
1.668877303600311279e-01
1.661379039287567139e-01
2.495500445365905762e-01
5.519422888755798340e-02
1.441110372543334961e-01
8.638399839401245117e-01
7.472908496856689453e-01
6.387186050415039062e-02
8.067188262939453125e-01
5.535656213760375977e-02
1.664343774318695068e-01
2.196050584316253662e-01
1.407830417156219482e-01
5.361589193344116211e-01
2.167603373527526855e-01
7.475003600120544434e-02
1.027045249938964844e-01
1.654165983200073242e-02
2.258773446083068848e-01
1.000000000000000000e+00
7.923619151115417480e-01
9.497132301330566406e-01
9.331112504005432129e-01
1.658043265342712402e-02
6.105138659477233887e-01
9.995425939559936523e-01
7.879078388214111328e-03
1.669005453586578369e-01
6.305469870567321777e-01
4.393315315246582031e-02
3.273716568946838379e-01
4.023260474205017090e-01
9.169279336929321289e-01
1.250678300857543945e-02
7.650497555732727051e-02
3.754133880138397217e-01
1.455164551734924316e-01
7.278949022293090820e-03
1.607272922992706299e-01
1.522063314914703369e-01
8.718878030776977539e-02
8.059643507003784180e-01
9.437015056610107422e-01
6.064717769622802734e-01
2.232034802436828613e-01
9.984488487243652344e-01
9.367030858993530273e-01
9.624862670898437500e-01
3.986161947250366211e-02
2.180485725402832031e-01
7.287815213203430176e-02
3.673177361488342285e-01
7.444810271263122559e-01
2.321391701698303223e-01
2.678952515125274658e-01
9.310786724090576172e-01
3.310255706310272217e-01
6.923459172248840332e-01
6.088919043540954590e-01
5.976120829582214355e-01
2.006503641605377197e-01
5.387675762176513672e-02
2.854273319244384766e-01
1.172974705696105957e-02
9.364280104637145996e-02
8.871113061904907227e-01
5.803675055503845215e-01
4.323991106502944604e-06
6.637988090515136719e-01
8.417555093765258789e-01
5.196565389633178711e-01
1.000000000000000000e+00
3.748601973056793213e-01
2.286252379417419434e-02
5.980402231216430664e-03
1.594006419181823730e-01
1.573425233364105225e-01
3.743340373039245605e-01
1.705944538116455078e-03
5.004197955131530762e-01
7.504780292510986328e-01
2.117467522621154785e-01
9.991778731346130371e-01
4.135113358497619629e-01
9.547099471092224121e-02
5.433632731437683105e-01
3.205728530883789062e-01
2.280136942863464355e-01
4.498173594474792480e-01
4.289883673191070557e-01
5.987645983695983887e-01
2.805495262145996094e-02
7.497586011886596680e-01
5.478859543800354004e-01
1.897679865360260010e-01
2.647433876991271973e-01
8.385363817214965820e-01
2.298967540264129639e-01
4.898950755596160889e-01
3.306252956390380859e-01
2.316236495971679688e-04
9.703934192657470703e-04
7.424094676971435547e-01
5.506967902183532715e-01
9.921483993530273438e-01
1.728864312171936035e-01
7.078782320022583008e-01
5.583201646804809570e-01
1.553654968738555908e-01
1.012319028377532959e-01
5.578753948211669922e-01
7.984516620635986328e-01
1.443984806537628174e-01
6.466606855392456055e-01
1.419794559478759766e-02
3.060348629951477051e-01
2.855474948883056641e-01
4.589557647705078125e-04
8.065248727798461914e-01
9.989281296730041504e-01
3.165261149406433105e-01
1.930542588233947754e-01
7.030667662620544434e-01
2.447626292705535889e-01
2.633951008319854736e-01
4.946461021900177002e-01
2.470815181732177734e-02
9.380280971527099609e-04
4.919058084487915039e-02
2.626747488975524902e-01
1.717760264873504639e-01
3.819944858551025391e-01
1.395635306835174561e-01
4.006320238113403320e-02
3.508660197257995605e-02
9.387078881263732910e-02
1.528948843479156494e-01
7.130923867225646973e-01
3.384960889816284180e-01
1.155335009098052979e-01
8.246028423309326172e-02
1.218527555465698242e-03
7.103508710861206055e-02
3.380377292633056641e-01
5.799070000648498535e-02
3.786773383617401123e-01
6.557425856590270996e-02
1.754999160766601562e-01
3.392807841300964355e-01
7.867211103439331055e-01
3.897390365600585938e-01
1.012342572212219238e-01
8.867740631103515625e-03
2.206493616104125977e-01
2.501180768013000488e-02
2.320650517940521240e-01
1.939935982227325439e-01
4.386970400810241699e-01
1.430478096008300781e-01
2.764957547187805176e-01
6.410419940948486328e-03
1.648950576782226562e-02
1.187821626663208008e-01
2.670933008193969727e-01
5.428416132926940918e-01
1.049843430519104004e-02
3.264000415802001953e-01
6.975322961807250977e-02
2.204244136810302734e-01
1.187377572059631348e-01
4.553001224994659424e-01
9.903421998023986816e-02
2.141499519348144531e-02
1.019362211227416992e-01
1.377186179161071777e-01
2.288245856761932373e-01
1.356019675731658936e-01
2.673543691635131836e-01
1.677044630050659180e-01
2.542939782142639160e-02
2.924631834030151367e-01
2.204526364803314209e-01
1.156939864158630371e-01
1.622501015663146973e-02
1.238855421543121338e-01
2.500352263450622559e-01
5.035591125488281250e-01
5.143271684646606445e-01
1.161554753780364990e-01
1.475203037261962891e-02
1.052060723304748535e-01
4.667200446128845215e-01
9.992537498474121094e-01
3.010976181450357621e-15
2.950263023376464844e-01
1.006796061992645264e-01
1.280903816223144531e-04
4.843825995922088623e-01
1.197494268417358398e-01
2.649302482604980469e-01
7.621983289718627930e-01
7.353784441947937012e-01
8.486230969429016113e-01
3.877228498458862305e-01
5.280712842941284180e-01
1.896589994430541992e-03
6.306344270706176758e-02
1.652501523494720459e-01
2.213007211685180664e-02
2.941580414772033691e-01
1.455634236335754395e-01
6.127377152442932129e-01
9.469687938690185547e-02
3.114652633666992188e-01
3.105029463768005371e-02
4.122763276100158691e-01
1.981064677238464355e-01
1.916728019714355469e-01
1.372020542621612549e-01
2.281153798103332520e-01
3.500270843505859375e-01
4.678368568420410156e-03
1.231071054935455322e-01
3.429188132286071777e-01
1.949548721313476562e-03
9.793838858604431152e-02
4.918185174465179443e-01
2.845095992088317871e-01
6.822168827056884766e-03
2.321114242076873779e-01
2.717608213424682617e-02
1.230991184711456299e-01
9.212547540664672852e-01
2.438566386699676514e-01
5.272436141967773438e-02
3.039374947547912598e-02
7.476297020912170410e-02
1.196323931217193604e-01
6.015074253082275391e-02
4.703104794025421143e-01
1.260187625885009766e-01
3.310533761978149414e-01
5.305421352386474609e-02
1.378959417343139648e-02
3.624154123826883733e-05
2.223235368728637695e-02
9.999711513519287109e-01
4.270986616611480713e-01
3.738304972648620605e-02
6.502898931503295898e-01
7.190167903900146484e-02
1.611564457416534424e-01
3.843210339546203613e-01
3.571189641952514648e-01
6.342223286628723145e-02
7.932186126708984375e-04
1.133285760879516602e-01
7.078945636749267578e-03
2.850919961929321289e-03
9.995074272155761719e-01
4.290575981140136719e-01
5.157177448272705078e-01
6.346663832664489746e-02
1.160285174846649170e-01
1.003501415252685547e-01
3.318886160850524902e-01
4.511651396751403809e-02
1.000000000000000000e+00
3.803372383117675781e-04
6.630178093910217285e-01
2.331724762916564941e-02
4.650300741195678711e-02
1.483848989009857178e-01
4.228892922401428223e-02
3.251881003379821777e-01
2.972787618637084961e-02
3.015512228012084961e-01
9.995701313018798828e-01
1.279574632644653320e-02
5.408376455307006836e-03
2.052718400955200195e-02
1.514133810997009277e-02
6.031829118728637695e-02
7.798850536346435547e-03
7.492288947105407715e-02
1.658107638359069824e-01
4.523482024669647217e-01
5.195710062980651855e-02
3.632408976554870605e-01
7.374787330627441406e-02
3.023383915424346924e-01
8.507099747657775879e-02
3.425520956516265869e-01
1.076299548149108887e-01
3.046735227108001709e-01
5.896040797233581543e-02
2.871552109718322754e-02
1.556277275085449219e-04
2.592268586158752441e-02
3.628790378570556641e-03
2.765086901490576565e-05
2.979725599288940430e-02
8.089939355850219727e-01
5.051791667938232422e-04
5.111992359161376953e-04
8.139517903327941895e-02
6.515351533889770508e-01
2.598683238029479980e-01
5.871385335922241211e-02
2.282705008983612061e-01
1.654330790042877197e-01
2.261483669281005859e-02
2.007797360420227051e-02
1.909279823303222656e-02
1.182061731815338135e-01
5.525378584861755371e-01
2.683401107788085938e-03
5.757343751611188054e-05
7.060931324958801270e-01
7.857912778854370117e-01
3.964370787143707275e-01
1.430302262306213379e-01
4.400312900543212891e-04
1.122872829437255859e-01
2.058603763580322266e-01
9.337276220321655273e-02
5.275085568428039551e-01
3.568430884115514345e-06
2.203881740570068359e-03
7.897102832794189453e-02
3.560075163841247559e-01
9.358429908752441406e-02
2.364662587642669678e-01
1.648229658603668213e-01
6.076802015304565430e-01
8.127847313880920410e-02
5.125054717063903809e-01
6.689316034317016602e-02
9.982256293296813965e-01
1.140224635601043701e-01
3.742289543151855469e-02
3.901842832565307617e-01
3.369399011135101318e-01
3.280532062053680420e-01
1.714426279067993164e-02
4.569434225559234619e-01
3.370845317840576172e-02
9.900012612342834473e-02
9.999985694885253906e-01
1.793504655361175537e-01
1.888386905193328857e-01
1.192550116684287786e-04
2.351599931716918945e-02
6.088441610336303711e-02
4.599252939224243164e-01
1.826396584510803223e-02
1.378402113914489746e-02
9.653785228729248047e-01
2.696275711059570312e-03
1.738518476486206055e-03
1.964698731899261475e-01
1.012325286865234375e-03
2.200890183448791504e-01
1.233463287353515625e-01
4.497981071472167969e-02
1.590037345886230469e-02
8.111056685447692871e-02
2.339535057544708252e-01
1.972943544387817383e-03
7.282730937004089355e-02
2.409517765045166016e-04
6.869712471961975098e-02
5.482754111289978027e-02
2.683650255203247070e-01
1.290124654769897461e-02
9.577465057373046875e-02
1.165791153907775879e-01
2.186528742313385010e-01
1.444476842880249023e-02
3.372734785079956055e-02
6.447018384933471680e-01
1.013808846473693848e-01
1.913648843765258789e-02
3.666518330574035645e-01
2.026981115341186523e-02
2.581104636192321777e-02
6.429076194763183594e-03
7.614791393280029297e-04
1.445791721343994141e-01
9.027093648910522461e-03
7.395900487899780273e-01
2.911069989204406738e-02
6.174340844154357910e-02
2.379378378391265869e-01
4.602439999580383301e-01
1.653933525085449219e-02
8.630298972129821777e-01
3.940752148628234863e-02
3.844290971755981445e-03
5.024194717407226562e-03
1.822818219661712646e-01
2.444325089454650879e-01
1.079162061214447021e-01
7.477045059204101562e-03
4.342895746231079102e-02
3.055347204208374023e-01
3.019508719444274902e-02
2.089530229568481445e-01
9.992569684982299805e-02
4.698470830917358398e-01
1.853023171424865723e-01
3.093397021293640137e-01
1.079250276088714600e-01
2.171484447899274528e-05
2.748519480228424072e-01
7.676899433135986328e-03
3.157606720924377441e-01
4.256132245063781738e-02
4.316228330135345459e-01
6.574302911758422852e-03
5.261509418487548828e-01
4.039120674133300781e-02
2.038415968418121338e-01
2.554368972778320312e-02
1.482814550399780273e-03
1.779854297637939453e-03
2.506047487258911133e-03
4.853610396385192871e-01
1.013025343418121338e-01
3.397345542907714844e-02
1.531153917312622070e-03
1.093438863754272461e-01
8.772693872451782227e-01
3.672950863838195801e-01
2.607643604278564453e-01
3.391749262809753418e-01
4.733446240425109863e-02
9.853541851043701172e-04
2.053855061531066895e-01
7.899444103240966797e-01
8.256223201751708984e-01
8.027120828628540039e-01
2.744087576866149902e-02
7.364773750305175781e-02
1.419499516487121582e-01
3.366279304027557373e-01
2.348977327346801758e-02
1.628015041351318359e-01
1.000000000000000000e+00
2.402746081352233887e-01
1.604044437408447266e-02
5.088847875595092773e-02
2.463489770889282227e-03
7.437466979026794434e-01
1.533545851707458496e-01
9.852175712585449219e-01
1.037310659885406494e-01
2.333734035491943359e-01
8.359899520874023438e-01
1.000000000000000000e+00
5.985563993453979492e-02
1.227019727230072021e-01
3.605067729949951172e-02
5.027231574058532715e-01
9.998989105224609375e-01
2.186377048492431641e-01
9.181947708129882812e-01
6.064054369926452637e-02
1.059921681880950928e-01
4.973405599594116211e-02
4.040801525115966797e-02
6.873178482055664062e-01
3.258717656135559082e-01
2.372179031372070312e-01
1.005173623561859131e-01
7.221221923828125000e-02
1.783956885337829590e-01
8.725178241729736328e-01
2.992981672286987305e-02
6.918698549270629883e-01
1.689829826354980469e-01
2.786841988563537598e-01
1.820956766605377197e-01
5.867928266525268555e-03
4.713654220104217529e-01
9.921870827674865723e-01
9.906014204025268555e-01
1.438132524490356445e-01
9.551757574081420898e-02
3.667238950729370117e-01
1.979319453239440918e-01
4.022977948188781738e-01
3.745761513710021973e-02
6.672805547714233398e-01
1.415035128593444824e-02
3.950192928314208984e-01
4.675658941268920898e-01
9.990305900573730469e-01
8.776497840881347656e-02
2.840614318847656250e-01
7.949557304382324219e-01
3.378427624702453613e-01
7.210189700126647949e-01
9.970203042030334473e-02
7.061458826065063477e-01
1.380870938301086426e-01
4.208599627017974854e-01
3.232954144477844238e-01
1.203746199607849121e-01
9.400120377540588379e-02
7.579597830772399902e-02
2.118526697158813477e-01
1.024377644062042236e-01
1.747241616249084473e-02
7.263132929801940918e-02
7.219973206520080566e-02
3.672808408737182617e-02
6.523993611335754395e-02
0.000000000000000000e+00
9.998204112052917480e-01
4.304476678371429443e-01
4.566363692283630371e-01
6.032735109329223633e-03
1.014661192893981934e-01
1.043843626976013184e-01
3.706634044647216797e-02
7.358044385910034180e-03
9.774500131607055664e-02
5.589482188224792480e-02
2.574101090431213379e-02
2.407199144363403320e-01
4.385948181152343750e-02
1.006387472152709961e-01
3.944531083106994629e-02
4.108933193691655106e-09
6.280651688575744629e-01
7.817625999450683594e-02
1.086107492446899414e-01
6.344143152236938477e-01
3.395782709121704102e-01
3.806987404823303223e-02
4.246776103973388672e-01
5.767140388488769531e-01
1.995035111904144287e-01
6.493002047136542387e-07
2.924205064773559570e-01
4.213970899581909180e-02
2.361336350440979004e-02
2.869695425033569336e-02
8.235750198364257812e-01
7.816826109774410725e-05
9.602546691894531250e-02
6.610791683197021484e-01
8.751198649406433105e-02
8.733412623405456543e-02
1.348739862442016602e-01
8.763386607170104980e-01
3.989479243755340576e-01
9.924718737602233887e-02
6.015378236770629883e-01
1.354788243770599365e-01
3.878989815711975098e-02
3.988277316093444824e-01
8.804702758789062500e-02
2.611378431320190430e-01
4.131370782852172852e-02
5.258124470710754395e-01
1.080230595107423142e-05
3.382158279418945312e-01
2.439262270927429199e-01
5.711880326271057129e-02
4.564052522182464600e-01
7.109578847885131836e-01
4.124696715734899044e-05
1.137629151344299316e-01
3.121745288372039795e-01
2.066075801849365234e-03
3.550776243209838867e-01
4.860024750232696533e-01
3.958414196968078613e-01
1.893573999404907227e-01
1.680161952972412109e-01
1.113414764404296875e-03
1.574814319610595703e-02
8.093494176864624023e-01
4.866603016853332520e-02
4.004565179347991943e-01
5.787900090217590332e-01
9.102341532707214355e-02
2.152893841266632080e-01
1.646887958049774170e-01
3.916286826133728027e-01
4.084607958793640137e-01
2.104392647743225098e-02
4.615058302879333496e-01
9.112946391105651855e-01
4.653487503528594971e-01
1.152108609676361084e-01
4.647219181060791016e-02
4.083406031131744385e-01
3.032386302947998047e-01
1.704733073711395264e-01
2.130437195301055908e-01
4.598932266235351562e-01
9.786585569381713867e-01
8.608052134513854980e-02
6.275272369384765625e-02
3.850996494293212891e-03
3.672845363616943359e-01
7.268062829971313477e-01
7.528179883956909180e-01
2.945167422294616699e-01
6.441487073898315430e-01
6.916073560714721680e-01
3.160917162895202637e-01
1.206379532814025879e-01
9.571326971054077148e-01
7.700361013412475586e-01
1.670170128345489502e-01
1.420804262161254883e-01
9.531081914901733398e-01
1.520228385925292969e-02
5.317940115928649902e-01
7.752627134323120117e-01
5.731730461120605469e-01
2.155927717685699463e-01
1.960220932960510254e-02
3.489851951599121094e-01
4.077452719211578369e-01
1.990097761154174805e-02
5.958821773529052734e-01
1.323676705360412598e-01
1.000000000000000000e+00
2.499646842479705811e-01
9.429206848144531250e-01
3.602429628372192383e-01
8.440807461738586426e-02
5.905178189277648926e-02
6.598159670829772949e-02
2.278828620910644531e-02
8.432008028030395508e-01
1.423505246639251709e-01
4.290017485618591309e-01
3.339952230453491211e-01
7.280707955360412598e-01
8.381900787353515625e-01
2.085410952568054199e-01
9.362655878067016602e-02
9.832803010940551758e-01
9.998633861541748047e-01
7.714160680770874023e-01
9.871645569801330566e-01
3.486233353614807129e-01
3.415051102638244629e-02
2.356472015380859375e-01
2.448624074459075928e-01
2.011239528656005859e-03
1.527943313121795654e-01
7.630734443664550781e-01
4.499045014381408691e-01
1.134808957576751709e-01
5.901412367820739746e-01
2.570456266403198242e-01
2.326585948467254639e-01
6.437349319458007812e-02
2.478767037391662598e-01
6.734007000923156738e-01
1.011125846162030939e-06
9.503813982009887695e-01
9.045001268386840820e-01
1.898376643657684326e-01
1.094531118869781494e-01
9.066188335418701172e-02
5.981350397615825543e-12
3.308475017547607422e-01
6.182832121849060059e-01
1.338257789611816406e-01
2.774581313133239746e-02
8.823032379150390625e-01
8.601309061050415039e-01
2.800389230251312256e-01
1.875162124633789062e-04
7.118119597434997559e-01
1.233613193035125732e-01
3.785534203052520752e-01
3.196153044700622559e-02
3.568026423454284668e-01
1.395010948181152344e-01
2.112919390201568604e-01
1.000000000000000000e+00
5.845831632614135742e-01
1.485607326030731201e-01
2.767084538936614990e-01
2.651576697826385498e-01
2.802804112434387207e-02
9.920651912689208984e-01
9.187922477722167969e-01
9.910272359848022461e-01
7.732406854629516602e-01
1.341487467288970947e-01
2.497382164001464844e-01
1.626123487949371338e-01
8.265331387519836426e-02
4.384523630142211914e-02
8.509805798530578613e-01
1.768540441989898682e-01
4.880204796791076660e-02
4.859641492366790771e-01
4.444622099399566650e-01
1.009805500507354736e-01
8.088188171386718750e-01
2.674511969089508057e-01
2.798649966716766357e-01
9.715354442596435547e-01
6.122130751609802246e-01
1.977349519729614258e-01
2.537630498409271240e-01
3.828905522823333740e-01
3.550944924354553223e-01
5.731480121612548828e-01
3.984943032264709473e-02
1.859255135059356689e-01
7.582392692565917969e-01
7.233786582946777344e-02
1.948912143707275391e-01
8.626611232757568359e-01
1.886191964149475098e-01
6.398581266403198242e-01
2.588059604167938232e-01
4.409980475902557373e-01
2.036227285861968994e-01
3.924697637557983398e-01
2.238066494464874268e-01
4.912368953227996826e-01
6.446772813796997070e-02
7.991760969161987305e-03
5.163861513137817383e-01
8.902682065963745117e-01
1.000000000000000000e+00
8.604494929313659668e-01
2.110058963298797607e-01
9.062201976776123047e-01
1.714595854282379150e-01
1.543517112731933594e-01
2.488386631011962891e-02
5.978584289550781250e-03
1.690947711467742920e-01
1.392585337162017822e-01
4.938605427742004395e-02
3.043344616889953613e-01
4.595895707607269287e-01
1.462712883949279785e-02
4.070723056793212891e-01
3.216725587844848633e-01
4.352182149887084961e-03
2.479957938194274902e-01
3.161538243293762207e-01
4.788087308406829834e-01
8.874074220657348633e-01
2.924331128597259521e-01
2.601218223571777344e-02
4.391347169876098633e-01
1.833094656467437744e-01
1.739200949668884277e-01
1.318768262863159180e-01
6.742390990257263184e-02
6.981179118156433105e-01
8.642934560775756836e-01
2.435273528099060059e-01
3.322947025299072266e-02
1.925081014633178711e-02
1.651103496551513672e-01
4.418551921844482422e-03
2.431993782520294189e-01
3.078997135162353516e-03
5.602821707725524902e-02
7.996749877929687500e-02
3.896301984786987305e-01
1.018895506858825684e-01
3.290623426437377930e-03
1.088499724864959717e-01
3.498822450637817383e-01
1.682614684104919434e-01
2.455267012119293213e-01
1.850054860115051270e-01
2.608527541160583496e-01
5.749086141586303711e-01
2.130860090255737305e-02
7.252225279808044434e-02
7.761389017105102539e-03
7.318806052207946777e-01
3.734968602657318115e-01
2.440837323665618896e-01
1.498175859451293945e-01
2.516804933547973633e-01
2.268142998218536377e-01
5.015581250190734863e-01
9.907543659210205078e-02
2.093697190284729004e-01
4.758849740028381348e-02
4.023709893226623535e-02
1.915482580661773682e-01
8.586518168449401855e-01
1.371197998523712158e-01
9.516006708145141602e-02
4.087703824043273926e-01
5.439326763153076172e-01
1.686903536319732666e-01
1.210838556289672852e-03
1.326730549335479736e-01
1.461973190307617188e-01
2.371052801609039307e-01
2.141663730144500732e-01
3.210262358188629150e-01
2.763152122497558594e-01
4.134452342987060547e-02
2.636382579803466797e-01
1.983129084110260010e-01
1.681011915206909180e-01
2.799691259860992432e-01
6.453320384025573730e-02
1.542074084281921387e-01
8.775675296783447266e-01
6.555849313735961914e-02
2.786728739738464355e-02
1.269579529762268066e-01
4.619774222373962402e-02
3.338093757629394531e-01
3.524278104305267334e-01
1.726586818695068359e-01
4.108602702617645264e-01
3.644546270370483398e-01
1.415884792804718018e-01
7.492870092391967773e-03
3.589719533920288086e-03
1.628339290618896484e-03
2.908349037170410156e-03
1.194182932376861572e-01
1.271975636482238770e-01
5.176669359207153320e-02
5.727219581604003906e-02
2.961019277572631836e-01
1.498875617980957031e-01
3.718504011631011963e-01
1.769305765628814697e-01
1.551925539970397949e-01
4.834499359130859375e-01
2.494068145751953125e-01
2.725594043731689453e-01
9.392467141151428223e-02
3.214864730834960938e-01
2.807440459728240967e-01
5.145088434219360352e-01
2.439393401145935059e-01
9.999254345893859863e-01
1.000000000000000000e+00
5.102038383483886719e-03
4.323835968971252441e-01
7.393181324005126953e-01
4.636173248291015625e-01
2.280147373676300049e-01
2.120396175087080337e-06
7.844018340110778809e-01
3.615498542785644531e-03
2.451318502426147461e-02
3.872191607952117920e-01
2.780675888061523438e-03
2.046362757682800293e-01
8.591437339782714844e-02
2.233079671859741211e-01
4.175114035606384277e-01
1.143932640552520752e-01
8.494451642036437988e-02
7.994785904884338379e-02
4.541742801666259766e-02
2.106737792491912842e-01
4.057807028293609619e-01
3.432793021202087402e-01
1.762032806873321533e-01
4.395645558834075928e-01
9.893420934677124023e-01
3.217415809631347656e-01
2.885602414608001709e-01
2.766251564025878906e-03
2.160799503326416016e-02
2.529025077819824219e-04
2.555866241455078125e-01
3.001630306243896484e-03
1.670354604721069336e-02
9.917174577713012695e-01
5.317479372024536133e-03
7.767677307128906250e-04
7.668018341064453125e-03
2.864718437194824219e-01
9.871596097946166992e-02
1.380200386047363281e-01
3.956645727157592773e-03
6.882543857500422746e-06
1.605328917503356934e-02
1.205974221229553223e-01
2.212425470352172852e-01
3.184229135513305664e-03
4.300495982170104980e-01
2.260439395904541016e-01
2.446384429931640625e-01
0.000000000000000000e+00
8.090696334838867188e-01
3.326757550239562988e-01
9.738082885742187500e-01
8.398425579071044922e-02
1.565239429473876953e-01
3.006577491760253906e-01
4.431524574756622314e-01
2.384272217750549316e-01
2.092389166355133057e-01
1.963339149951934814e-01
3.546088933944702148e-03
3.611167371273040771e-01
1.314668655395507812e-01
5.258893966674804688e-02
2.532899379730224609e-04
5.458055734634399414e-01
1.238846182823181152e-01
1.440855860710144043e-01
1.101632416248321533e-01
9.980098009109497070e-01
1.238609820575220510e-05
1.929029822349548340e-02
1.000000000000000000e+00
8.609318733215332031e-02
1.245821118354797363e-01
4.479771256446838379e-01
5.685642957687377930e-01
6.373017430305480957e-01
4.929802417755126953e-01
1.077478826045989990e-01
3.949729800224304199e-01
4.079540371894836426e-01
6.554025411605834961e-02
6.292051076889038086e-01
3.713425397872924805e-01
2.900594472885131836e-01
7.740637063980102539e-01
5.771836638450622559e-01
3.222869634628295898e-01
1.217025518417358398e-02
3.780999183654785156e-01
8.731180429458618164e-02
2.028752267360687256e-01
9.709584712982177734e-01
5.217444300651550293e-01
3.577770590782165527e-01
5.348796844482421875e-01
4.490440785884857178e-01
3.256137669086456299e-01
5.138877034187316895e-02
6.545604467391967773e-01
2.625173330307006836e-01
3.875806629657745361e-01
9.111554622650146484e-01
1.893067359924316406e-02
8.915455341339111328e-01
8.784966468811035156e-01
2.220843732357025146e-01
9.999898672103881836e-01
1.000000000000000000e+00
2.438568472862243652e-01
1.975163817405700684e-01
9.533306360244750977e-01
3.856077790260314941e-02
5.070108771324157715e-01
2.512648701667785645e-02
4.629598855972290039e-01
1.057126224040985107e-01
7.012950181961059570e-01
5.793517827987670898e-02
1.931519806385040283e-01
9.991952180862426758e-01
3.097705245018005371e-01
2.930589020252227783e-01
9.874290227890014648e-01
1.232059895992279053e-01
3.733491599559783936e-01
4.451968669891357422e-01
1.446658372879028320e-01
7.882526516914367676e-02
2.052053809165954590e-02
2.192825078964233398e-03
1.527709364891052246e-01
1.009897887706756592e-01
3.223067522048950195e-01
9.547834396362304688e-01
7.459049820899963379e-01
1.238222420215606689e-01
1.339567005634307861e-01
1.694618761539459229e-01
1.016956567764282227e-02
2.675307095050811768e-01
8.989831805229187012e-02
8.596268296241760254e-02
5.353696346282958984e-01
1.705205440521240234e-02
3.568753600120544434e-02
1.820678710937500000e-01
5.067907571792602539e-01
3.561672568321228027e-02
1.446143686771392822e-01
2.760194540023803711e-01
7.169117331504821777e-01
9.710324406623840332e-01
3.753491938114166260e-01
2.056803703308105469e-01
2.990404367446899414e-01
2.525846958160400391e-01
1.411899924278259277e-01
9.582757949829101562e-03
8.872276544570922852e-01
8.433413505554199219e-02
4.474425911903381348e-01
6.028413772583007812e-04
2.117392718791961670e-01
1.061618328094482422e-01
3.757566213607788086e-02
8.856043219566345215e-02
9.411079883575439453e-01
4.068437814712524414e-01
3.103489577770233154e-01
1.860640347003936768e-01
6.127979755401611328e-01
9.447365999221801758e-03
2.632557153701782227e-01
3.692678213119506836e-01
9.497332572937011719e-01
3.137214183807373047e-01
4.525992274284362793e-02
7.557309269905090332e-01
6.196113228797912598e-01
6.135776638984680176e-02
4.283627867698669434e-01
4.548059105873107910e-01
4.494563639163970947e-01
7.111236453056335449e-02
2.993816435337066650e-01
3.773727118968963623e-01
3.317587971687316895e-01
2.751350402832031250e-04
1.476768553256988525e-01
7.198283076286315918e-02
3.810384869575500488e-02
2.833808362483978271e-01
5.642166733741760254e-02
9.639504551887512207e-02
9.087364673614501953e-01
6.211730837821960449e-01
2.965661883354187012e-02
2.049583196640014648e-01
1.112696826457977295e-01
2.658775448799133301e-02
6.888533830642700195e-01
1.643676161766052246e-01
5.238406658172607422e-01
9.072947502136230469e-02
1.645529270172119141e-02
2.995580434799194336e-02
3.273298144340515137e-01
1.250566244125366211e-01
5.216069780544785317e-07
1.681837439537048340e-02
9.620273113250732422e-02
5.609959363937377930e-02
2.853873670101165771e-01
2.547472715377807617e-03
1.098264753818511963e-01
2.263218164443969727e-02
3.262749910354614258e-01
1.571470499038696289e-02
1.332122683525085449e-01
9.779036045074462891e-04
1.182195544242858887e-02
3.465220332145690918e-02
7.963851094245910645e-02
3.139275312423706055e-02
8.763521909713745117e-03
4.245758056640625000e-03
1.709023118019104004e-02
9.057306051254272461e-01
1.289328932762145996e-02
3.099784255027770996e-02
9.894433021545410156e-01
1.941138505935668945e-02
6.559389829635620117e-02
3.784378767013549805e-01
8.108130097389221191e-02
9.950956106185913086e-01
1.650025248527526855e-01
1.555026769638061523e-01
3.387451171875000000e-03
1.368133723735809326e-01
9.626336693763732910e-01
0.000000000000000000e+00
8.610750436782836914e-01
3.779950737953186035e-02
1.207334101200103760e-01
1.705545186996459961e-01
4.039009809494018555e-01
8.652061223983764648e-01
1.263609826564788818e-01
1.950047910213470459e-01
3.908272683620452881e-01
3.641836047172546387e-01
3.564546704292297363e-01
4.653307795524597168e-01
1.278969943523406982e-01
3.127020597457885742e-01
1.287020146846771240e-01
8.895137906074523926e-02
7.206350564956665039e-03
3.383785486221313477e-03
3.031039237976074219e-02
1.225610030815005302e-04
2.667883932590484619e-01
9.380545616149902344e-01
1.573567986488342285e-01
4.095565974712371826e-01
9.619812965393066406e-01
2.472102642059326172e-03
1.483424007892608643e-01
6.139326095581054688e-01
3.474783897399902344e-02
8.385926485061645508e-03
9.972530603408813477e-01
9.973337650299072266e-01
1.530340909957885742e-01
1.899939477443695068e-01
8.736907243728637695e-01
4.672815501689910889e-01
1.073858141899108887e-01
2.066412866115570068e-01
5.454318523406982422e-01
4.539605975151062012e-02
4.698961973190307617e-03
6.187776327133178711e-01
5.634669661521911621e-01
5.841606215203758599e-25
3.808975219726562500e-03
8.728078007698059082e-02
6.503530144691467285e-01
1.583186984062194824e-01
6.992661952972412109e-02
2.224143445491790771e-01
6.785392761230468750e-04
9.999979734420776367e-01
3.316989541053771973e-02
1.034043431282043457e-01
2.859234809875488281e-04
1.356152296066284180e-01
2.379134297370910645e-01
7.151033878326416016e-01
4.296928644180297852e-03
8.166502118110656738e-01
8.882011175155639648e-01
1.409500837326049805e-02
9.247909784317016602e-01
6.805771589279174805e-01
1.273046433925628662e-01
9.531429409980773926e-02
3.665072321891784668e-01
3.928624391555786133e-01
3.622258603572845459e-01
5.563625097274780273e-01
3.158031702041625977e-01
3.434873819351196289e-01
1.577757894992828369e-01
1.434087753295898438e-04
9.326606988906860352e-02
9.980299472808837891e-01
3.937061429023742676e-01
7.187756896018981934e-02
4.107144474983215332e-02
3.948239386081695557e-01
2.411848306655883789e-01
9.768798351287841797e-01
4.079824090003967285e-01
3.228932619094848633e-03
1.100632548332214355e-02
8.562964797019958496e-01
3.135207295417785645e-02
1.995372772216796875e-02
1.432353854179382324e-01
2.575537860393524170e-01
1.491629481315612793e-01
4.716551303863525391e-02
7.089304924011230469e-02
1.537740230560302734e-02
3.346579670906066895e-01
5.448880791664123535e-02
8.596047759056091309e-02
8.530330657958984375e-02
2.229130268096923828e-02
1.032522916793823242e-01
9.386535882949829102e-01
1.321744918823242188e-02
9.977060556411743164e-01
6.270089149475097656e-01
1.411212682723999023e-01
7.195665836334228516e-01
3.019372224807739258e-01
2.382614016532897949e-01
4.179515242576599121e-01
1.614391803741455078e-04
6.518303155899047852e-01
3.595431447029113770e-01
3.599459528923034668e-01
