0.000000000000000000e+00
0.000000000000000000e+00
0.000000000000000000e+00
5.993996996996244810e-03
5.993996996996244810e-03
1.036108102468077420e-02
1.036108102468077420e-02
1.195190361406918422e-02
1.195190361406918422e-02
1.460849068179187124e-02
1.460849068179187124e-02
1.576299463934438885e-02
1.576299463934438885e-02
1.783726436424599299e-02
1.783726436424599299e-02
1.878297101099823257e-02
1.878297101099823257e-02
2.135022248127639577e-02
2.135022248127639577e-02
2.213341365447273404e-02
2.213341365447273404e-02
2.288667734731278033e-02
2.288667734731278033e-02
2.361287784239778087e-02
2.361287784239778087e-02
2.431444015394966518e-02
2.431444015394966518e-02
2.565166661252246683e-02
2.565166661252246683e-02
2.629068276024797146e-02
2.629068276024797146e-02
2.691185612327770885e-02
2.691185612327770885e-02
2.810537315176583895e-02
2.810537315176583895e-02
2.867974895287613707e-02
2.867974895287613707e-02
2.924038303442689363e-02
2.924038303442689363e-02
3.032345626738482472e-02
3.032345626738482472e-02
3.084723650507448581e-02
3.084723650507448581e-02
3.135997448978553731e-02
3.135997448978553731e-02
3.235441237296699662e-02
3.235441237296699662e-02
3.283705224285517199e-02
3.283705224285517199e-02
3.377525721589696300e-02
3.377525721589696300e-02
3.423156438143019203e-02
3.423156438143019203e-02
3.467979238692180805e-02
3.467979238692180805e-02
3.512025056858222166e-02
3.512025056858222166e-02
3.555322770157443718e-02
3.555322770157443718e-02
3.680988997538569424e-02
3.680988997538569424e-02
3.721548064985860660e-02
3.721548064985860660e-02
3.800799915807197282e-02
3.800799915807197282e-02
3.877690034027990451e-02
3.915293092477241388e-02
3.915293092477241388e-02
3.952356259245869141e-02
3.952356259245869141e-02
3.988894583716145331e-02
3.988894583716145331e-02
4.024922359499621960e-02
4.024922359499621960e-02
4.060453176678682080e-02
4.060453176678682080e-02
4.095499969478696295e-02
4.095499969478696295e-02
4.130075059850607522e-02
4.130075059850607522e-02
4.164190197385321535e-02
4.164190197385321535e-02
4.197856595930832269e-02
4.197856595930832269e-02
4.231084967239490124e-02
4.231084967239490124e-02
4.263885551934995521e-02
4.263885551934995521e-02
4.359816509900388271e-02
4.359816509900388271e-02
4.390999886130720481e-02
4.390999886130720481e-02
4.482285131492641517e-02
4.482285131492641517e-02
4.511984042524973260e-02
4.511984042524973260e-02
4.541330201603931138e-02
4.541330201603931138e-02
4.570330403811085490e-02
4.570330403811085490e-02
4.655319537904997751e-02
4.655319537904997751e-02
4.682999039077415104e-02
4.682999039077415104e-02
4.710363043333283539e-02
4.710363043333283539e-02
4.737417017742896752e-02
4.737417017742896752e-02
4.764166243950771623e-02
4.764166243950771623e-02
4.790615826801394167e-02
4.790615826801394167e-02
4.842635646009309236e-02
4.842635646009309236e-02
4.918536367660607256e-02
4.918536367660607256e-02
4.991985576902241428e-02
4.991985576902241428e-02
5.063089965623759903e-02
5.063089965623759903e-02
5.109238690842306252e-02
5.109238690842306252e-02
5.131946998946890909e-02
5.131946998946890909e-02
5.154415582779487554e-02
5.154415582779487554e-02
5.176647563819658515e-02
5.176647563819658515e-02
5.198645977559925718e-02
5.198645977559925718e-02
5.241953834211057761e-02
5.241953834211057761e-02
5.284361834696787996e-02
5.284361834696787996e-02
5.305235150302010927e-02
5.325891474673512260e-02
5.325891474673512260e-02
5.346333322941996397e-02
5.346333322941996397e-02
5.406396211895684450e-02
5.406396211895684450e-02
5.464613435550587373e-02
5.464613435550587373e-02
5.483619242799413207e-02
5.483619242799413207e-02
5.502428554738353350e-02
5.502428554738353350e-02
5.521043379652074146e-02
5.521043379652074146e-02
5.539465678203991245e-02
5.539465678203991245e-02
5.575740309591184496e-02
5.575740309591184496e-02
5.593596338671570634e-02
5.593596338671570634e-02
5.611267236551828463e-02
5.611267236551828463e-02
5.646060573532664384e-02
5.646060573532664384e-02
5.680133801240953850e-02
5.680133801240953850e-02
5.696904422578984856e-02
5.696904422578984856e-02
5.713499803097921853e-02
5.713499803097921853e-02
5.746170898955233614e-02
5.746170898955233614e-02
5.793900240770460952e-02
5.793900240770460952e-02
5.809475019311124977e-02
5.809475019311124977e-02
5.824884548212092700e-02
5.824884548212092700e-02
5.840130135536364397e-02
5.840130135536364397e-02
5.884895920914830214e-02
5.884895920914830214e-02
5.899498283752610539e-02
5.899498283752610539e-02
5.928230764739172987e-02
5.928230764739172987e-02
5.942363166283259890e-02
5.942363166283259890e-02
5.970165826842668139e-02
5.970165826842668139e-02
6.037025757771785628e-02
6.037025757771785628e-02
6.049952065925812139e-02
6.049952065925812139e-02
6.075366655601947830e-02
6.075366655601947830e-02
6.100203275301570305e-02
6.100203275301570305e-02
6.124468956570846417e-02
6.124468956570846417e-02
6.171314284656063964e-02
6.171314284656063964e-02
6.182679030970311684e-02
6.182679030970311684e-02
6.193906683184692563e-02
6.193906683184692563e-02
6.226774445890905646e-02
6.226774445890905646e-02
6.248014084491167186e-02
6.248014084491167186e-02
6.268722357865276484e-02
6.268722357865276484e-02
6.278878880819410702e-02
6.278878880819410702e-02
6.288904515096409298e-02
6.288904515096409298e-02
6.298799885692511757e-02
6.298799885692511757e-02
6.308565605587374003e-02
6.308565605587374003e-02
6.327710486423979153e-02
6.327710486423979153e-02
6.364470127198335048e-02
6.364470127198335048e-02
6.382093700346305742e-02
6.382093700346305742e-02
6.415849125408108755e-02
6.415849125408108755e-02
6.431988805960407729e-02
6.431988805960407729e-02
6.455286205893584484e-02
6.455286205893584484e-02
6.470214834145772420e-02
6.470214834145772420e-02
6.477499517560769693e-02
6.477499517560769693e-02
6.484664987491643717e-02
6.484664987491643717e-02
6.498639857693300215e-02
6.498639857693300215e-02
6.505450022865444382e-02
6.505450022865444382e-02
6.512142504583265379e-02
6.512142504583265379e-02
6.518717665308108866e-02
6.518717665308108866e-02
6.525175859699108849e-02
6.525175859699108849e-02
6.537742729719486778e-02
6.537742729719486778e-02
6.549845799711623284e-02
6.549845799711623284e-02
6.555724216286099026e-02
6.555724216286099026e-02
6.567136362220599155e-02
6.567136362220599155e-02
6.578090908462728981e-02
6.578090908462728981e-02
6.603489986363271502e-02
6.603489986363271502e-02
6.608231230821150215e-02
6.608231230821150215e-02
6.626075761715979895e-02
6.626075761715979895e-02
6.630257913535492209e-02
6.630257913535492209e-02
6.634328903513904419e-02
6.634328903513904419e-02
6.642138209944144223e-02
6.642138209944144223e-02
6.659729724245572191e-02
6.659729724245572191e-02
6.662918279552887402e-02
6.662918279552887402e-02
6.668966936490239306e-02
6.668966936490239306e-02
6.671827335895316735e-02
6.671827335895316735e-02
6.682179285233225130e-02
6.682179285233225130e-02
6.696118278525253764e-02
6.696118278525253764e-02
6.697677209301743095e-02
6.697677209301743095e-02
6.700471625191767311e-02
6.700471625191767311e-02
6.702835221009091626e-02
6.703855607036894593e-02
6.703855607036894593e-02
6.704768452377754540e-02
6.704768452377754540e-02
6.706271691484025355e-02
6.706271691484025355e-02
6.706862157521950585e-02
6.706862157521950585e-02
6.707345227435367041e-02
6.707345227435367041e-02
6.707720924427311437e-02
6.707720924427311437e-02
6.708150266653245541e-02
6.708150266653245541e-02
6.707989266538819106e-02
6.707989266538819106e-02
6.704768452377754540e-02
6.704768452377754540e-02
6.703855607036894593e-02
6.703855607036894593e-02
6.702835221009091626e-02
6.702835221009091626e-02
6.701707245172680572e-02
6.701707245172680572e-02
6.699128301503114169e-02
6.699128301503114169e-02
6.696118278525253764e-02
6.696118278525253764e-02
6.690793674893882881e-02
6.690793674893882881e-02
6.688802583422535919e-02
6.688802583422535919e-02
6.684495493303888036e-02
6.684495493303888036e-02
6.682179285233223742e-02
6.682179285233223742e-02
6.679754486506221667e-02
6.679754486506221667e-02
6.674578638386095830e-02
6.674578638386095830e-02
6.671827335895316735e-02
6.671827335895316735e-02
6.645876917307451393e-02
6.645876917307451393e-02
6.642138209944144223e-02
6.642138209944144223e-02
6.638288936164198073e-02
6.638288936164198073e-02
6.621782237434269136e-02
6.621782237434269136e-02
6.612860198129097422e-02
6.612860198129097422e-02
6.608231230821150215e-02
6.608231230821150215e-02
6.593669691454069615e-02
6.593669691454069615e-02
6.572670690061993559e-02
6.572670690061993559e-02
6.555724216286099026e-02
6.555724216286099026e-02
6.549845799711623284e-02
6.549845799711623284e-02
6.543852076567746590e-02
6.543852076567746590e-02
6.531517434716070658e-02
6.531517434716070658e-02
6.512142504583265379e-02
6.512142504583265379e-02
6.498639857693300215e-02
6.498639857693300215e-02
6.491711638697456044e-02
6.491711638697456044e-02
6.477499517560769693e-02
6.477499517560769693e-02
6.470214834145772420e-02
6.470214834145772420e-02
6.455286205893584484e-02
6.455286205893584484e-02
6.447641429235964616e-02
6.447641429235964616e-02
6.382093700346305742e-02
6.382093700346305742e-02
6.268722357865276484e-02
6.268722357865276484e-02
6.237461021922301174e-02
6.237461021922301174e-02
6.204997985495240564e-02
6.204997985495240564e-02
6.193906683184692563e-02
6.193906683184692563e-02
6.182679030970311684e-02
6.182679030970311684e-02
6.049952065925812139e-02
6.049952065925812139e-02
5.983838233107575955e-02
5.983838233107575955e-02
5.956341158798746788e-02
5.956341158798746788e-02
5.942363166283259890e-02
5.942363166283259890e-02
5.928230764739172987e-02
5.928230764739172987e-02
5.809475019311124977e-02
5.809475019311124977e-02
5.793900240770460952e-02
5.793900240770460952e-02
5.483619242799411819e-02
5.483619242799411819e-02
5.346333322941995703e-02
5.346333322941995703e-02
5.284361834696787996e-02
5.284361834696787996e-02
5.198645977559926412e-02
5.198645977559926412e-02
5.176647563819659209e-02
5.176647563819659209e-02
5.154415582779487554e-02
5.154415582779487554e-02
5.086287447638011827e-02
5.086287447638011827e-02
5.063089965623759903e-02
5.063089965623759903e-02
4.991985576902241428e-02
4.991985576902241428e-02
4.737417017742896752e-02
4.737417017742896752e-02
4.710363043333284927e-02
4.710363043333284927e-02
4.682999039077415798e-02
4.682999039077415798e-02
4.655319537904997751e-02
4.655319537904997751e-02
4.598991193729337623e-02
4.598991193729337623e-02
4.541330201603931138e-02
4.541330201603931138e-02
4.452226409337243368e-02
4.452226409337243368e-02
4.421800538242311868e-02
4.421800538242311868e-02
4.390999886130720481e-02
4.390999886130720481e-02
4.263885551934995521e-02
4.263885551934995521e-02
4.197856595930832269e-02
4.197856595930832269e-02
4.164190197385320841e-02
4.164190197385320841e-02
4.095499969478696295e-02
4.095499969478696295e-02
3.952356259245868447e-02
3.952356259245868447e-02
3.639780213144743620e-02
3.639780213144743620e-02
3.235441237296701050e-02
3.235441237296701050e-02
2.867974895287615095e-02
2.867974895287615095e-02
2.288667734731279074e-02
2.288667734731279074e-02
1.576299463934439926e-02
1.576299463934439926e-02
8.468293806901130982e-03
8.468293806901130982e-03
0.000000000000000000e+00
