0.000000000000000000e+00
9.477341399358787596e-03
1.338954816265283676e-02
1.338954816265283676e-02
1.638230752977125337e-02
1.638230752977125337e-02
2.492348290267634714e-02
2.492348290267634714e-02
2.661728761538260241e-02
2.661728761538260241e-02
2.969848480983499489e-02
2.969848480983499489e-02
3.111623370525423704e-02
3.111623370525423704e-02
3.618701424544445294e-02
3.618701424544445294e-02
3.844450545916801992e-02
3.951809712018027054e-02
3.951809712018027054e-02
4.055884613743344913e-02
4.055884613743344913e-02
4.156921938165305391e-02
4.156921938165305391e-02
4.350724077667991740e-02
4.350724077667991740e-02
4.443849682426263131e-02
4.443849682426263131e-02
4.709904457629687791e-02
4.709904457629687791e-02
5.266858646290026313e-02
5.266858646290026313e-02
5.340337068013591149e-02
5.340337068013591149e-02
6.009592332263478942e-02
6.009592332263478942e-02
6.249223951819937728e-02
6.249223951819937728e-02
6.689932735087850135e-02
6.792996393345133999e-02
6.991480529902090180e-02
6.991480529902090180e-02
7.226326867780062668e-02
7.226326867780062668e-02
7.360706487831178424e-02
7.360706487831178424e-02
7.737325119186862221e-02
7.737325119186862221e-02
7.776888838089432432e-02
7.776888838089432432e-02
7.816022006110268094e-02
7.816022006110268094e-02
7.893022234860358477e-02
7.893022234860358477e-02
8.149846624323675570e-02
8.149846624323675570e-02
8.288256752779803171e-02
8.288256752779803171e-02
8.321958904008117108e-02
8.321958904008117108e-02
8.355309689054021827e-02
8.355309689054021827e-02
8.420973815420637609e-02
8.420973815420637609e-02
8.640312494348800776e-02
8.640312494348800776e-02
8.670363314187012893e-02
8.670363314187012893e-02
9.007596793817981840e-02
9.007596793817981840e-02
9.136071365745782047e-02
9.136071365745782047e-02
9.257904730553237482e-02
9.257904730553237482e-02
9.395701144672494176e-02
9.395701144672494176e-02
9.439661010862626656e-02
9.439661010862626656e-02
9.482657855263998403e-02
9.482657855263998403e-02
9.503799240303847928e-02
9.810963255460700139e-02
9.810963255460700139e-02
9.878977679901904119e-02
9.878977679901904119e-02
9.895453501482384673e-02
9.895453501482384673e-02
9.989954954853400015e-02
1.000498875561586926e-01
1.010461280801991102e-01
1.010461280801991102e-01
1.013129804121860739e-01
1.013129804121860739e-01
1.015720433977775339e-01
1.015720433977775339e-01
1.016986725577084250e-01
1.016986725577084250e-01
1.018233764908628436e-01
1.018233764908628436e-01
1.020670367944519069e-01
1.020670367944519069e-01
1.024182600906693719e-01
1.024182600906693719e-01
1.026429734565401375e-01
1.026429734565401375e-01
1.029660138103830891e-01
1.029660138103830891e-01
1.036551011769319408e-01
1.036551011769319408e-01
1.038355430476481794e-01
1.038355430476481794e-01
1.040087496319420379e-01
1.040087496319420379e-01
1.041747570191550731e-01
1.041747570191550731e-01
1.042550718190726755e-01
1.042550718190726755e-01
1.044103443151108562e-01
1.044103443151108562e-01
1.044853099722635736e-01
1.044853099722635736e-01
1.045585003718014494e-01
1.045585003718014494e-01
1.046299192391927646e-01
1.046995701996908945e-01
1.046995701996908945e-01
1.047674567792881012e-01
1.047674567792881012e-01
1.048335824056394749e-01
1.048335824056394749e-01
1.048979504089569970e-01
1.048979504089569970e-01
1.049605640228748193e-01
1.049605640228748193e-01
1.052474227712964089e-01
1.052474227712964089e-01
1.053986717183855171e-01
1.053986717183855171e-01
1.054908526840123706e-01
1.054908526840123706e-01
1.055343545960271689e-01
1.055343545960271689e-01
1.056161919404406679e-01
1.056161919404406679e-01
1.056545313746646841e-01
1.056545313746646841e-01
1.056911538398554867e-01
1.056911538398554867e-01
1.057260611202365808e-01
1.057260611202365808e-01
1.058205084092870979e-01
1.058205084092870979e-01
1.058749262101277566e-01
1.058749262101277566e-01
1.059225188522252004e-01
1.059225188522252004e-01
1.059437586646801988e-01
1.059437586646801988e-01
1.059632955319906866e-01
1.059632955319906866e-01
1.059811303959341672e-01
1.059811303959341672e-01
1.059972641156365081e-01
1.059972641156365081e-01
1.060116974677794699e-01
1.060116974677794699e-01
1.060354657649976995e-01
1.060354657649976995e-01
1.060448018528018232e-01
1.060448018528018232e-01
1.060524398587792960e-01
1.060524398587792960e-01
1.060626230111248874e-01
1.060626230111248874e-01
1.060651686464505750e-01
1.060651686464505750e-01
1.060660171779821276e-01
1.060660171779821276e-01
1.060651686464505750e-01
1.060651686464505750e-01
1.060524398587792960e-01
1.060524398587792960e-01
1.060354657649976995e-01
1.060354657649976995e-01
1.060116974677794699e-01
1.060116974677794699e-01
1.059632955319906866e-01
1.059632955319906866e-01
1.059437586646801988e-01
1.059437586646801988e-01
1.058205084092870979e-01
1.058205084092870979e-01
1.057592549141681548e-01
1.057592549141681548e-01
1.056911538398554867e-01
1.056911538398554867e-01
1.055761336666578287e-01
1.055761336666578287e-01
1.053986717183855171e-01
1.053986717183855171e-01
1.053499881347881306e-01
1.053499881347881306e-01
1.050805405391502662e-01
1.050805405391502662e-01
1.049605640228747916e-01
1.049605640228747916e-01
1.047674567792881012e-01
1.047674567792881012e-01
1.046299192391927646e-01
1.046299192391927646e-01
1.044103443151108424e-01
1.044103443151108424e-01
1.038355430476481794e-01
1.037462288471248661e-01
1.036551011769319408e-01
1.036551011769319408e-01
1.035621552498788012e-01
1.035621552498788012e-01
1.032723583540145484e-01
1.032723583540145484e-01
1.030699762297440369e-01
1.029660138103830891e-01
1.028601963832463106e-01
1.028601963832463106e-01
1.027525182173167073e-01
1.027525182173167073e-01
1.016986725577084250e-01
1.016986725577084250e-01
1.013129804121860739e-01
1.013129804121860739e-01
1.010461280801991102e-01
1.010461280801991102e-01
1.009097616685323412e-01
1.009097616685323412e-01
1.007714245210416804e-01
1.007714245210416804e-01
1.006311085102414987e-01
1.006311085102414987e-01
1.003445065760951299e-01
1.003445065760951299e-01
9.974718041127779433e-02
9.974718041127779433e-02
9.959277082198285391e-02
9.959277082198285391e-02
9.895453501482384673e-02
9.895453501482384673e-02
9.878977679901904119e-02
9.878977679901904119e-02
9.793426366701289687e-02
9.793426366701289687e-02
9.007596793817981840e-02
8.981080113215782201e-02
8.981080113215782201e-02
8.954283890965263060e-02
8.954283890965263060e-02
8.872192513691302962e-02
8.872192513691302962e-02
8.700103447660838263e-02
8.700103447660838263e-02
8.640312494348800776e-02
8.640312494348800776e-02
8.609947735033006422e-02
8.609947735033006422e-02
8.548262981448334630e-02
8.548262981448334630e-02
8.516936068798448833e-02
8.516936068798448833e-02
8.485281374238570762e-02
8.485281374238570762e-02
8.453295215476623603e-02
8.453295215476623603e-02
8.388313298870041235e-02
8.388313298870041235e-02
8.355309689054019051e-02
8.355309689054019051e-02
8.288256752779801784e-02
8.288256752779801784e-02
8.254198931453010646e-02
8.254198931453010646e-02
8.184998472815986637e-02
8.184998472815986637e-02
8.149846624323675570e-02
8.149846624323675570e-02
8.114320673968955511e-02
8.114320673968955511e-02
8.078415686259281248e-02
8.078415686259281248e-02
8.005448144857350845e-02
8.005448144857350845e-02
7.968374991176056799e-02
7.968374991176056799e-02
7.816022006110269482e-02
7.816022006110269482e-02
7.737325119186863609e-02
7.737325119186863609e-02
7.697324210399353328e-02
7.697324210399353328e-02
7.656879259855153830e-02
7.656879259855153830e-02
7.574628703771557614e-02
7.574628703771557614e-02
7.404471621932250114e-02
7.404471621932250114e-02
7.271643555620696531e-02
7.271643555620696531e-02
7.226326867780062668e-02
7.226326867780062668e-02
7.180473521990037022e-02
7.180473521990037022e-02
7.134073170356469706e-02
7.134073170356469706e-02
7.087115068912033800e-02
7.087115068912033800e-02
7.039588056129421345e-02
7.039588056129421345e-02
6.991480529902090180e-02
6.991480529902090180e-02
6.942780422856537070e-02
6.942780422856537070e-02
6.893475175845634184e-02
6.893475175845634184e-02
6.843551709456136001e-02
6.843551709456136001e-02
6.792996393345133999e-02
6.792996393345133999e-02
6.689932735087850135e-02
6.689932735087850135e-02
6.584162816941876994e-02
6.584162816941876994e-02
6.530222048292079473e-02
6.530222048292079473e-02
6.475554030351379775e-02
6.475554030351379775e-02
6.363961030678927377e-02
6.363961030678927377e-02
6.306996115426105609e-02
6.306996115426105609e-02
6.249223951819937034e-02
6.249223951819937034e-02
6.190621939676173302e-02
6.190621939676173302e-02
6.070831903454418366e-02
6.070831903454418366e-02
6.009592332263477554e-02
6.009592332263477554e-02
5.947419608536123892e-02
5.947419608536123892e-02
5.884284153573821757e-02
5.884284153573821757e-02
5.820154637120906332e-02
5.820154637120906332e-02
5.754997827975261854e-02
5.754997827975261854e-02
5.688778427747031435e-02
5.688778427747031435e-02
5.552999189627168264e-02
5.552999189627168264e-02
5.340337068013589067e-02
5.340337068013589067e-02
5.266858646290023538e-02
5.266858646290023538e-02
5.037856687124001032e-02
5.037856687124001032e-02
4.877376343896379363e-02
4.877376343896379363e-02
4.443849682426264519e-02
4.443849682426264519e-02
4.350724077667993822e-02
4.350724077667993822e-02
4.255138070615337165e-02
4.255138070615337165e-02
4.156921938165307473e-02
4.156921938165307473e-02
4.055884613743346301e-02
4.055884613743346301e-02
3.951809712018028442e-02
3.951809712018028442e-02
3.844450545916804074e-02
3.844450545916804074e-02
3.733523804664973245e-02
3.733523804664973245e-02
3.618701424544447376e-02
3.618701424544447376e-02
3.499599977140246260e-02
3.499599977140246260e-02
3.111623370525425092e-02
3.111623370525425092e-02
2.969848480983500530e-02
2.969848480983500530e-02
2.661728761538261281e-02
2.661728761538261281e-02
2.110687091920544073e-02
2.110687091920544073e-02
1.889761889762835503e-02
1.889761889762835503e-02
1.638230752977126378e-02
1.638230752977126378e-02
1.338954816265284370e-02
1.338954816265284370e-02
9.477341399358792801e-03
9.477341399358792801e-03
0.000000000000000000e+00
