0.000000000000000000e+00
6.157164305887731504e-03
3.782993371445041164e-02
3.782993371445041164e-02
5.730556698749027927e-02
5.730556698749027927e-02
5.758319338041877067e-02
5.758319338041877067e-02
6.693628019489160363e-02
6.693628019489160363e-02
6.823423216467396080e-02
6.823423216467396080e-02
6.886776508657392604e-02
6.886776508657392604e-02
7.208529310366482146e-02
7.208529310366482146e-02
7.359964130399922200e-02
7.359964130399922200e-02
7.469727672384846029e-02
7.469727672384846029e-02
7.628583182631291926e-02
7.628583182631291926e-02
7.862772332191154956e-02
7.862772332191154956e-02
8.005572509855476970e-02
8.005572509855476970e-02
8.021082847665361726e-02
8.021082847665361726e-02
8.036523442702009357e-02
8.036523442702009357e-02
8.097596347271573958e-02
8.097596347271573958e-02
8.127724547931464150e-02
8.127724547931464150e-02
8.142687911558636749e-02
8.142687911558636749e-02
8.187179469365976625e-02
8.187179469365976625e-02
8.231080750365636634e-02
8.231080750365636634e-02
8.260024992484966966e-02
8.260024992484966966e-02
8.414721516402159929e-02
8.414721516402159929e-02
8.428416307064517943e-02
8.428416307064517943e-02
8.442050985939994479e-02
8.442050985939994479e-02
8.469141168355753813e-02
8.469141168355753813e-02
8.652258706485869977e-02
8.652258706485869977e-02
8.677513067811483405e-02
8.677513067811483405e-02
8.690057504828314905e-02
8.690057504828314905e-02
8.739689158789078205e-02
8.739689158789078205e-02
8.751961710073218048e-02
8.751961710073218048e-02
8.895107208015745615e-02
8.895107208015745615e-02
8.906698685316141728e-02
8.906698685316141728e-02
8.918239224048692126e-02
8.918239224048692126e-02
9.008753055535305421e-02
9.008753055535305421e-02
9.019843813438924163e-02
9.019843813438924163e-02
9.030885525765333655e-02
9.030885525765333655e-02
9.063718177767463025e-02
9.063718177767463025e-02
9.096115789136274832e-02
9.096115789136274832e-02
9.138643862442941135e-02
9.138643862442941135e-02
9.170044176227933053e-02
9.170044176227933053e-02
9.180417384772501799e-02
9.180417384772501799e-02
9.190744076554642483e-02
9.190744076554642483e-02
9.201024408197437665e-02
9.201024408197437665e-02
9.231588787602358626e-02
9.231588787602358626e-02
9.241685217135735264e-02
9.241685217135735264e-02
9.251736048942085788e-02
9.251736048942085788e-02
9.261741431469222574e-02
9.261741431469222574e-02
9.271701511854352207e-02
9.271701511854352207e-02
9.291486348279746899e-02
9.291486348279746899e-02
9.320827441488853393e-02
9.320827441488853393e-02
9.330518727279778213e-02
9.330518727279778213e-02
9.340165705363870363e-02
9.340165705363870363e-02
9.359327285815893793e-02
9.359327285815893793e-02
9.368842158924640950e-02
9.368842158924640950e-02
9.378313265833004841e-02
9.378313265833004841e-02
9.434228155904247903e-02
9.434228155904247903e-02
9.443396545360148442e-02
9.443396545360148442e-02
9.461605234617229132e-02
9.461605234617229132e-02
9.479643956830402507e-02
9.479643956830402507e-02
9.488599883580463301e-02
9.488599883580463301e-02
9.524003471997927184e-02
9.524003471997927184e-02
9.541454829908252444e-02
9.541454829908252444e-02
9.601235269908953152e-02
9.601235269908953152e-02
9.609611808734608296e-02
9.609611808734608296e-02
9.617947789337877307e-02
9.617947789337877307e-02
9.642713431113708600e-02
9.642713431113708600e-02
9.650888223793563370e-02
9.650888223793563370e-02
9.659022976427976415e-02
9.659022976427976415e-02
9.683188000692777297e-02
9.683188000692777297e-02
9.691163595641427708e-02
9.691163595641427708e-02
9.699099647680731184e-02
9.699099647680731184e-02
9.722671512227652746e-02
9.722671512227652746e-02
9.730450354559999626e-02
9.730450354559999626e-02
9.738190131018195639e-02
9.738190131018195639e-02
9.745890934675663364e-02
9.745890934675663364e-02
9.768760428189988965e-02
9.768760428189988965e-02
9.783813565563492798e-02
9.783813565563492798e-02
9.791282444757454240e-02
9.791282444757454240e-02
9.820775407092757758e-02
9.820775407092757758e-02
9.863876562729423370e-02
9.863876562729423370e-02
9.877942727120297972e-02
9.877942727120297972e-02
9.884919756587118300e-02
9.884919756587118300e-02
9.891859523137883081e-02
9.891859523137883081e-02
9.898762105144792711e-02
9.898762105144792711e-02
9.912456025832025452e-02
9.912456025832025452e-02
9.919247518088242233e-02
9.919247518088242233e-02
9.926002132962472024e-02
9.926002132962472024e-02
9.939401030887942690e-02
9.939401030887942690e-02
9.946045462573618878e-02
9.946045462573618878e-02
9.972258113433390969e-02
9.972258113433390969e-02
9.978720366803128794e-02
9.978720366803128794e-02
9.985146398235469900e-02
9.985146398235469900e-02
9.991536277618556783e-02
9.991536277618556783e-02
9.997890074269186189e-02
9.997890074269186189e-02
1.000420785693713205e-01
1.000420785693713205e-01
1.001673565251456621e-01
1.001673565251456621e-01
1.002912020316981817e-01
1.002912020316981817e-01
1.003525892762164584e-01
1.003525892762164584e-01
1.005346168109924193e-01
1.005346168109924193e-01
1.006541964250671217e-01
1.006541964250671217e-01
1.007134565086111322e-01
1.007134565086111322e-01
1.008309203419895661e-01
1.008309203419895661e-01
1.009469798215145708e-01
1.009469798215145708e-01
1.010616397854783299e-01
1.010616397854783299e-01
1.011184464391462340e-01
1.011184464391462340e-01
1.012310160265559034e-01
1.012310160265559034e-01
1.012867801202824575e-01
1.012867801202824575e-01
1.013421978459271289e-01
1.013421978459271289e-01
1.013972697714026483e-01
1.013972697714026483e-01
1.014519964598486340e-01
1.014519964598486340e-01
1.016674619408638180e-01
1.016674619408638180e-01
1.017204707264293961e-01
1.017204707264293961e-01
1.017731375553428963e-01
1.017731375553428963e-01
1.019803958488978424e-01
1.019803958488978424e-01
1.020819868379103657e-01
1.020819868379103657e-01
1.022318370360412593e-01
1.022318370360412593e-01
1.023300520886743781e-01
1.023300520886743781e-01
1.024269236097121449e-01
1.024269236097121449e-01
1.024748567386349896e-01
1.024748567386349896e-01
1.025224554075871292e-01
1.025224554075871292e-01
1.026632492903341576e-01
1.026632492903341576e-01
1.027095147346053228e-01
1.027095147346053228e-01
1.027554480060784148e-01
1.027554480060784148e-01
1.028010495500150112e-01
1.028010495500150112e-01
1.028912592163350737e-01
1.028912592163350737e-01
1.032808958995951043e-01
1.032808958995951043e-01
1.033638778234774735e-01
1.033638778234774735e-01
1.034048797338071729e-01
1.034048797338071729e-01
1.034455561276676760e-01
1.034455561276676760e-01
1.035259338976953492e-01
1.035259338976953492e-01
1.036050141604614588e-01
1.036050141604614588e-01
1.036827998848446203e-01
1.036827998848446203e-01
1.037592939822931382e-01
1.037592939822931382e-01
1.037970575651833705e-01
1.037970575651833705e-01
1.038344993074027112e-01
1.038344993074027112e-01
1.038716195569849149e-01
1.038716195569849149e-01
1.039084186584801339e-01
1.039084186584801339e-01
1.039448969529717659e-01
1.039448969529717659e-01
1.040168924680444085e-01
1.040168924680444085e-01
1.040524103536076828e-01
1.040524103536076828e-01
1.040876087621643298e-01
1.040876087621643298e-01
1.041224880177100964e-01
1.041224880177100964e-01
1.041570484408710084e-01
1.041570484408710084e-01
1.041912903489187192e-01
1.041912903489187192e-01
1.042252140557859003e-01
1.042252140557859003e-01
1.043250790588597654e-01
1.043250790588597654e-01
1.043900703282045622e-01
1.043900703282045622e-01
1.044851850500108231e-01
1.044851850500108231e-01
1.045470167668827999e-01
1.045470167668827999e-01
1.045774600400548038e-01
1.045774600400548038e-01
1.046669028089120823e-01
1.046669028089120823e-01
1.046960889439358250e-01
1.046960889439358250e-01
1.048373204495061661e-01
1.048373204495061661e-01
1.048646286887839896e-01
1.048646286887839896e-01
1.048916248171588295e-01
1.048916248171588295e-01
1.049183090755548137e-01
1.049183090755548137e-01
1.049964929947738435e-01
1.049964929947738435e-01
1.050219321221216306e-01
1.050219321221216306e-01
1.050470605389242362e-01
1.050470605389242362e-01
1.050718784681052426e-01
1.050718784681052426e-01
1.050963861296244362e-01
1.050963861296244362e-01
1.051913183951041358e-01
1.051913183951041358e-01
1.052369284246481851e-01
1.052369284246481851e-01
1.052813032108776831e-01
1.052813032108776831e-01
1.053244443150728737e-01
1.053244443150728737e-01
1.053455527117419521e-01
1.053455527117419521e-01
1.054269095488726965e-01
1.054269095488726965e-01
1.054657444003781752e-01
1.054657444003781752e-01
1.055033520310966061e-01
1.055033520310966061e-01
1.055216960503751189e-01
1.055216960503751189e-01
1.055920105167928169e-01
1.055920105167928169e-01
1.056088244951320226e-01
1.056088244951320226e-01
1.056253329142762126e-01
1.056253329142762126e-01
1.056883138228333907e-01
1.056883138228333907e-01
1.057032965400637459e-01
1.057032965400637459e-01
1.057179745166476476e-01
1.057179745166476476e-01
1.057323478794992277e-01
1.057323478794992277e-01
1.057464167528304050e-01
1.057464167528304050e-01
1.057601812581564771e-01
1.057601812581564771e-01
1.057867976374021191e-01
1.057867976374021191e-01
1.058363830283774731e-01
1.058363830283774731e-01
1.058480201346489180e-01
1.058480201346489180e-01
1.058593537485640890e-01
1.058593537485640890e-01
1.058703839675912139e-01
1.058703839675912139e-01
1.058915345976118305e-01
1.058915345976118305e-01
1.059016551903118053e-01
1.059016551903118053e-01
1.059114727515444165e-01
1.059114727515444165e-01
1.059209873655714701e-01
1.059209873655714701e-01
1.059391080759097964e-01
1.059391080759097964e-01
1.059477143276089106e-01
1.059477143276089106e-01
1.059560179428847559e-01
1.059560179428847559e-01
1.059640189928835741e-01
1.059640189928835741e-01
1.059717175461378919e-01
1.059717175461378919e-01
1.059791136685698104e-01
1.059791136685698104e-01
1.059862074234936558e-01
1.059862074234936558e-01
1.060056750773004375e-01
1.060056750773004375e-01
1.060171427192852511e-01
1.060171427192852511e-01
1.060224234530568882e-01
1.060224234530568882e-01
1.060320789718103840e-01
1.060320789718103840e-01
1.060405268295148001e-01
1.060405268295148001e-01
1.060442979772788646e-01
1.060442979772788646e-01
1.060509348716386913e-01
1.060509348716386913e-01
1.060538006748948381e-01
1.060538006748948381e-01
1.060563647490100903e-01
1.060563647490100903e-01
1.060605877947764369e-01
1.060605877947764369e-01
1.060622468024656623e-01
1.060622468024656623e-01
1.060636041530918783e-01
1.060636041530918783e-01
1.060646598582363487e-01
1.060646598582363487e-01
1.060654139269061602e-01
1.060654139269061602e-01
1.060658663655348055e-01
1.060658663655348055e-01
1.060660171779821276e-01
1.060660171779821276e-01
1.060654139269061602e-01
1.060654139269061602e-01
1.060646598582363487e-01
1.060646598582363487e-01
1.060636041530918783e-01
1.060636041530918783e-01
1.060622468024656623e-01
1.060622468024656623e-01
1.060605877947764369e-01
1.060605877947764369e-01
1.060586271158682758e-01
1.060586271158682758e-01
1.060538006748948381e-01
1.060538006748948381e-01
1.060477673147801059e-01
1.060477673147801059e-01
1.060364538392865874e-01
1.060364538392865874e-01
1.060320789718103840e-01
1.060320789718103840e-01
1.060224234530568743e-01
1.060224234530568743e-01
1.060171427192852511e-01
1.060171427192852511e-01
1.059862074234936558e-01
1.059862074234936558e-01
1.059791136685698104e-01
1.059791136685698104e-01
1.059560179428847837e-01
1.059560179428847837e-01
1.059477143276088829e-01
1.059477143276088829e-01
1.059016551903118053e-01
1.059016551903118053e-01
1.058593537485640890e-01
1.058593537485640890e-01
1.058480201346489180e-01
1.058480201346489180e-01
1.058363830283774731e-01
1.058363830283774731e-01
1.058244423296280795e-01
1.058244423296280795e-01
1.058121979356213271e-01
1.058121979356213271e-01
1.057996497409154912e-01
1.057996497409154912e-01
1.057736415143012004e-01
1.057736415143012004e-01
1.057601812581564771e-01
1.057601812581564771e-01
1.057464167528304050e-01
1.057464167528304050e-01
1.057323478794992000e-01
1.057323478794992000e-01
1.057179745166476476e-01
1.057179745166476476e-01
1.056883138228334185e-01
1.056883138228334185e-01
1.056730262353347688e-01
1.056730262353347688e-01
1.056415359174729673e-01
1.056415359174729673e-01
1.056253329142762126e-01
1.056253329142762126e-01
1.055920105167928169e-01
1.055920105167928169e-01
1.055748908332674874e-01
1.055748908332674874e-01
1.055574652958149451e-01
1.055574652958149451e-01
1.055397337529377089e-01
1.055397337529377089e-01
1.054847015352947392e-01
1.054847015352947392e-01
1.054070314931161712e-01
1.054070314931161712e-01
1.052813032108776831e-01
1.052813032108776831e-01
1.052592701245175788e-01
1.052592701245175788e-01
1.052369284246481851e-01
1.052369284246481851e-01
1.051680496635620521e-01
1.051680496635620521e-01
1.051205837404878690e-01
1.051205837404878690e-01
1.049964929947738435e-01
1.049964929947738435e-01
1.049446817018692968e-01
1.049446817018692968e-01
1.049183090755548275e-01
1.049183090755548275e-01
1.048646286887839896e-01
1.048646286887839896e-01
1.048373204495061661e-01
1.048373204495061661e-01
1.048096998553631753e-01
1.048096998553631753e-01
1.047249614583159461e-01
1.047249614583159461e-01
1.046960889439358111e-01
1.046960889439358111e-01
1.046374027908135163e-01
1.046374027908135163e-01
1.045774600400548038e-01
1.045774600400548038e-01
1.045470167668827999e-01
1.045470167668827999e-01
1.045162585295869306e-01
1.045162585295869306e-01
1.043900703282045622e-01
1.043900703282045622e-01
1.043577330340733911e-01
1.043577330340733911e-01
1.043250790588597654e-01
1.043250790588597654e-01
1.042588198720811876e-01
1.042588198720811876e-01
1.041570484408710084e-01
1.041570484408710084e-01
1.040876087621643298e-01
1.040876087621643298e-01
1.039810547780932459e-01
1.039810547780932459e-01
1.039448969529717659e-01
1.039448969529717659e-01
1.037970575651833705e-01
1.037970575651833705e-01
1.037592939822931382e-01
1.037592939822931382e-01
1.037212082071976571e-01
1.037212082071976571e-01
1.036440686566461877e-01
1.036440686566461877e-01
1.036050141604614588e-01
1.036050141604614588e-01
1.035259338976953492e-01
1.035259338976953492e-01
1.034455561276676760e-01
1.034455561276676760e-01
1.033225500091504712e-01
1.033225500091504712e-01
1.032808958995951043e-01
1.032808958995951043e-01
1.032389150998574145e-01
1.032389150998574145e-01
1.031539718312853710e-01
1.031539718312853710e-01
1.030677169685811079e-01
1.030677169685811079e-01
1.030240966619118959e-01
1.030240966619118959e-01
1.029358682093211158e-01
1.029358682093211158e-01
1.028463198076740304e-01
1.028463198076740304e-01
1.028010495500150112e-01
1.028010495500150112e-01
1.026632492903341576e-01
1.026632492903341576e-01
1.025697200821986677e-01
1.025697200821986677e-01
1.025224554075871292e-01
1.025224554075871292e-01
1.024748567386349896e-01
1.024748567386349896e-01
1.023786555510416141e-01
1.023786555510416141e-01
1.023300520886743781e-01
1.023300520886743781e-01
1.022811127444640533e-01
1.022811127444640533e-01
1.022318370360412593e-01
1.022318370360412593e-01
1.020313607635668085e-01
1.020313607635668085e-01
1.019803958488978424e-01
1.019803958488978424e-01
1.018254629582113768e-01
1.018254629582113768e-01
1.017731375553428963e-01
1.017731375553428963e-01
1.017204707264294239e-01
1.017204707264294239e-01
1.016141106634830121e-01
1.016141106634830121e-01
1.015063784696638993e-01
1.015063784696638993e-01
1.013972697714026483e-01
1.013972697714026483e-01
1.013421978459271428e-01
1.013421978459271428e-01
1.012867801202824575e-01
1.012867801202824575e-01
1.011749049920293575e-01
1.011749049920293575e-01
1.010616397854783299e-01
1.010616397854783299e-01
1.010044844436921163e-01
1.010044844436921163e-01
1.009469798215145708e-01
1.009469798215145708e-01
1.007134565086111322e-01
1.007134565086111322e-01
1.005945834018067281e-01
1.005945834018067281e-01
1.005346168109924193e-01
1.005346168109924193e-01
1.004742960195595392e-01
1.004742960195595392e-01
9.997890074269187577e-02
9.997890074269187577e-02
9.991536277618556783e-02
9.991536277618556783e-02
9.978720366803128794e-02
9.978720366803128794e-02
9.972258113433390969e-02
9.972258113433390969e-02
9.965759567662382801e-02
9.965759567662382801e-02
9.959224658446071132e-02
9.959224658446071132e-02
9.952653314155773812e-02
9.952653314155773812e-02
9.939401030887942690e-02
9.939401030887942690e-02
9.932719945688646412e-02
9.932719945688646412e-02
9.926002132962472024e-02
9.926002132962472024e-02
9.919247518088242233e-02
9.919247518088242233e-02
9.912456025832025452e-02
9.912456025832025452e-02
9.898762105144792711e-02
9.898762105144792711e-02
9.891859523137883081e-02
9.891859523137883081e-02
9.884919756587116912e-02
9.884919756587116912e-02
9.870928355722219383e-02
9.870928355722219383e-02
9.863876562729423370e-02
9.863876562729423370e-02
9.806105263555318918e-02
9.806105263555318918e-02
9.791282444757455627e-02
9.791282444757455627e-02
9.783813565563492798e-02
9.783813565563492798e-02
9.768760428189988965e-02
9.768760428189988965e-02
9.761175992079462738e-02
9.761175992079462738e-02
9.745890934675663364e-02
9.745890934675663364e-02
9.730450354559999626e-02
9.730450354559999626e-02
9.714853510179101426e-02
9.714853510179101426e-02
9.699099647680731184e-02
9.699099647680731184e-02
9.691163595641427708e-02
9.691163595641427708e-02
9.683188000692777297e-02
9.683188000692777297e-02
9.642713431113708600e-02
9.642713431113708600e-02
9.634498496467466810e-02
9.634498496467466810e-02
9.626243317084642870e-02
9.626243317084642870e-02
9.617947789337877307e-02
9.617947789337877307e-02
9.609611808734608296e-02
9.609611808734608296e-02
9.584360091710700247e-02
9.584360091710700247e-02
9.541454829908252444e-02
9.541454829908252444e-02
9.497513680460006880e-02
9.497513680460006880e-02
9.470645780689337934e-02
9.470645780689337934e-02
9.461605234617229132e-02
9.461605234617229132e-02
9.452522197044194163e-02
9.452522197044194163e-02
9.443396545360148442e-02
9.443396545360148442e-02
9.425016903954214209e-02
9.425016903954214209e-02
9.415762663715487868e-02
9.415762663715487868e-02
9.378313265833004841e-02
9.378313265833004841e-02
9.340165705363870363e-02
9.340165705363870363e-02
9.320827441488852005e-02
9.320827441488852005e-02
9.301311392168674919e-02
9.301311392168674919e-02
9.281616435938340459e-02
9.281616435938340459e-02
9.271701511854353595e-02
9.271701511854353595e-02
9.241685217135735264e-02
9.241685217135735264e-02
9.231588787602358626e-02
9.231588787602358626e-02
9.221446610569064561e-02
9.221446610569064561e-02
9.201024408197437665e-02
9.201024408197437665e-02
9.159624292881241026e-02
9.159624292881241026e-02
9.117474800190605855e-02
9.117474800190605855e-02
9.096115789136274832e-02
9.096115789136274832e-02
9.085364634628076419e-02
9.085364634628076419e-02
9.074565488019610549e-02
9.074565488019610549e-02
9.063718177767463025e-02
9.063718177767463025e-02
9.052822530739117191e-02
9.052822530739117191e-02
9.019843813438922775e-02
9.019843813438922775e-02
8.963895915116985857e-02
8.963895915116985857e-02
8.952557174404630891e-02
8.952557174404630891e-02
8.941168273908416120e-02
8.941168273908416120e-02
8.929729021708253389e-02
8.929729021708253389e-02
8.918239224048690739e-02
8.918239224048690739e-02
8.906698685316141728e-02
8.906698685316141728e-02
8.883464592747852828e-02
8.883464592747852828e-02
8.871770638184105218e-02
8.871770638184105218e-02
8.860025141043118002e-02
8.860025141043118002e-02
8.836378695990018683e-02
8.836378695990018683e-02
8.800517261969001415e-02
8.800517261969001415e-02
8.776345971504406762e-02
8.776345971504406762e-02
8.764180572897264931e-02
8.764180572897264931e-02
8.702547097823512545e-02
8.702547097823512545e-02
8.690057504828314905e-02
8.690057504828314905e-02
8.677513067811484793e-02
8.677513067811484793e-02
8.664913548575364777e-02
8.664913548575364777e-02
8.652258706485869977e-02
8.652258706485869977e-02
8.639548298439324314e-02
8.639548298439324314e-02
8.626782078828747202e-02
8.626782078828747202e-02
8.613959799509487980e-02
8.613959799509487980e-02
8.601081209764269153e-02
8.601081209764269153e-02
8.588146056267564887e-02
8.588146056267564887e-02
8.575154083049352227e-02
8.575154083049352227e-02
8.562105031458180915e-02
8.562105031458180915e-02
8.548998640123575687e-02
8.548998640123575687e-02
8.522612778916477394e-02
8.522612778916477394e-02
8.509332772359583241e-02
8.509332772359583241e-02
8.400966319980190944e-02
8.400966319980190944e-02
8.373273517771338825e-02
8.373273517771338825e-02
8.359335307698810558e-02
8.359335307698810558e-02
8.331273733654867564e-02
8.331273733654867564e-02
8.302963199566398833e-02
8.302963199566398833e-02
8.288713776191794502e-02
8.288713776191794502e-02
8.274401150013160899e-02
8.274401150013160899e-02
8.172415009856216772e-02
8.172415009856216772e-02
8.157584610683994708e-02
8.157584610683994708e-02
8.127724547931462762e-02
8.127724547931462762e-02
8.097596347271573958e-02
8.097596347271573958e-02
8.067197004496855228e-02
8.067197004496855228e-02
8.051894696188975631e-02
8.051894696188975631e-02
8.036523442702007969e-02
8.036523442702007969e-02
8.021082847665361726e-02
8.021082847665361726e-02
8.005572509855475583e-02
8.005572509855475583e-02
7.958618953025622944e-02
7.958618953025622944e-02
7.942825531926264726e-02
7.942825531926264726e-02
7.895012586986877023e-02
7.895012586986877023e-02
7.878929252732323751e-02
7.878929252732323751e-02
7.862772332191154956e-02
7.862772332191154956e-02
7.846541370795803716e-02
7.846541370795803716e-02
7.830235908117912091e-02
7.830235908117912091e-02
7.813855477763706481e-02
7.813855477763706481e-02
7.797399607266919386e-02
7.797399607266919386e-02
7.780867817979206236e-02
7.780867817979206236e-02
7.747574536851514759e-02
7.747574536851514759e-02
7.697052889879411885e-02
7.697052889879411885e-02
7.680055175559447056e-02
7.680055175559447056e-02
7.662978009044757455e-02
7.662978009044757455e-02
7.628583182631291926e-02
7.628583182631291926e-02
7.593864063259574138e-02
7.593864063259574138e-02
7.576381502134109380e-02
7.576381502134109380e-02
7.558816182308199239e-02
7.558816182308199239e-02
7.487715626304125571e-02
7.487715626304125571e-02
7.451653363933039009e-02
7.451653363933039009e-02
7.415243154593720298e-02
7.415243154593720298e-02
7.396905966055049297e-02
7.396905966055049297e-02
7.359964130399922200e-02
7.359964130399922200e-02
7.341358137427597685e-02
7.341358137427597685e-02
7.322661180240762346e-02
7.322661180240762346e-02
7.284991568296797504e-02
7.284991568296797504e-02
7.246949576851256791e-02
7.246949576851256791e-02
7.169724687679407404e-02
7.169724687679407404e-02
7.150176289618151437e-02
7.150176289618151437e-02
7.130529433747911927e-02
7.130529433747911927e-02
7.070989891727091914e-02
7.070989891727091914e-02
7.050940909662573031e-02
7.050940909662573031e-02
7.030789253819912099e-02
7.030789253819912099e-02
7.010534038797297529e-02
7.010534038797297529e-02
6.990174364353955727e-02
6.990174364353955727e-02
6.969709315060176880e-02
6.969709315060176880e-02
6.949137959936592390e-02
6.949137959936592390e-02
6.907672528291354530e-02
6.907672528291354530e-02
6.886776508657392604e-02
6.886776508657392604e-02
6.844652876271588304e-02
6.844652876271588304e-02
6.823423216467398855e-02
6.823423216467398855e-02
6.759050193534933693e-02
6.759050193534933693e-02
6.737360873726212784e-02
6.737360873726212784e-02
6.715553865790875598e-02
6.715553865790875598e-02
6.693628019489161751e-02
6.693628019489161751e-02
6.627125623128288234e-02
6.627125623128288234e-02
6.604712483779591470e-02
6.604712483779591470e-02
6.513797697378460871e-02
6.513797697378460871e-02
6.467564310576327802e-02
6.467564310576327802e-02
6.444248767864187155e-02
6.444248767864187155e-02
6.301478390997908297e-02
6.301478390997908297e-02
6.277189266295862824e-02
6.277189266295862824e-02
6.228172757925226621e-02
6.228172757925226621e-02
6.203441911353523713e-02
6.203441911353523713e-02
6.128337411324731587e-02
6.128337411324731587e-02
6.102992356355745052e-02
6.102992356355745052e-02
6.077488966165281448e-02
6.077488966165281448e-02
6.025999126319056542e-02
6.025999126319056542e-02
6.000008531228206293e-02
6.000008531228206293e-02
5.973851306875169881e-02
5.973851306875169881e-02
5.894357604248419424e-02
5.894357604248419424e-02
5.867511334315675398e-02
5.867511334315675398e-02
5.840486889576450291e-02
5.840486889576450291e-02
5.758319338041879842e-02
5.758319338041879842e-02
5.702602801679014510e-02
5.702602801679014510e-02
5.674454820270145167e-02
5.674454820270145167e-02
5.617564914330377968e-02
5.617564914330377968e-02
5.530699217692224001e-02
5.530699217692224001e-02
5.471730390864212173e-02
5.471730390864212173e-02
5.441918184180503937e-02
5.441918184180503937e-02
5.381620025756034265e-02
5.381620025756034265e-02
5.320398040526776173e-02
5.320398040526776173e-02
5.289430607333564516e-02
5.289430607333564516e-02
5.226761741499044017e-02
5.226761741499044017e-02
5.195051454494286486e-02
5.195051454494286486e-02
5.163084454540522311e-02
5.163084454540522311e-02
5.130855943409686620e-02
5.130855943409686620e-02
5.098360961795145307e-02
5.098360961795145307e-02
5.065594381602285534e-02
5.065594381602285534e-02
4.999225019494278610e-02
4.999225019494278610e-02
4.965611061087107925e-02
4.965611061087107925e-02
4.897495126203381399e-02
4.897495126203381399e-02
4.828153315927317946e-02
4.828153315927317946e-02
4.793006117636566116e-02
4.793006117636566116e-02
4.757532028555647857e-02
4.757532028555647857e-02
4.721723680944687335e-02
4.721723680944687335e-02
4.649073243605118810e-02
4.649073243605118810e-02
4.612214870661943827e-02
4.612214870661943827e-02
4.574989634888261547e-02
4.574989634888261547e-02
4.537388506943680622e-02
4.537388506943680622e-02
4.422233408398015819e-02
4.422233408398015819e-02
4.383030144965915920e-02
4.383030144965915920e-02
4.343399399368892688e-02
4.343399399368892688e-02
4.303329361160482952e-02
4.303329361160482952e-02
4.262807642416371889e-02
4.262807642416371889e-02
4.221821237249473446e-02
4.221821237249473446e-02
4.180356477594655146e-02
4.180356477594655146e-02
4.052944409411105009e-02
4.052944409411105009e-02
4.009414512865004665e-02
4.009414512865004665e-02
3.965326120711640950e-02
3.965326120711640950e-02
3.920660391905073788e-02
3.920660391905073788e-02
3.875397364289000224e-02
3.875397364289000224e-02
3.829515858571781728e-02
3.829515858571781728e-02
3.782993371445040470e-02
3.782993371445040470e-02
3.735805956305970899e-02
3.735805956305970899e-02
3.687928089778180069e-02
3.687928089778180069e-02
3.639332521906786522e-02
3.639332521906786522e-02
3.589990107517233159e-02
3.589990107517233159e-02
3.539869615757689630e-02
3.539869615757689630e-02
3.488937514270935153e-02
3.488937514270935153e-02
3.330896301122736325e-02
3.330896301122736325e-02
3.276327041135328189e-02
3.276327041135328189e-02
3.164063333128239869e-02
3.164063333128239869e-02
3.106255939226050880e-02
3.106255939226050880e-02
3.047247167746226088e-02
3.047247167746226088e-02
2.986965818372783535e-02
2.986965818372783535e-02
2.925333221420611807e-02
2.925333221420611807e-02
2.862262089676014670e-02
2.862262089676014670e-02
2.731403369988486332e-02
2.731403369988486332e-02
2.663384060837453021e-02
2.663384060837453021e-02
2.593458135172265269e-02
2.593458135172265269e-02
2.447228321574600185e-02
2.447228321574600185e-02
2.208728067729956793e-02
2.208728067729956793e-02
2.122981645027723421e-02
2.122981645027723421e-02
2.033465664942683479e-02
2.033465664942683479e-02
1.939658298078998991e-02
1.939658298078998991e-02
1.840903629618442783e-02
1.840903629618442783e-02
1.736357737105953189e-02
1.736357737105953189e-02
1.624903186747679931e-02
1.624903186747679931e-02
1.505005879997660910e-02
1.505005879997660910e-02
1.374458143699549759e-02
1.374458143699549759e-02
1.229873097586169778e-02
1.229873097586169778e-02
6.157164305887678594e-03
6.157164305887678594e-03
0.000000000000000000e+00
0.000000000000000000e+00
