0.000000000000000000e+00
4.184057673928814371e-03
4.184057673928814371e-03
4.184057673928814371e-03
5.121868226728760673e-03
5.121868226728760673e-03
5.121868226728760673e-03
5.121868226728760673e-03
5.121868226728760673e-03
5.121868226728760673e-03
5.911295440178163454e-03
5.911295440178163454e-03
6.605753368545871571e-03
6.605753368545871571e-03
7.232649962975233257e-03
7.232649962975233257e-03
7.808274940323413349e-03
7.808274940323413349e-03
8.343247193768506265e-03
8.343247193768506265e-03
8.844946244316920225e-03
8.844946244316920225e-03
9.318747691040487474e-03
9.318747691040487474e-03
9.768711641233728676e-03
9.768711641233728676e-03
1.019799391379327957e-02
1.019799391379327957e-02
1.060910536934385820e-02
1.060910536934385820e-02
1.138460552191651078e-02
1.138460552191651078e-02
1.175207778094525778e-02
1.175207778094525778e-02
1.278724774233737024e-02
1.278724774233737024e-02
1.311283839018820112e-02
1.311283839018820112e-02
1.342989354411870673e-02
1.342989354411870673e-02
1.373900413790663314e-02
1.373900413790663314e-02
1.404069488780225299e-02
1.404069488780225299e-02
1.433543425568906647e-02
1.433543425568906647e-02
1.462364256270978768e-02
1.462364256270978768e-02
1.490569865657083090e-02
1.490569865657083090e-02
1.518194543577943909e-02
1.518194543577943909e-02
1.545269446165805152e-02
1.545269446165805152e-02
1.571822983581856736e-02
1.571822983581856736e-02
1.623467793557346189e-02
1.623467793557346189e-02
1.673312650748569677e-02
1.673312650748569677e-02
1.697609868141713649e-02
1.697609868141713649e-02
1.721513910204594197e-02
1.721513910204594197e-02
1.768205990357480523e-02
1.768205990357480523e-02
1.791023122974256393e-02
1.791023122974256393e-02
1.813505464860722116e-02
1.813505464860722116e-02
1.835665317123416976e-02
1.835665317123416976e-02
1.857514221549538824e-02
1.857514221549538824e-02
1.879063024857503122e-02
1.879063024857503122e-02
1.900321936113282331e-02
1.900321936113282331e-02
1.962452887966138065e-02
1.962452887966138065e-02
2.041762543815632547e-02
2.041762543815632547e-02
2.080034088038605969e-02
2.080034088038605969e-02
2.135852148606089823e-02
2.135852148606089823e-02
2.154056393843298972e-02
2.154056393843298972e-02
2.172068216324710491e-02
2.172068216324710491e-02
2.189892364075844006e-02
2.189892364075844006e-02
2.207533383092140367e-02
2.207533383092140367e-02
2.224995629221243609e-02
2.224995629221243609e-02
2.259400340644624958e-02
2.259400340644624958e-02
2.309765731275283812e-02
2.309765731275283812e-02
2.326237454370091301e-02
2.326237454370091301e-02
2.342556401927967102e-02
2.342556401927967102e-02
2.374748539211935655e-02
2.374748539211935655e-02
2.406366164614229947e-02
2.406366164614229947e-02
2.437431635420086312e-02
2.437431635420086312e-02
2.452763883654142038e-02
2.452763883654142038e-02
2.467965802422823068e-02
2.467965802422823068e-02
2.497988148880191453e-02
2.497988148880191453e-02
2.512813134515350100e-02
2.512813134515350100e-02
2.527516913375398022e-02
2.527516913375398022e-02
2.542101588678824520e-02
2.542101588678824520e-02
2.585161069374732057e-02
2.585161069374732057e-02
2.599289106623361642e-02
2.599289106623361642e-02
2.613307637146821197e-02
2.613307637146821197e-02
2.627218413890972104e-02
2.627218413890972104e-02
2.668321008835830566e-02
2.668321008835830566e-02
2.681817324045024722e-02
2.681817324045024722e-02
2.734820137879286073e-02
2.734820137879286073e-02
2.760751844734383315e-02
2.760751844734383315e-02
2.773579959379160464e-02
2.773579959379160464e-02
2.798967023899551904e-02
2.798967023899551904e-02
2.824003253560445834e-02
2.824003253560445834e-02
2.836392713602916421e-02
2.836392713602916421e-02
2.848697898478937118e-02
2.848697898478937118e-02
2.885118548345507600e-02
2.885118548345507600e-02
2.908996870447658201e-02
2.908996870447658201e-02
2.932562686794043874e-02
2.932562686794043874e-02
2.978786371609744993e-02
2.978786371609744993e-02
3.012687062032741447e-02
3.012687062032741447e-02
3.023845572303757515e-02
3.023845572303757515e-02
3.034934529425877686e-02
3.034934529425877686e-02
3.045954693034808036e-02
3.045954693034808036e-02
3.067791600538726654e-02
3.067791600538726654e-02
3.078609787311776397e-02
3.078609787311776397e-02
3.110671635719965827e-02
3.110671635719965827e-02
3.121230255669082271e-02
3.121230255669082271e-02
3.142158398337579345e-02
3.142158398337579345e-02
3.152529176383832982e-02
3.152529176383832982e-02
3.173087195058436893e-02
3.173087195058436893e-02
3.183275620996139921e-02
3.183275620996139921e-02
3.193404429816519563e-02
3.193404429816519563e-02
3.203474187015410007e-02
3.203474187015410007e-02
3.213485447724195865e-02
3.213485447724195865e-02
3.223438756972928781e-02
3.223438756972928781e-02
3.233334649944859251e-02
3.233334649944859251e-02
3.272354431665090713e-02
3.272354431665090713e-02
3.291533055970030652e-02
3.291533055970030652e-02
3.301041242795116348e-02
3.301041242795116348e-02
3.329246854629479280e-02
3.329246854629479280e-02
3.347789277638588135e-02
3.347789277638588135e-02
3.356983396401598541e-02
3.356983396401598541e-02
3.375219548456193097e-02
3.375219548456193097e-02
3.437491188506804074e-02
3.437491188506804074e-02
3.446194794392023336e-02
3.446194794392023336e-02
3.472025097626187801e-02
3.472025097626187801e-02
3.497441860621472443e-02
3.497441860621472443e-02
3.514161061829106786e-02
3.514161061829106786e-02
3.530703008461605341e-02
3.530703008461605341e-02
3.538908289111218630e-02
3.538908289111218630e-02
3.563264986109523219e-02
3.563264986109523219e-02
3.571298485348127494e-02
3.571298485348127494e-02
3.579289765166328297e-02
3.579289765166328297e-02
3.603013089887602272e-02
3.603013089887602272e-02
3.634069790482127860e-02
3.634069790482127860e-02
3.649356689657057284e-02
3.649356689657057284e-02
3.656940663110075374e-02
3.656940663110075374e-02
3.671990886142154076e-02
3.671990886142154076e-02
3.679457617251608026e-02
3.679457617251608026e-02
3.701627111558319222e-02
3.701627111558319222e-02
3.708940809408918515e-02
3.708940809408918515e-02
3.716216816028505843e-02
3.716216816028505843e-02
3.737820883882576883e-02
3.737820883882576883e-02
3.744948306914042124e-02
3.744948306914042124e-02
3.752039115505972217e-02
3.752039115505972217e-02
3.773093913610617994e-02
3.773093913610617994e-02
3.786951103303586030e-02
3.786951103303586030e-02
3.793826486516473084e-02
3.793826486516473084e-02
3.800666652330150080e-02
3.800666652330150080e-02
3.807471790549980806e-02
3.807471790549980806e-02
3.827678903080205391e-02
3.827678903080205391e-02
3.847577381491693732e-02
3.847577381491693732e-02
3.860673930073383470e-02
3.860673930073383470e-02
3.867171990004770327e-02
3.867171990004770327e-02
3.880068522102725348e-02
3.880068522102725348e-02
3.886467324733119955e-02
3.886467324733119955e-02
3.892833368843683778e-02
3.892833368843683778e-02
3.911736545299287354e-02
3.911736545299287354e-02
3.924177762893659577e-02
3.924177762893659577e-02
3.936491686157057163e-02
3.936491686157057163e-02
3.966727331182486049e-02
3.966727331182486049e-02
3.984497856834208485e-02
3.984497856834208485e-02
3.996192647844725582e-02
3.996192647844725582e-02
4.001994776922185998e-02
4.001994776922185998e-02
4.007766903363459837e-02
4.007766903363459837e-02
4.013509156615627238e-02
4.013509156615627238e-02
4.030557950708129472e-02
4.030557950708129472e-02
4.036181977809464444e-02
4.036181977809464444e-02
4.041776758225296834e-02
4.041776758225296834e-02
4.080131340867878403e-02
4.080131340867878403e-02
4.090833273613769805e-02
4.090833273613769805e-02
4.106675766767679120e-02
4.106675766767679120e-02
4.111900922488091747e-02
4.111900922488091747e-02
4.142674609826805382e-02
4.142674609826805382e-02
4.147708301630823047e-02
4.147708301630823047e-02
4.152715043112117227e-02
4.152715043112117227e-02
4.157694931632306690e-02
4.157694931632306690e-02
4.162648063566164180e-02
4.162648063566164180e-02
4.191810242507201106e-02
4.191810242507201106e-02
4.201321130638739632e-02
4.201321130638739632e-02
4.215393190829060804e-02
4.215393190829060804e-02
4.224646056232399249e-02
4.224646056232399249e-02
4.229234190258826520e-02
4.229234190258826520e-02
4.238334275556773778e-02
4.238334275556773778e-02
4.242846390225579745e-02
4.242846390225579745e-02
4.256231985956124980e-02
4.256231985956124980e-02
4.269393108830761563e-02
4.269393108830761563e-02
4.278043508135032785e-02
4.278043508135032785e-02
4.290835079251455186e-02
4.290835079251455186e-02
4.299240959830955000e-02
4.299240959830955000e-02
4.303407564872652191e-02
4.303407564872652191e-02
4.315762879688975207e-02
4.315762879688975207e-02
4.331902018566001489e-02
4.331902018566001489e-02
4.335877496890577082e-02
4.335877496890577082e-02
4.347662639275610280e-02
4.347662639275610280e-02
4.359237175710174023e-02
4.359237175710174023e-02
4.363048843777887070e-02
4.363048843777887070e-02
4.389085552244954835e-02
4.389085552244954835e-02
4.392713645902070890e-02
4.392713645902070890e-02
4.403462023562149108e-02
4.403462023562149108e-02
4.414007700859121086e-02
4.414007700859121086e-02
4.417478133813969310e-02
4.417478133813969310e-02
4.431137302571075409e-02
4.431137302571075409e-02
4.444442820814667461e-02
4.444442820814667461e-02
4.450963955400145250e-02
4.450963955400145250e-02
4.457397855530403213e-02
4.457397855530403213e-02
4.482268548146636777e-02
4.482268548146636777e-02
4.488271791580539238e-02
4.488271791580539238e-02
4.491241488256047382e-02
4.491241488256047382e-02
4.500023382849251130e-02
4.500023382849251130e-02
4.505772395482203485e-02
4.505772395482203485e-02
4.508615348283487312e-02
4.508615348283487312e-02
4.511437318529904622e-02
4.511437318529904622e-02
4.514238345571711802e-02
4.514238345571711802e-02
4.517018468369884965e-02
4.517018468369884965e-02
4.522516155150847067e-02
4.522516155150847067e-02
4.527930682888337693e-02
4.527930682888337693e-02
4.533262349557805326e-02
4.533262349557805326e-02
4.538511447185136077e-02
4.538511447185136077e-02
4.543678261934722129e-02
4.543678261934722129e-02
4.561118132859426355e-02
4.561118132859426355e-02
4.563528215024338641e-02
4.563528215024338641e-02
4.575275743256029121e-02
4.575275743256029121e-02
4.579833988185660898e-02
4.579833988185660898e-02
4.582083067518054331e-02
4.582083067518054331e-02
4.584312157487707706e-02
4.584312157487707706e-02
4.593029201898682357e-02
4.593029201898682357e-02
4.601428691552256894e-02
4.601428691552256894e-02
4.605509898867511664e-02
4.605509898867511664e-02
4.609512362401083779e-02
4.609512362401083779e-02
4.619175350569950517e-02
4.619175350569950517e-02
4.630127290299596021e-02
4.630127290299596021e-02
4.631884674367851840e-02
4.631884674367851840e-02
4.635341409783510364e-02
4.635341409783510364e-02
4.637040804392072307e-02
4.637040804392072307e-02
4.638720911986324996e-02
4.638720911986324996e-02
4.643645720827431489e-02
4.643645720827431489e-02
4.649943354629451631e-02
4.649943354629451631e-02
4.652977332823320794e-02
4.652977332823320794e-02
4.655934952692972195e-02
4.655934952692972195e-02
4.658816359665193807e-02
4.658816359665193807e-02
4.662995878975174230e-02
4.662995878975174230e-02
4.665687363112112906e-02
4.665687363112112906e-02
4.667004696143411263e-02
4.667004696143411263e-02
4.672085005807972979e-02
4.672085005807972979e-02
4.673307904665666840e-02
4.673307904665666840e-02
4.679140064559744044e-02
4.679140064559744044e-02
4.682413995285881342e-02
4.682413995285881342e-02
4.686517048041230482e-02
4.686517048041230482e-02
4.687496074618223429e-02
4.687496074618223429e-02
4.690321174680357752e-02
4.690321174680357752e-02
4.692978538836331537e-02
4.692978538836331537e-02
4.693827102000094204e-02
4.693827102000094204e-02
4.696261258075452860e-02
4.696261258075452860e-02
4.697035497739836946e-02
4.697035497739836946e-02
4.701936055027766681e-02
4.701936055027766681e-02
4.703758642941030521e-02
4.703758642941030521e-02
4.705930098364868863e-02
4.705930098364868863e-02
4.706426815962088533e-02
4.706426815962088533e-02
4.708229276579283668e-02
4.708229276579283668e-02
4.708633815762620911e-02
4.708633815762620911e-02
4.710380290576451912e-02
4.710380290576451912e-02
4.711207342147252786e-02
4.711207342147252786e-02
4.712052622604548380e-02
4.712052622604548380e-02
4.712364970489201638e-02
4.712364970489201638e-02
4.712695669214608807e-02
4.712695669214608807e-02
4.712861009875459611e-02
4.712861009875459611e-02
4.712879380701937015e-02
4.712879380701937015e-02
4.712824268007673872e-02
4.712824268007673872e-02
4.712769154668905447e-02
4.712769154668905447e-02
4.712695669214607419e-02
4.712695669214607419e-02
4.712364970489201638e-02
4.712364970489201638e-02
4.710067811077861544e-02
4.710067811077861544e-02
4.709736927834862197e-02
4.709736927834862197e-02
4.709387636968292296e-02
4.709387636968292296e-02
4.709019934382004113e-02
4.709019934382004113e-02
4.708633815762620911e-02
4.708633815762620911e-02
4.708229276579283668e-02
4.708229276579283668e-02
4.706905087069056248e-02
4.706905087069056248e-02
4.700628511385416403e-02
4.700628511385416403e-02
4.699946971225045511e-02
4.699946971225045511e-02
4.699246908172025061e-02
4.699246908172025061e-02
4.697035497739836946e-02
4.697035497739836946e-02
4.696261258075454248e-02
4.696261258075454248e-02
4.695468451872681498e-02
4.695468451872681498e-02
4.692978538836331537e-02
4.692978538836331537e-02
4.691225585608792270e-02
4.691225585608792270e-02
4.690321174680357752e-02
4.690321174680357752e-02
4.685519338873737893e-02
4.685519338873737893e-02
4.684502935178647132e-02
4.684502935178647132e-02
4.681341434040380695e-02
4.681341434040380695e-02
4.680250128170104079e-02
4.680250128170104079e-02
4.675697192560381715e-02
4.675697192560381715e-02
4.669582624276225058e-02
4.669582624276225058e-02
4.668303111271172867e-02
4.668303111271172867e-02
4.657385173862760297e-02
4.657385173862760297e-02
4.655934952692972195e-02
4.655934952692972195e-02
4.649943354629450937e-02
4.649943354629450937e-02
4.643645720827431489e-02
4.643645720827431489e-02
4.640381753515573915e-02
4.640381753515573915e-02
4.631884674367851840e-02
4.631884674367851840e-02
4.628350532691883484e-02
4.628350532691883484e-02
4.624738807298219706e-02
4.624738807298219706e-02
4.609512362401084473e-02
4.609512362401084473e-02
4.603479151177296280e-02
4.603479151177296280e-02
4.595158775923016692e-02
4.595158775923016692e-02
4.590879781088220979e-02
4.590879781088220979e-02
4.586521287239645611e-02
4.586521287239645611e-02
4.584312157487707706e-02
4.584312157487707706e-02
4.582083067518054331e-02
4.582083067518054331e-02
4.577564890026613459e-02
4.577564890026613459e-02
4.570637183123257147e-02
4.570637183123257147e-02
4.568287708567417282e-02
4.568287708567417282e-02
4.556237137279767202e-02
4.556237137279767202e-02
4.553766158662493624e-02
4.553766158662493624e-02
4.543678261934722129e-02
4.543678261934722129e-02
4.530606855466557531e-02
4.530606855466557531e-02
4.527930682888337693e-02
4.527930682888337693e-02
4.511437318529904622e-02
4.511437318529904622e-02
4.505772395482203485e-02
4.505772395482203485e-02
4.500023382849251130e-02
4.500023382849251130e-02
4.497117242342989207e-02
4.497117242342989207e-02
4.463744898416376755e-02
4.463744898416376755e-02
4.460582210836742945e-02
4.460582210836742945e-02
4.427755791517921230e-02
4.427755791517921230e-02
4.420926258553101867e-02
4.420926258553101867e-02
4.406999699155694089e-02
4.406999699155694089e-02
4.403462023562149108e-02
4.403462023562149108e-02
4.396319051913998022e-02
4.396319051913998022e-02
4.374345166837956961e-02
4.374345166837956961e-02
4.366837358277540770e-02
4.366837358277540770e-02
4.355402293285263321e-02
4.355402293285263321e-02
4.343757743163224883e-02
4.343757743163224883e-02
4.339829383626371551e-02
4.339829383626371551e-02
4.303407564872652191e-02
4.303407564872652191e-02
4.290835079251454492e-02
4.290835079251454492e-02
4.286595661209074287e-02
4.286595661209074287e-02
4.260643864887365267e-02
4.260643864887365267e-02
4.242846390225579745e-02
4.242846390225579745e-02
4.220032417669863228e-02
4.220032417669863228e-02
4.201321130638739632e-02
4.201321130638739632e-02
4.182194919065877065e-02
4.182194919065877065e-02
4.177347869047395856e-02
4.177347869047395856e-02
4.172474438312122336e-02
4.172474438312122336e-02
4.167574534313713691e-02
4.167574534313713691e-02
4.137613869339304418e-02
4.137613869339304418e-02
4.117098417662468784e-02
4.117098417662468784e-02
4.111900922488091747e-02
4.111900922488091747e-02
4.096142049713422800e-02
4.096142049713422800e-02
4.085496407407489261e-02
4.085496407407489261e-02
4.080131340867878403e-02
4.080131340867878403e-02
4.074737962603728475e-02
4.074737962603728475e-02
4.069316160043911362e-02
4.069316160043911362e-02
4.047342413241722392e-02
4.047342413241722392e-02
4.041776758225296834e-02
4.041776758225296834e-02
4.036181977809464444e-02
4.036181977809464444e-02
4.030557950708129472e-02
4.030557950708129472e-02
4.024904554321502570e-02
4.024904554321502570e-02
4.013509156615627238e-02
4.013509156615627238e-02
4.001994776922185998e-02
4.001994776922185998e-02
3.996192647844725582e-02
3.996192647844725582e-02
3.978604928787071032e-02
3.978604928787071032e-02
3.966727331182486049e-02
3.966727331182486049e-02
3.892833368843683778e-02
3.892833368843683778e-02
3.886467324733119955e-02
3.886467324733119955e-02
3.854142450633855216e-02
3.854142450633855216e-02
3.840978550410543979e-02
3.840978550410543979e-02
3.834345783079579073e-02
3.834345783079579073e-02
3.780040310524404590e-02
3.780040310524404590e-02
3.744948306914042818e-02
3.744948306914042818e-02
3.730656636555818029e-02
3.730656636555818029e-02
3.708940809408918515e-02
3.708940809408918515e-02
3.694275498620420289e-02
3.694275498620420289e-02
3.686885743788324149e-02
3.686885743788324149e-02
3.649356689657056591e-02
3.649356689657056591e-02
3.587239107720294196e-02
3.587239107720294196e-02
3.555188981246600044e-02
3.555188981246600044e-02
3.547070180427677050e-02
3.547070180427677050e-02
3.530703008461603953e-02
3.530703008461603953e-02
3.522454035262692629e-02
3.522454035262692629e-02
3.489014994298740568e-02
3.489014994298740568e-02
3.463461399328247869e-02
3.463461399328247869e-02
3.437491188506804074e-02
3.437491188506804074e-02
3.428740238424022452e-02
3.428740238424022452e-02
3.411094846191883856e-02
3.411094846191883856e-02
3.393255640573090981e-02
3.393255640573090981e-02
3.384262401262870534e-02
3.384262401262870534e-02
3.375219548456193097e-02
3.375219548456193097e-02
3.310495968292985480e-02
3.310495968292985480e-02
3.301041242795116348e-02
3.301041242795116348e-02
3.243173652222737513e-02
3.243173652222737513e-02
3.193404429816519563e-02
3.193404429816519563e-02
3.183275620996139921e-02
3.183275620996139921e-02
3.162838575871070035e-02
3.162838575871070035e-02
3.142158398337579345e-02
3.142158398337579345e-02
3.131725631963039325e-02
3.131725631963039325e-02
3.110671635719965827e-02
3.110671635719965827e-02
3.001458222880465376e-02
3.001458222880465376e-02
2.908996870447656813e-02
2.908996870447656813e-02
2.897097253193503530e-02
2.897097253193503530e-02
2.873059766679436980e-02
2.873059766679436980e-02
2.848697898478937118e-02
2.848697898478937118e-02
2.798967023899551210e-02
2.798967023899551210e-02
2.773579959379161158e-02
2.773579959379161158e-02
2.734820137879286073e-02
2.734820137879286073e-02
2.708512320505726545e-02
2.708512320505726545e-02
2.668321008835831259e-02
2.668321008835831259e-02
2.599289106623360601e-02
2.599289106623360601e-02
2.483039785476215400e-02
2.483039785476215400e-02
2.467965802422824456e-02
2.467965802422824456e-02
2.374748539211934961e-02
2.374748539211934961e-02
2.326237454370092342e-02
2.326237454370092342e-02
2.309765731275284159e-02
2.309765731275284159e-02
2.259400340644624611e-02
2.259400340644624611e-02
2.154056393843298972e-02
2.154056393843298972e-02
2.098846309399033869e-02
2.098846309399033869e-02
2.002586859212311665e-02
2.002586859212311665e-02
1.982643264031328650e-02
1.982643264031328650e-02
1.962452887966138065e-02
1.962452887966138065e-02
1.879063024857503816e-02
1.879063024857503816e-02
1.623467793557345842e-02
1.623467793557345842e-02
1.571822983581855696e-02
1.571822983581855696e-02
1.545269446165803418e-02
1.545269446165803418e-02
1.490569865657083784e-02
1.490569865657083784e-02
1.433543425568906647e-02
1.433543425568906647e-02
1.404069488780224778e-02
1.404069488780224778e-02
1.373900413790662446e-02
1.373900413790662446e-02
1.342989354411869285e-02
1.342989354411869285e-02
1.311283839018818204e-02
1.311283839018818204e-02
1.138460552191650557e-02
1.138460552191650557e-02
7.232649962975215910e-03
7.232649962975215910e-03
6.605753368545845550e-03
6.605753368545845550e-03
0.000000000000000000e+00
