0.000000000000000000e+00
0.000000000000000000e+00
0.000000000000000000e+00
1.171783454417623619e-04
1.171783454417623619e-04
2.343566908835247238e-04
2.343566908835247238e-04
3.515350363252871127e-04
3.515350363252871127e-04
3.515350363252871127e-04
3.515350363252871127e-04
3.515350363252871127e-04
3.515350363252871127e-04
3.515350363252871127e-04
3.515350363252871127e-04
3.515350363252871127e-04
3.515350363252871127e-04
4.687133817670494475e-04
4.687133817670494475e-04
4.687133817670494475e-04
4.687133817670494475e-04
5.858917272088117823e-04
5.858917272088117823e-04
7.030700726505742255e-04
7.030700726505742255e-04
8.202484180923365602e-04
8.202484180923365602e-04
9.374267635340988950e-04
9.374267635340988950e-04
1.054605108975861230e-03
1.054605108975861230e-03
1.171783454417623565e-03
1.171783454417623565e-03
1.288961799859385899e-03
1.288961799859385899e-03
1.406140145301148451e-03
1.406140145301148451e-03
1.523318490742910786e-03
1.523318490742910786e-03
1.640496836184673120e-03
1.640496836184673120e-03
1.757675181626435455e-03
1.757675181626435455e-03
1.874853527068197790e-03
1.874853527068197790e-03
1.874853527068197790e-03
1.874853527068197790e-03
1.992031872509960125e-03
1.992031872509960125e-03
2.109210217951722460e-03
2.109210217951722460e-03
2.226388563393484794e-03
2.226388563393484794e-03
2.343566908835247129e-03
2.343566908835247129e-03
2.460745254277009464e-03
2.460745254277009464e-03
2.577923599718771799e-03
2.577923599718771799e-03
2.695101945160534133e-03
2.695101945160534133e-03
2.812280290602296902e-03
2.812280290602296902e-03
2.929458636044059237e-03
2.929458636044059237e-03
3.046636981485821571e-03
3.046636981485821571e-03
3.046636981485821571e-03
3.046636981485821571e-03
3.163815326927583906e-03
3.163815326927583906e-03
3.280993672369346241e-03
3.280993672369346241e-03
3.398172017811108576e-03
3.398172017811108576e-03
3.515350363252870911e-03
3.515350363252870911e-03
3.632528708694633245e-03
3.632528708694633245e-03
3.749707054136395580e-03
3.749707054136395580e-03
3.866885399578157915e-03
3.866885399578157915e-03
3.984063745019920250e-03
3.984063745019920250e-03
4.101242090461683018e-03
4.101242090461683018e-03
4.218420435903444919e-03
4.218420435903444919e-03
4.335598781345207688e-03
4.335598781345207688e-03
4.452777126786969589e-03
4.452777126786969589e-03
4.452777126786969589e-03
4.452777126786969589e-03
4.569955472228732357e-03
4.569955472228732357e-03
4.687133817670494258e-03
4.687133817670494258e-03
4.804312163112257027e-03
4.804312163112257027e-03
4.921490508554018928e-03
4.921490508554018928e-03
5.038668853995781696e-03
5.038668853995781696e-03
5.155847199437543597e-03
5.155847199437543597e-03
5.273025544879306366e-03
5.273025544879306366e-03
5.390203890321068267e-03
5.390203890321068267e-03
5.507382235762831035e-03
5.507382235762831035e-03
5.624560581204593804e-03
5.624560581204593804e-03
5.741738926646355705e-03
5.741738926646355705e-03
5.858917272088118473e-03
5.858917272088118473e-03
5.976095617529880374e-03
5.976095617529880374e-03
6.093273962971643143e-03
6.093273962971643143e-03
6.210452308413405044e-03
6.210452308413405044e-03
6.327630653855167812e-03
6.327630653855167812e-03
6.444808999296929714e-03
6.444808999296929714e-03
6.561987344738692482e-03
6.561987344738692482e-03
6.679165690180454383e-03
6.679165690180454383e-03
6.796344035622217152e-03
6.796344035622217152e-03
6.913522381063979053e-03
6.913522381063979053e-03
7.030700726505741821e-03
7.030700726505741821e-03
7.147879071947503722e-03
7.147879071947503722e-03
7.265057417389266491e-03
7.265057417389266491e-03
7.382235762831029259e-03
7.382235762831029259e-03
7.499414108272791160e-03
7.499414108272791160e-03
7.616592453714553929e-03
7.616592453714553929e-03
7.850949144598077731e-03
7.850949144598077731e-03
7.968127490039840499e-03
7.968127490039840499e-03
8.085305835481603268e-03
8.085305835481603268e-03
8.202484180923366036e-03
8.202484180923366036e-03
8.319662526365127070e-03
8.319662526365127070e-03
8.436840871806889838e-03
8.436840871806889838e-03
8.554019217248652607e-03
8.554019217248652607e-03
8.671197562690415375e-03
8.671197562690415375e-03
8.788375908132176409e-03
8.788375908132176409e-03
9.022732599015701946e-03
9.022732599015701946e-03
9.139910944457464714e-03
9.139910944457464714e-03
9.257089289899227483e-03
9.257089289899227483e-03
9.491445980782751285e-03
9.491445980782751285e-03
9.608624326224514053e-03
9.608624326224514053e-03
9.725802671666276822e-03
9.725802671666276822e-03
9.842981017108037856e-03
9.842981017108037856e-03
9.960159362549800624e-03
9.960159362549800624e-03
1.007733770799156339e-02
1.007733770799156339e-02
1.019451605343332616e-02
1.019451605343332616e-02
1.031169439887508719e-02
1.031169439887508719e-02
1.042887274431684996e-02
1.042887274431684996e-02
1.054605108975861273e-02
1.054605108975861273e-02
1.078040778064213653e-02
1.078040778064213653e-02
1.101476447152566207e-02
1.101476447152566207e-02
1.113194281696742484e-02
1.113194281696742484e-02
1.124912116240918761e-02
1.124912116240918761e-02
1.136629950785094864e-02
1.136629950785094864e-02
1.136629950785094864e-02
1.136629950785094864e-02
1.148347785329271141e-02
1.148347785329271141e-02
1.160065619873447418e-02
1.160065619873447418e-02
1.171783454417623695e-02
1.171783454417623695e-02
1.183501288961799798e-02
1.183501288961799798e-02
1.195219123505976075e-02
1.195219123505976075e-02
1.206936958050152352e-02
1.206936958050152352e-02
1.218654792594328629e-02
1.218654792594328629e-02
1.230372627138504732e-02
1.230372627138504732e-02
1.242090461682681009e-02
1.242090461682681009e-02
1.253808296226857286e-02
1.253808296226857286e-02
1.265526130771033562e-02
1.265526130771033562e-02
1.277243965315209666e-02
1.277243965315209666e-02
1.288961799859385943e-02
1.288961799859385943e-02
1.300679634403562220e-02
1.300679634403562220e-02
1.312397468947738496e-02
1.312397468947738496e-02
1.324115303491914773e-02
1.324115303491914773e-02
1.335833138036090877e-02
1.335833138036090877e-02
1.347550972580267153e-02
1.347550972580267153e-02
1.359268807124443430e-02
1.359268807124443430e-02
1.370986641668619707e-02
1.370986641668619707e-02
1.382704476212795811e-02
1.382704476212795811e-02
1.394422310756972087e-02
1.394422310756972087e-02
1.406140145301148364e-02
1.406140145301148364e-02
1.417857979845324641e-02
1.417857979845324641e-02
1.429575814389500744e-02
1.429575814389500744e-02
1.441293648933677021e-02
1.441293648933677021e-02
1.453011483477853298e-02
1.453011483477853298e-02
1.464729318022029575e-02
1.464729318022029575e-02
1.476447152566205852e-02
1.476447152566205852e-02
1.488164987110381955e-02
1.488164987110381955e-02
1.499882821654558232e-02
1.499882821654558232e-02
1.511600656198734509e-02
1.511600656198734509e-02
1.523318490742910786e-02
1.523318490742910786e-02
1.535036325287086889e-02
1.535036325287086889e-02
1.546754159831263166e-02
1.546754159831263166e-02
1.558471994375439443e-02
1.558471994375439443e-02
1.570189828919615546e-02
1.570189828919615546e-02
1.581907663463791996e-02
1.581907663463791996e-02
1.593625498007968100e-02
1.593625498007968100e-02
1.605343332552144203e-02
1.605343332552144203e-02
1.617061167096320654e-02
1.617061167096320654e-02
1.628779001640496757e-02
1.628779001640496757e-02
1.640496836184673207e-02
1.640496836184673207e-02
1.652214670728849311e-02
1.652214670728849311e-02
1.663932505273025414e-02
1.663932505273025414e-02
1.675650339817201864e-02
1.675650339817201864e-02
1.687368174361377968e-02
1.687368174361377968e-02
1.699086008905554418e-02
1.699086008905554418e-02
1.710803843449730521e-02
1.710803843449730521e-02
1.722521677993906625e-02
1.722521677993906625e-02
1.734239512538083075e-02
1.734239512538083075e-02
1.745957347082259178e-02
1.745957347082259178e-02
1.769393016170611732e-02
1.769393016170611732e-02
1.792828685258964286e-02
1.792828685258964286e-02
1.804546519803140389e-02
1.804546519803140389e-02
1.816264354347316493e-02
1.816264354347316493e-02
1.827982188891492943e-02
1.827982188891492943e-02
1.839700023435669046e-02
1.839700023435669046e-02
1.851417857979845497e-02
1.851417857979845497e-02
1.863135692524021600e-02
1.863135692524021600e-02
1.874853527068197703e-02
1.874853527068197703e-02
1.886571361612374154e-02
1.886571361612374154e-02
1.898289196156550257e-02
1.898289196156550257e-02
1.910007030700726360e-02
1.910007030700726360e-02
1.921724865244902811e-02
1.921724865244902811e-02
1.933442699789078914e-02
1.933442699789078914e-02
1.945160534333255364e-02
1.945160534333255364e-02
1.956878368877431468e-02
1.956878368877431468e-02
1.968596203421607571e-02
1.968596203421607571e-02
1.980314037965784021e-02
1.980314037965784021e-02
1.992031872509960125e-02
1.992031872509960125e-02
2.003749707054136228e-02
2.003749707054136228e-02
2.015467541598312678e-02
2.015467541598312678e-02
2.027185376142488782e-02
2.027185376142488782e-02
2.050621045230841336e-02
2.050621045230841336e-02
2.062338879775017439e-02
2.062338879775017439e-02
2.074056714319193889e-02
2.074056714319193889e-02
2.085774548863369993e-02
2.085774548863369993e-02
2.097492383407546443e-02
2.097492383407546443e-02
2.109210217951722546e-02
2.109210217951722546e-02
2.120928052495898650e-02
2.120928052495898650e-02
2.132645887040075100e-02
2.132645887040075100e-02
2.144363721584251203e-02
2.144363721584251203e-02
2.156081556128427307e-02
2.156081556128427307e-02
2.167799390672603757e-02
2.167799390672603757e-02
2.179517225216779860e-02
2.179517225216779860e-02
2.191235059760956311e-02
2.191235059760956311e-02
2.202952894305132414e-02
2.202952894305132414e-02
2.214670728849308518e-02
2.214670728849308518e-02
2.226388563393484968e-02
2.226388563393484968e-02
2.238106397937661071e-02
2.238106397937661071e-02
2.249824232481837522e-02
2.249824232481837522e-02
2.261542067026013625e-02
2.261542067026013625e-02
2.273259901570189728e-02
2.273259901570189728e-02
2.284977736114366179e-02
2.284977736114366179e-02
2.296695570658542282e-02
2.296695570658542282e-02
2.308413405202718385e-02
2.308413405202718385e-02
2.320131239746894836e-02
2.320131239746894836e-02
2.331849074291070939e-02
2.331849074291070939e-02
2.343566908835247389e-02
2.343566908835247389e-02
2.355284743379423493e-02
2.355284743379423493e-02
2.367002577923599596e-02
2.367002577923599596e-02
2.378720412467776046e-02
2.378720412467776046e-02
2.390438247011952150e-02
2.390438247011952150e-02
2.402156081556128600e-02
2.402156081556128600e-02
2.413873916100304703e-02
2.413873916100304703e-02
2.425591750644480807e-02
2.425591750644480807e-02
2.437309585188657257e-02
2.437309585188657257e-02
2.449027419732833361e-02
2.449027419732833361e-02
2.460745254277009464e-02
2.460745254277009464e-02
2.484180923365362018e-02
2.484180923365362018e-02
2.495898757909538468e-02
2.495898757909538468e-02
2.507616592453714571e-02
2.507616592453714571e-02
2.519334426997890675e-02
2.519334426997890675e-02
2.531052261542067125e-02
2.531052261542067125e-02
2.542770096086243228e-02
2.542770096086243228e-02
2.554487930630419332e-02
2.554487930630419332e-02
2.566205765174595782e-02
2.566205765174595782e-02
2.577923599718771885e-02
2.577923599718771885e-02
2.601359268807124439e-02
2.601359268807124439e-02
2.613077103351300542e-02
2.613077103351300542e-02
2.624794937895476993e-02
2.624794937895476993e-02
2.636512772439653096e-02
2.636512772439653096e-02
2.648230606983829546e-02
2.648230606983829546e-02
2.659948441528005650e-02
2.659948441528005650e-02
2.671666276072181753e-02
2.671666276072181753e-02
2.695101945160534307e-02
2.695101945160534307e-02
2.706819779704710410e-02
2.706819779704710410e-02
2.718537614248886861e-02
2.718537614248886861e-02
2.730255448793062964e-02
2.730255448793062964e-02
2.741973283337239414e-02
2.741973283337239414e-02
2.753691117881415518e-02
2.753691117881415518e-02
2.777126786969768071e-02
2.777126786969768071e-02
2.788844621513944175e-02
2.788844621513944175e-02
2.800562456058120625e-02
2.800562456058120625e-02
2.812280290602296728e-02
2.812280290602296728e-02
2.823998125146472832e-02
2.823998125146472832e-02
2.835715959690649282e-02
2.835715959690649282e-02
2.847433794234825385e-02
2.847433794234825385e-02
2.882587297867354043e-02
2.882587297867354043e-02
2.894305132411530493e-02
2.894305132411530493e-02
2.906022966955706596e-02
2.906022966955706596e-02
2.917740801499882700e-02
2.917740801499882700e-02
2.929458636044059150e-02
2.929458636044059150e-02
2.941176470588235253e-02
2.941176470588235253e-02
2.964612139676587807e-02
2.964612139676587807e-02
2.976329974220763910e-02
2.976329974220763910e-02
2.988047808764940361e-02
2.988047808764940361e-02
2.999765643309116464e-02
2.999765643309116464e-02
3.011483477853292567e-02
3.011483477853292567e-02
3.023201312397469018e-02
3.023201312397469018e-02
3.034919146941645121e-02
3.034919146941645121e-02
3.046636981485821571e-02
3.046636981485821571e-02
3.058354816029997675e-02
3.058354816029997675e-02
3.081790485118350228e-02
3.081790485118350228e-02
3.093508319662526332e-02
3.093508319662526332e-02
3.105226154206702435e-02
3.105226154206702435e-02
3.116943988750878886e-02
3.116943988750878886e-02
3.128661823295054989e-02
3.128661823295054989e-02
3.140379657839231092e-02
3.140379657839231092e-02
3.152097492383407890e-02
3.152097492383407890e-02
3.175533161471760096e-02
3.175533161471760096e-02
3.187250996015936200e-02
3.187250996015936200e-02
3.198968830560112303e-02
3.198968830560112303e-02
3.210686665104288406e-02
3.210686665104288406e-02
3.222404499648465204e-02
3.222404499648465204e-02
3.245840168736817410e-02
3.245840168736817410e-02
3.257558003280993514e-02
3.257558003280993514e-02
3.269275837825169617e-02
3.269275837825169617e-02
3.280993672369346414e-02
3.280993672369346414e-02
3.292711506913522518e-02
3.292711506913522518e-02
3.304429341457698621e-02
3.304429341457698621e-02
3.316147176001874725e-02
3.316147176001874725e-02
3.327865010546050828e-02
3.327865010546050828e-02
3.351300679634403729e-02
3.351300679634403729e-02
3.363018514178579832e-02
3.363018514178579832e-02
3.374736348722755935e-02
3.374736348722755935e-02
3.398172017811108836e-02
3.398172017811108836e-02
3.433325521443637146e-02
3.433325521443637146e-02
3.445043355987813249e-02
3.445043355987813249e-02
3.456761190531989353e-02
3.456761190531989353e-02
3.491914694164518357e-02
3.491914694164518357e-02
3.503632528708694460e-02
3.503632528708694460e-02
3.515350363252870564e-02
3.515350363252870564e-02
3.527068197797047361e-02
3.527068197797047361e-02
3.538786032341223464e-02
3.538786032341223464e-02
3.550503866885399568e-02
3.550503866885399568e-02
3.573939535973751774e-02
3.573939535973751774e-02
3.597375205062104675e-02
3.597375205062104675e-02
3.609093039606280778e-02
3.609093039606280778e-02
3.620810874150456882e-02
3.620810874150456882e-02
3.655964377782985886e-02
3.655964377782985886e-02
3.667682212327161989e-02
3.667682212327161989e-02
3.679400046871338092e-02
3.679400046871338092e-02
3.691117881415514196e-02
3.691117881415514196e-02
3.702835715959690993e-02
3.702835715959690993e-02
3.714553550503867096e-02
3.714553550503867096e-02
3.726271385048043200e-02
3.726271385048043200e-02
3.749707054136395407e-02
3.749707054136395407e-02
3.761424888680571510e-02
3.761424888680571510e-02
3.796578392313100514e-02
3.796578392313100514e-02
3.808296226857276617e-02
3.808296226857276617e-02
3.820014061401452721e-02
3.820014061401452721e-02
3.866885399578157828e-02
3.866885399578157828e-02
3.878603234122333931e-02
3.878603234122333931e-02
3.890321068666510729e-02
3.890321068666510729e-02
3.925474572299039039e-02
3.925474572299039039e-02
3.937192406843215142e-02
3.937192406843215142e-02
3.960628075931568043e-02
3.960628075931568043e-02
3.972345910475744146e-02
3.972345910475744146e-02
3.984063745019920250e-02
3.984063745019920250e-02
4.019217248652449254e-02
4.019217248652449254e-02
4.030935083196625357e-02
4.030935083196625357e-02
4.042652917740801460e-02
4.042652917740801460e-02
4.077806421373330464e-02
4.077806421373330464e-02
4.089524255917506568e-02
4.089524255917506568e-02
4.112959925005858774e-02
4.112959925005858774e-02
4.136395594094211675e-02
4.136395594094211675e-02
4.148113428638387779e-02
4.148113428638387779e-02
4.194984766815092886e-02
4.194984766815092886e-02
4.206702601359268989e-02
4.206702601359268989e-02
4.218420435903445093e-02
4.218420435903445093e-02
4.230138270447621196e-02
4.230138270447621196e-02
4.241856104991797299e-02
4.241856104991797299e-02
4.265291774080150200e-02
4.265291774080150200e-02
4.277009608624326303e-02
4.277009608624326303e-02
4.288727443168502407e-02
4.288727443168502407e-02
4.300445277712678510e-02
4.300445277712678510e-02
4.312163112256854614e-02
4.312163112256854614e-02
4.323880946801031411e-02
4.323880946801031411e-02
4.335598781345207514e-02
4.335598781345207514e-02
4.347316615889383618e-02
4.347316615889383618e-02
4.359034450433559721e-02
4.359034450433559721e-02
4.370752284977735824e-02
4.370752284977735824e-02
4.382470119521912622e-02
4.382470119521912622e-02
4.394187954066088725e-02
4.394187954066088725e-02
4.417623623154440932e-02
4.417623623154440932e-02
4.441059292242793832e-02
4.441059292242793832e-02
4.452777126786969936e-02
4.452777126786969936e-02
4.464494961331146039e-02
4.464494961331146039e-02
4.487930630419498246e-02
4.487930630419498246e-02
4.499648464963675043e-02
4.499648464963675043e-02
4.523084134052027250e-02
4.523084134052027250e-02
4.534801968596203353e-02
4.534801968596203353e-02
4.546519803140379457e-02
4.546519803140379457e-02
4.558237637684555560e-02
4.558237637684555560e-02
4.569955472228732357e-02
4.569955472228732357e-02
4.581673306772908461e-02
4.581673306772908461e-02
4.605108975861260667e-02
4.605108975861260667e-02
4.628544644949613568e-02
4.628544644949613568e-02
4.640262479493789671e-02
4.640262479493789671e-02
4.651980314037965775e-02
4.651980314037965775e-02
4.675415983126317981e-02
4.675415983126317981e-02
4.687133817670494779e-02
4.687133817670494779e-02
4.698851652214670882e-02
4.698851652214670882e-02
4.734005155847199192e-02
4.734005155847199192e-02
4.757440824935552093e-02
4.757440824935552093e-02
4.804312163112257200e-02
4.804312163112257200e-02
4.816029997656433304e-02
4.816029997656433304e-02
4.851183501288961614e-02
4.851183501288961614e-02
4.862901335833137717e-02
4.862901335833137717e-02
4.874619170377314514e-02
4.874619170377314514e-02
4.886337004921490618e-02
4.886337004921490618e-02
4.898054839465666721e-02
4.898054839465666721e-02
4.909772674009842824e-02
4.909772674009842824e-02
4.921490508554018928e-02
4.921490508554018928e-02
4.933208343098195725e-02
4.933208343098195725e-02
4.968361846730724035e-02
4.968361846730724035e-02
4.980079681274900139e-02
4.980079681274900139e-02
5.015233184907429143e-02
5.015233184907429143e-02
5.026951019451605246e-02
5.026951019451605246e-02
5.038668853995781349e-02
5.038668853995781349e-02
5.050386688539958147e-02
5.050386688539958147e-02
5.073822357628310353e-02
5.073822357628310353e-02
5.085540192172486457e-02
5.085540192172486457e-02
5.097258026716662560e-02
5.097258026716662560e-02
5.144129364893367667e-02
5.144129364893367667e-02
5.167565033981719874e-02
5.167565033981719874e-02
5.202718537614248878e-02
5.202718537614248878e-02
5.214436372158424982e-02
5.214436372158424982e-02
5.226154206702601085e-02
5.226154206702601085e-02
5.237872041246777882e-02
5.237872041246777882e-02
5.261307710335130089e-02
5.261307710335130089e-02
5.273025544879306192e-02
5.273025544879306192e-02
5.319896883056011300e-02
5.319896883056011300e-02
5.343332552144363506e-02
5.343332552144363506e-02
5.355050386688540304e-02
5.355050386688540304e-02
5.366768221232716407e-02
5.366768221232716407e-02
5.378486055776892510e-02
5.378486055776892510e-02
5.437075228497773721e-02
5.437075228497773721e-02
5.448793063041949825e-02
5.448793063041949825e-02
5.460510897586125928e-02
5.460510897586125928e-02
5.472228732130302031e-02
5.472228732130302031e-02
5.495664401218654932e-02
5.495664401218654932e-02
5.530817904851183242e-02
5.530817904851183242e-02
5.542535739395360039e-02
5.542535739395360039e-02
5.565971408483712246e-02
5.565971408483712246e-02
5.589407077572064453e-02
5.589407077572064453e-02
5.612842746660417353e-02
5.612842746660417353e-02
5.624560581204593457e-02
5.624560581204593457e-02
5.636278415748769560e-02
5.636278415748769560e-02
5.647996250292945664e-02
5.647996250292945664e-02
5.659714084837121767e-02
5.659714084837121767e-02
5.671431919381298564e-02
5.671431919381298564e-02
5.683149753925474668e-02
5.683149753925474668e-02
5.741738926646355878e-02
5.741738926646355878e-02
5.765174595734708085e-02
5.765174595734708085e-02
5.776892430278884188e-02
5.776892430278884188e-02
5.788610264823060986e-02
5.788610264823060986e-02
5.812045933911413192e-02
5.812045933911413192e-02
5.823763768455589296e-02
5.823763768455589296e-02
5.835481602999765399e-02
5.835481602999765399e-02
5.847199437543942196e-02
5.847199437543942196e-02
5.870635106632294403e-02
5.870635106632294403e-02
5.882352941176470507e-02
5.882352941176470507e-02
5.894070775720646610e-02
5.894070775720646610e-02
5.905788610264823407e-02
5.905788610264823407e-02
5.929224279353175614e-02
5.929224279353175614e-02
5.940942113897351717e-02
5.940942113897351717e-02
5.952659948441527821e-02
5.952659948441527821e-02
5.964377782985703924e-02
5.964377782985703924e-02
5.987813452074056825e-02
5.987813452074056825e-02
5.999531286618232928e-02
5.999531286618232928e-02
6.011249121162409031e-02
6.011249121162409031e-02
6.022966955706585135e-02
6.022966955706585135e-02
6.034684790250761932e-02
6.034684790250761932e-02
6.046402624794938035e-02
6.046402624794938035e-02
6.058120459339114139e-02
6.058120459339114139e-02
6.093273962971643143e-02
6.093273962971643143e-02
6.104991797515819246e-02
6.104991797515819246e-02
6.116709632059995350e-02
6.116709632059995350e-02
6.163580970236700457e-02
6.163580970236700457e-02
6.187016639325052664e-02
6.187016639325052664e-02
6.198734473869228767e-02
6.198734473869228767e-02
6.210452308413404870e-02
6.210452308413404870e-02
6.222170142957581668e-02
6.222170142957581668e-02
6.233887977501757771e-02
6.233887977501757771e-02
6.245605812045933874e-02
6.245605812045933874e-02
6.257323646590109978e-02
6.257323646590109978e-02
6.292477150222638982e-02
6.292477150222638982e-02
6.327630653855167986e-02
6.327630653855167986e-02
6.351066322943520193e-02
6.351066322943520193e-02
6.362784157487695602e-02
6.362784157487695602e-02
6.374501992031872399e-02
6.374501992031872399e-02
6.386219826576049197e-02
6.386219826576049197e-02
6.397937661120224606e-02
6.397937661120224606e-02
6.409655495664401403e-02
6.409655495664401403e-02
6.433091164752753610e-02
6.433091164752753610e-02
6.456526833841105817e-02
6.456526833841105817e-02
6.468244668385282614e-02
6.468244668385282614e-02
6.479962502929458024e-02
6.479962502929458024e-02
6.503398172017811618e-02
6.503398172017811618e-02
6.526833841106163825e-02
6.526833841106163825e-02
6.538551675650339234e-02
6.538551675650339234e-02
6.550269510194516032e-02
6.550269510194516032e-02
6.561987344738692829e-02
6.561987344738692829e-02
6.597140848371220445e-02
6.597140848371220445e-02
6.608858682915397242e-02
6.608858682915397242e-02
6.620576517459574040e-02
6.620576517459574040e-02
6.632294352003749449e-02
6.632294352003749449e-02
6.644012186547926246e-02
6.644012186547926246e-02
6.667447855636278453e-02
6.667447855636278453e-02
6.679165690180455250e-02
6.679165690180455250e-02
6.690883524724630660e-02
6.690883524724630660e-02
6.714319193812982867e-02
6.714319193812982867e-02
6.726037028357159664e-02
6.726037028357159664e-02
6.784626201078040875e-02
6.784626201078040875e-02
6.796344035622217672e-02
6.796344035622217672e-02
6.808061870166393081e-02
6.808061870166393081e-02
6.819779704710569879e-02
6.819779704710569879e-02
6.831497539254745288e-02
6.831497539254745288e-02
6.843215373798922085e-02
6.843215373798922085e-02
6.854933208343098883e-02
6.854933208343098883e-02
6.948675884696507710e-02
6.948675884696507710e-02
6.972111553784859916e-02
6.972111553784859916e-02
6.995547222873213511e-02
6.995547222873213511e-02
7.007265057417388920e-02
7.007265057417388920e-02
7.030700726505741127e-02
7.030700726505741127e-02
7.042418561049917924e-02
7.042418561049917924e-02
7.054136395594094722e-02
7.054136395594094722e-02
7.065854230138270131e-02
7.065854230138270131e-02
7.089289899226622338e-02
7.089289899226622338e-02
7.112725568314975932e-02
7.112725568314975932e-02
7.136161237403328139e-02
7.136161237403328139e-02
7.147879071947503549e-02
7.147879071947503549e-02
7.159596906491680346e-02
7.159596906491680346e-02
7.171314741035857143e-02
7.171314741035857143e-02
7.229903913756738354e-02
7.229903913756738354e-02
7.253339582845090561e-02
7.253339582845090561e-02
7.265057417389265970e-02
7.265057417389265970e-02
7.276775251933442767e-02
7.276775251933442767e-02
7.288493086477619565e-02
7.288493086477619565e-02
7.300210921021794974e-02
7.300210921021794974e-02
7.323646590110147181e-02
7.323646590110147181e-02
7.358800093742676185e-02
7.358800093742676185e-02
7.370517928286852982e-02
7.370517928286852982e-02
7.417389266463557396e-02
7.417389266463557396e-02
7.452542770096086400e-02
7.452542770096086400e-02
7.464260604640261809e-02
7.464260604640261809e-02
7.499414108272790813e-02
7.499414108272790813e-02
7.522849777361143020e-02
7.522849777361143020e-02
7.534567611905319817e-02
7.534567611905319817e-02
7.593156784626201028e-02
7.593156784626201028e-02
7.604874619170377825e-02
7.604874619170377825e-02
7.616592453714553235e-02
7.616592453714553235e-02
7.640028122802905441e-02
7.640028122802905441e-02
7.675181626435434445e-02
7.675181626435434445e-02
7.686899460979611243e-02
7.686899460979611243e-02
7.710335130067963449e-02
7.710335130067963449e-02
7.733770799156315656e-02
7.733770799156315656e-02
7.745488633700492453e-02
7.745488633700492453e-02
7.757206468244667863e-02
7.757206468244667863e-02
7.792359971877196867e-02
7.792359971877196867e-02
7.827513475509725871e-02
7.827513475509725871e-02
7.850949144598078078e-02
7.850949144598078078e-02
7.862666979142254875e-02
7.862666979142254875e-02
7.874384813686430284e-02
7.874384813686430284e-02
7.886102648230607082e-02
7.886102648230607082e-02
7.897820482774783879e-02
7.897820482774783879e-02
7.909538317318959288e-02
7.909538317318959288e-02
7.921256151863136086e-02
7.921256151863136086e-02
7.968127490039840499e-02
7.968127490039840499e-02
7.991563159128192706e-02
7.991563159128192706e-02
8.026716662760721710e-02
8.026716662760721710e-02
8.050152331849073917e-02
8.050152331849073917e-02
8.061870166393250714e-02
8.061870166393250714e-02
8.085305835481602921e-02
8.085305835481602921e-02
8.155612842746660929e-02
8.155612842746660929e-02
8.167330677290836338e-02
8.167330677290836338e-02
8.202484180923365342e-02
8.202484180923365342e-02
8.296226857276775557e-02
8.296226857276775557e-02
8.307944691820950966e-02
8.307944691820950966e-02
8.343098195453479970e-02
8.343098195453479970e-02
8.354816029997656768e-02
8.354816029997656768e-02
8.389969533630185772e-02
8.389969533630185772e-02
8.413405202718537979e-02
8.413405202718537979e-02
8.425123037262713388e-02
8.425123037262713388e-02
8.460276540895242392e-02
8.460276540895242392e-02
8.483712209983594599e-02
8.483712209983594599e-02
8.507147879071948193e-02
8.507147879071948193e-02
8.542301382704475810e-02
8.542301382704475810e-02
8.589172720881181611e-02
8.589172720881181611e-02
8.612608389969533818e-02
8.612608389969533818e-02
8.624326224513709227e-02
8.624326224513709227e-02
8.647761893602062822e-02
8.647761893602062822e-02
8.682915397234590438e-02
8.682915397234590438e-02
8.718068900867119442e-02
8.718068900867119442e-02
8.729786735411296239e-02
8.729786735411296239e-02
8.741504569955471649e-02
8.741504569955471649e-02
8.753222404499648446e-02
8.753222404499648446e-02
8.788375908132177450e-02
8.788375908132177450e-02
8.800093742676352859e-02
8.800093742676352859e-02
8.811811577220529657e-02
8.811811577220529657e-02
8.823529411764706454e-02
8.823529411764706454e-02
8.846965080853058661e-02
8.846965080853058661e-02
8.870400749941410867e-02
8.870400749941410867e-02
8.893836419029763074e-02
8.893836419029763074e-02
8.917272088118115281e-02
8.917272088118115281e-02
8.952425591750644285e-02
8.952425591750644285e-02
8.999296929927350086e-02
8.999296929927350086e-02
9.046168268104054500e-02
9.046168268104054500e-02
9.081321771736583504e-02
9.081321771736583504e-02
9.093039606280758913e-02
9.093039606280758913e-02
9.128193109913287917e-02
9.128193109913287917e-02
9.139910944457464714e-02
9.139910944457464714e-02
9.151628779001640124e-02
9.151628779001640124e-02
9.175064448089992331e-02
9.175064448089992331e-02
9.186782282634169128e-02
9.186782282634169128e-02
9.198500117178345925e-02
9.198500117178345925e-02
9.221935786266698132e-02
9.221935786266698132e-02
9.233653620810873541e-02
9.233653620810873541e-02
9.245371455355050339e-02
9.245371455355050339e-02
9.280524958987579343e-02
9.280524958987579343e-02
9.303960628075931549e-02
9.303960628075931549e-02
9.315678462620108347e-02
9.315678462620108347e-02
9.327396297164283756e-02
9.327396297164283756e-02
9.339114131708460553e-02
9.339114131708460553e-02
9.362549800796812760e-02
9.362549800796812760e-02
9.397703304429341764e-02
9.397703304429341764e-02
9.409421138973517174e-02
9.409421138973517174e-02
9.421138973517693971e-02
9.421138973517693971e-02
9.491445980782751979e-02
9.491445980782751979e-02
9.514881649871104186e-02
9.514881649871104186e-02
9.526599484415279595e-02
9.526599484415279595e-02
9.550035153503633190e-02
9.550035153503633190e-02
9.608624326224514400e-02
9.608624326224514400e-02
9.620342160768689810e-02
9.620342160768689810e-02
9.643777829857042017e-02
9.643777829857042017e-02
9.714084837122100025e-02
9.714084837122100025e-02
9.784391844387156645e-02
9.784391844387156645e-02
9.796109678931333442e-02
9.796109678931333442e-02
9.842981017108037856e-02
9.842981017108037856e-02
9.866416686196391450e-02
9.866416686196391450e-02
9.948441528005624868e-02
9.948441528005624868e-02
9.971877197093977074e-02
9.971877197093977074e-02
9.983595031638153872e-02
9.983595031638153872e-02
1.007733770799156270e-01
1.007733770799156270e-01
1.010077337707991629e-01
1.010077337707991629e-01
1.011249121162409170e-01
1.011249121162409170e-01
1.014764471525662071e-01
1.014764471525662071e-01
1.015936254980079750e-01
1.015936254980079750e-01
1.019451605343332512e-01
1.019451605343332512e-01
1.020623388797750192e-01
1.020623388797750192e-01
1.022966955706585412e-01
1.022966955706585412e-01
1.027654089524255854e-01
1.027654089524255854e-01
1.028825872978673533e-01
1.028825872978673533e-01
1.032341223341926434e-01
1.032341223341926434e-01
1.035856573705179334e-01
1.035856573705179334e-01
1.039371924068432096e-01
1.039371924068432096e-01
1.040543707522849776e-01
1.040543707522849776e-01
1.041715490977267455e-01
1.041715490977267455e-01
1.044059057886102676e-01
1.044059057886102676e-01
1.045230841340520217e-01
1.045230841340520217e-01
1.046402624794937897e-01
1.046402624794937897e-01
1.048746191703773117e-01
1.048746191703773117e-01
1.049917975158190797e-01
1.049917975158190797e-01
1.051089758612608338e-01
1.051089758612608338e-01
1.052261542067026018e-01
1.052261542067026018e-01
1.053433325521443698e-01
1.053433325521443698e-01
1.054605108975861238e-01
1.054605108975861238e-01
1.061635809702367039e-01
1.061635809702367039e-01
1.062807593156784580e-01
1.062807593156784580e-01
1.063979376611202260e-01
1.063979376611202260e-01
1.071010077337708061e-01
1.071010077337708061e-01
1.073353644246543281e-01
1.073353644246543281e-01
1.074525427700960822e-01
1.074525427700960822e-01
1.076868994609796043e-01
1.076868994609796043e-01
1.078040778064213723e-01
1.078040778064213723e-01
1.082727911881884164e-01
1.082727911881884164e-01
1.083899695336301844e-01
1.083899695336301844e-01
1.088586829153972285e-01
1.088586829153972285e-01
1.089758612608389965e-01
1.089758612608389965e-01
1.093273962971642865e-01
1.093273962971642865e-01
1.094445746426060406e-01
1.094445746426060406e-01
1.095617529880478086e-01
1.095617529880478086e-01
1.096789313334895766e-01
1.096789313334895766e-01
1.103820014061401428e-01
1.103820014061401428e-01
1.104991797515819107e-01
1.104991797515819107e-01
1.106163580970236648e-01
1.106163580970236648e-01
1.107335364424654328e-01
1.107335364424654328e-01
1.109678931333489549e-01
1.109678931333489549e-01
1.112022498242324769e-01
1.112022498242324769e-01
1.114366065151160129e-01
1.114366065151160129e-01
1.115537848605577670e-01
1.115537848605577670e-01
1.116709632059995350e-01
1.116709632059995350e-01
1.119053198968830570e-01
1.119053198968830570e-01
1.120224982423248250e-01
1.120224982423248250e-01
1.121396765877665791e-01
1.121396765877665791e-01
1.126083899695336371e-01
1.126083899695336371e-01
1.130771033513006812e-01
1.130771033513006812e-01
1.134286383876259713e-01
1.134286383876259713e-01
1.141317084602765375e-01
1.141317084602765375e-01
1.142488868057183055e-01
1.142488868057183055e-01
1.144832434966018275e-01
1.144832434966018275e-01
1.147176001874853496e-01
1.147176001874853496e-01
1.151863135692524076e-01
1.151863135692524076e-01
1.154206702601359297e-01
1.154206702601359297e-01
1.157722052964612197e-01
1.157722052964612197e-01
1.158893836419029738e-01
1.158893836419029738e-01
1.160065619873447418e-01
1.160065619873447418e-01
1.171783454417623660e-01
1.171783454417623660e-01
1.177642371689711781e-01
1.177642371689711781e-01
1.179985938598547002e-01
1.179985938598547002e-01
1.182329505507382222e-01
1.182329505507382222e-01
1.199906257323646586e-01
1.199906257323646586e-01
1.208108741504569927e-01
1.208108741504569927e-01
1.209280524958987607e-01
1.209280524958987607e-01
1.211624091867822828e-01
1.211624091867822828e-01
1.212795875322240507e-01
1.212795875322240507e-01
1.213967658776658048e-01
1.213967658776658048e-01
1.219826576048746170e-01
1.219826576048746170e-01
1.220998359503163849e-01
1.220998359503163849e-01
1.222170142957581390e-01
1.222170142957581390e-01
1.223341926411999070e-01
1.223341926411999070e-01
1.228029060229669511e-01
1.228029060229669511e-01
1.231544410592922412e-01
1.231544410592922412e-01
1.236231544410592992e-01
1.236231544410592992e-01
1.240918678228263433e-01
1.240918678228263433e-01
1.242090461682680974e-01
1.242090461682680974e-01
1.246777595500351554e-01
1.246777595500351554e-01
1.247949378954769095e-01
1.247949378954769095e-01
1.249121162409186775e-01
1.249121162409186775e-01
1.250292945863604455e-01
1.250292945863604455e-01
1.254980079681274896e-01
1.254980079681274896e-01
1.257323646590110255e-01
1.257323646590110255e-01
1.260838996953363156e-01
1.260838996953363156e-01
1.264354347316615779e-01
1.264354347316615779e-01
1.267869697679868679e-01
1.267869697679868679e-01
1.269041481134286498e-01
1.269041481134286498e-01
1.271385048043121579e-01
1.271385048043121579e-01
1.274900398406374480e-01
1.274900398406374480e-01
1.280759315678462740e-01
1.280759315678462740e-01
1.285446449496133181e-01
1.285446449496133181e-01
1.287790016404968263e-01
1.287790016404968263e-01
1.291305366768221163e-01
1.291305366768221163e-01
1.297164284040309423e-01
1.297164284040309423e-01
1.298336067494726964e-01
1.298336067494726964e-01
1.301851417857979865e-01
1.301851417857979865e-01
1.303023201312397406e-01
1.303023201312397406e-01
1.307710335130067847e-01
1.307710335130067847e-01
1.308882118584485665e-01
1.308882118584485665e-01
1.311225685493320747e-01
1.311225685493320747e-01
1.318256386219826548e-01
1.318256386219826548e-01
1.319428169674244089e-01
1.319428169674244089e-01
1.327630653855167431e-01
1.327630653855167431e-01
1.332317787672838150e-01
1.332317787672838150e-01
1.334661354581673232e-01
1.334661354581673232e-01
1.335833138036091050e-01
1.335833138036091050e-01
1.347550972580267292e-01
1.347550972580267292e-01
1.348722756034684833e-01
1.348722756034684833e-01
1.352238106397937734e-01
1.352238106397937734e-01
1.372158425123037317e-01
1.372158425123037317e-01
1.373330208577454858e-01
1.373330208577454858e-01
1.378017342395125300e-01
1.378017342395125300e-01
1.380360909303960659e-01
1.380360909303960659e-01
1.381532692758378200e-01
1.381532692758378200e-01
1.382704476212795741e-01
1.382704476212795741e-01
1.388563393484884001e-01
1.388563393484884001e-01
1.390906960393719360e-01
1.390906960393719360e-01
1.402624794937895603e-01
1.402624794937895603e-01
1.407311928755566044e-01
1.407311928755566044e-01
1.409655495664401126e-01
1.409655495664401126e-01
1.420201546754159827e-01
1.420201546754159827e-01
1.426060464026248087e-01
1.426060464026248087e-01
1.427232247480665628e-01
1.427232247480665628e-01
1.433091164752753610e-01
1.433091164752753610e-01
1.436606515116006511e-01
1.436606515116006511e-01
1.437778298570424051e-01
1.437778298570424051e-01
1.438950082024841870e-01
1.438950082024841870e-01
1.440121865479259411e-01
1.440121865479259411e-01
1.441293648933676952e-01
1.441293648933676952e-01
1.443637215842512311e-01
1.443637215842512311e-01
1.444808999296929852e-01
1.444808999296929852e-01
1.445980782751347671e-01
1.445980782751347671e-01
1.448324349660182753e-01
1.448324349660182753e-01
1.461213967658776536e-01
1.461213967658776536e-01
1.462385751113194354e-01
1.462385751113194354e-01
1.464729318022029436e-01
1.464729318022029436e-01
1.465901101476447255e-01
1.465901101476447255e-01
1.467072884930864796e-01
1.467072884930864796e-01
1.472931802202952778e-01
1.472931802202952778e-01
1.474103585657370596e-01
1.474103585657370596e-01
1.475275369111788137e-01
1.475275369111788137e-01
1.481134286383876397e-01
1.481134286383876397e-01
1.483477853292711479e-01
1.483477853292711479e-01
1.490508554019217280e-01
1.490508554019217280e-01
1.498711038200140622e-01
1.498711038200140622e-01
1.501054605108975981e-01
1.501054605108975981e-01
1.502226388563393522e-01
1.502226388563393522e-01
1.506913522381063963e-01
1.506913522381063963e-01
1.509257089289899323e-01
1.509257089289899323e-01
1.511600656198734405e-01
1.511600656198734405e-01
1.512772439653152223e-01
1.512772439653152223e-01
1.516287790016404846e-01
1.516287790016404846e-01
1.522146707288493106e-01
1.522146707288493106e-01
1.525662057651746006e-01
1.525662057651746006e-01
1.538551675650339789e-01
1.538551675650339789e-01
1.540895242559175149e-01
1.540895242559175149e-01
1.546754159831263131e-01
1.546754159831263131e-01
1.547925943285680672e-01
1.547925943285680672e-01
1.559643777829856914e-01
1.559643777829856914e-01
1.561987344738692274e-01
1.561987344738692274e-01
1.567846262010780534e-01
1.567846262010780534e-01
1.569018045465198075e-01
1.569018045465198075e-01
1.577220529646121416e-01
1.577220529646121416e-01
1.583079446918209399e-01
1.583079446918209399e-01
1.584251230372627217e-01
1.584251230372627217e-01
1.585423013827044758e-01
1.585423013827044758e-01
1.590110147644715199e-01
1.590110147644715199e-01
1.591281931099133018e-01
1.591281931099133018e-01
1.592453714553550559e-01
1.592453714553550559e-01
1.593625498007968100e-01
1.593625498007968100e-01
1.597140848371221000e-01
1.597140848371221000e-01
1.605343332552144342e-01
1.605343332552144342e-01
1.610030466369814783e-01
1.610030466369814783e-01
1.613545816733067684e-01
1.613545816733067684e-01
1.614717600187485225e-01
1.614717600187485225e-01
1.625263651277243926e-01
1.625263651277243926e-01
1.627607218186079285e-01
1.627607218186079285e-01
1.628779001640496826e-01
1.628779001640496826e-01
1.638153269275837709e-01
1.638153269275837709e-01
1.639325052730255527e-01
1.639325052730255527e-01
1.640496836184673068e-01
1.640496836184673068e-01
1.651042887274431770e-01
1.651042887274431770e-01
1.652214670728849311e-01
1.652214670728849311e-01
1.655730021092102211e-01
1.655730021092102211e-01
1.661588938364190193e-01
1.661588938364190193e-01
1.665104288727443094e-01
1.665104288727443094e-01
1.666276072181860912e-01
1.666276072181860912e-01
1.667447855636278453e-01
1.667447855636278453e-01
1.674478556362784254e-01
1.674478556362784254e-01
1.675650339817201795e-01
1.675650339817201795e-01
1.677993906726037154e-01
1.677993906726037154e-01
1.679165690180454695e-01
1.679165690180454695e-01
1.680337473634872236e-01
1.680337473634872236e-01
1.681509257089289777e-01
1.681509257089289777e-01
1.683852823998125137e-01
1.683852823998125137e-01
1.685024607452542678e-01
1.685024607452542678e-01
1.692055308179048478e-01
1.692055308179048478e-01
1.699086008905554279e-01
1.699086008905554279e-01
1.707288493086477621e-01
1.707288493086477621e-01
1.708460276540895162e-01
1.708460276540895162e-01
1.709632059995312980e-01
1.709632059995312980e-01
1.717834544176236322e-01
1.717834544176236322e-01
1.719006327630653863e-01
1.719006327630653863e-01
1.720178111085071404e-01
1.720178111085071404e-01
1.721349894539489223e-01
1.721349894539489223e-01
1.727208811811577205e-01
1.727208811811577205e-01
1.730724162174830105e-01
1.730724162174830105e-01
1.736583079446918088e-01
1.736583079446918088e-01
1.743613780173423888e-01
1.743613780173423888e-01
1.744785563627841707e-01
1.744785563627841707e-01
1.745957347082259248e-01
1.745957347082259248e-01
1.748300913991094330e-01
1.748300913991094330e-01
1.750644480899929689e-01
1.750644480899929689e-01
1.756503398172017949e-01
1.756503398172017949e-01
1.769393016170611732e-01
1.769393016170611732e-01
1.771736583079446814e-01
1.771736583079446814e-01
1.772908366533864633e-01
1.772908366533864633e-01
1.776423716897117533e-01
1.776423716897117533e-01
1.782282634169205515e-01
1.782282634169205515e-01
1.788141551441293775e-01
1.788141551441293775e-01
1.790485118350128857e-01
1.790485118350128857e-01
1.798687602531052199e-01
1.798687602531052199e-01
1.799859385985470017e-01
1.799859385985470017e-01
1.801031169439887558e-01
1.801031169439887558e-01
1.803374736348722640e-01
1.803374736348722640e-01
1.808061870166393359e-01
1.808061870166393359e-01
1.812749003984063800e-01
1.812749003984063800e-01
1.813920787438481341e-01
1.813920787438481341e-01
1.818607921256151783e-01
1.818607921256151783e-01
1.819779704710569601e-01
1.819779704710569601e-01
1.823295055073822224e-01
1.823295055073822224e-01
1.830325755800328025e-01
1.830325755800328025e-01
1.831497539254745843e-01
1.831497539254745843e-01
1.832669322709163384e-01
1.832669322709163384e-01
1.833841106163580925e-01
1.833841106163580925e-01
1.839700023435669185e-01
1.839700023435669185e-01
1.842043590344504267e-01
1.842043590344504267e-01
1.847902507616592527e-01
1.847902507616592527e-01
1.851417857979845427e-01
1.851417857979845427e-01
1.852589641434262968e-01
1.852589641434262968e-01
1.853761424888680509e-01
1.853761424888680509e-01
1.863135692524021669e-01
1.863135692524021669e-01
1.866651042887274570e-01
1.866651042887274570e-01
1.871338176704945011e-01
1.871338176704945011e-01
1.872509960159362552e-01
1.872509960159362552e-01
1.873681743613780093e-01
1.873681743613780093e-01
1.874853527068197911e-01
1.874853527068197911e-01
1.880712444340285894e-01
1.880712444340285894e-01
1.881884227794703435e-01
1.881884227794703435e-01
1.883056011249121253e-01
1.883056011249121253e-01
1.884227794703538794e-01
1.884227794703538794e-01
1.886571361612374154e-01
1.886571361612374154e-01
1.888914928521209236e-01
1.888914928521209236e-01
1.890086711975626776e-01
1.890086711975626776e-01
1.897117412702132577e-01
1.897117412702132577e-01
1.899460979610967937e-01
1.899460979610967937e-01
1.907663463791891278e-01
1.907663463791891278e-01
1.913522381063979261e-01
1.913522381063979261e-01
1.914694164518397079e-01
1.914694164518397079e-01
1.920553081790485062e-01
1.920553081790485062e-01
1.924068432153737962e-01
1.924068432153737962e-01
1.925240215608155503e-01
1.925240215608155503e-01
1.929927349425826222e-01
1.929927349425826222e-01
1.933442699789078845e-01
1.933442699789078845e-01
1.935786266697914204e-01
1.935786266697914204e-01
1.939301617061167105e-01
1.939301617061167105e-01
1.945160534333255087e-01
1.945160534333255087e-01
1.946332317787672905e-01
1.946332317787672905e-01
1.949847668150925806e-01
1.949847668150925806e-01
1.951019451605343347e-01
1.951019451605343347e-01
1.952191235059760888e-01
1.952191235059760888e-01
1.953363018514178706e-01
1.953363018514178706e-01
1.961565502695102048e-01
1.961565502695102048e-01
1.965080853058354948e-01
1.965080853058354948e-01
1.966252636512772489e-01
1.966252636512772489e-01
1.970939770330442931e-01
1.970939770330442931e-01
1.972111553784860472e-01
1.972111553784860472e-01
1.975626904148113372e-01
1.975626904148113372e-01
1.976798687602531190e-01
1.976798687602531190e-01
1.977970471056948731e-01
1.977970471056948731e-01
1.986172955237872073e-01
1.986172955237872073e-01
1.990860089055542514e-01
1.990860089055542514e-01
1.992031872509960055e-01
1.992031872509960055e-01
1.995547222873212956e-01
1.995547222873212956e-01
2.000234356690883397e-01
2.000234356690883397e-01
2.001406140145301216e-01
2.001406140145301216e-01
2.003749707054136298e-01
2.003749707054136298e-01
2.006093273962971657e-01
2.006093273962971657e-01
2.010780407780642098e-01
2.010780407780642098e-01
2.011952191235059639e-01
2.011952191235059639e-01
2.013123974689477458e-01
2.013123974689477458e-01
2.016639325052730358e-01
2.016639325052730358e-01
2.017811108507147899e-01
2.017811108507147899e-01
2.018982891961565440e-01
2.018982891961565440e-01
2.021326458870400800e-01
2.021326458870400800e-01
2.024841809233653700e-01
2.024841809233653700e-01
2.034216076868994583e-01
2.034216076868994583e-01
2.038903210686665024e-01
2.038903210686665024e-01
2.054136395594094167e-01
2.054136395594094167e-01
2.056479962502929526e-01
2.056479962502929526e-01
2.058823529411764608e-01
2.058823529411764608e-01
2.063510663229435327e-01
2.063510663229435327e-01
2.068197797047105768e-01
2.068197797047105768e-01
2.070541363955940850e-01
2.070541363955940850e-01
2.074056714319193750e-01
2.074056714319193750e-01
2.083430981954534911e-01
2.083430981954534911e-01
2.085774548863369993e-01
2.085774548863369993e-01
2.089289899226622893e-01
2.089289899226622893e-01
2.092805249589875793e-01
2.092805249589875793e-01
2.093977033044293334e-01
2.093977033044293334e-01
2.096320599953128694e-01
2.096320599953128694e-01
2.103351300679634495e-01
2.103351300679634495e-01
2.110382001406140018e-01
2.110382001406140018e-01
2.111553784860557836e-01
2.111553784860557836e-01
2.117412702132645819e-01
2.117412702132645819e-01
2.120928052495898719e-01
2.120928052495898719e-01
2.123271619404734079e-01
2.123271619404734079e-01
2.131474103585657420e-01
2.131474103585657420e-01
2.132645887040074961e-01
2.132645887040074961e-01
2.134989453948910321e-01
2.134989453948910321e-01
2.136161237403327862e-01
2.136161237403327862e-01
2.149050855401921645e-01
2.149050855401921645e-01
2.151394422310757004e-01
2.151394422310757004e-01
2.154909772674009905e-01
2.154909772674009905e-01
2.159596906491680346e-01
2.159596906491680346e-01
2.163112256854933246e-01
2.163112256854933246e-01
2.166627607218186147e-01
2.166627607218186147e-01
2.176001874853527029e-01
2.176001874853527029e-01
2.184204359034450371e-01
2.184204359034450371e-01
2.188891492852120813e-01
2.188891492852120813e-01
2.190063276306538631e-01
2.190063276306538631e-01
2.197093977033044432e-01
2.197093977033044432e-01
2.199437543941879514e-01
2.199437543941879514e-01
2.200609327396297055e-01
2.200609327396297055e-01
2.207640028122802855e-01
2.207640028122802855e-01
2.208811811577220396e-01
2.208811811577220396e-01
2.214670728849308656e-01
2.214670728849308656e-01
2.219357862666979098e-01
2.219357862666979098e-01
2.220529646121396639e-01
2.220529646121396639e-01
2.221701429575814457e-01
2.221701429575814457e-01
2.222873213030231998e-01
2.222873213030231998e-01
2.227560346847902439e-01
2.227560346847902439e-01
2.231075697211155340e-01
2.231075697211155340e-01
2.238106397937661141e-01
2.238106397937661141e-01
2.246308882118584482e-01
2.246308882118584482e-01
2.252167799390672742e-01
2.252167799390672742e-01
2.258026716662760724e-01
2.258026716662760724e-01
2.266229200843684066e-01
2.266229200843684066e-01
2.269744551206936967e-01
2.269744551206936967e-01
2.272088118115772326e-01
2.272088118115772326e-01
2.280290602296695668e-01
2.280290602296695668e-01
2.282634169205530750e-01
2.282634169205530750e-01
2.286149519568783650e-01
2.286149519568783650e-01
2.290836653386454091e-01
2.290836653386454091e-01
2.296695570658542351e-01
2.296695570658542351e-01
2.299039137567377433e-01
2.299039137567377433e-01
2.300210921021795252e-01
2.300210921021795252e-01
2.304898054839465693e-01
2.304898054839465693e-01
2.307241621748301053e-01
2.307241621748301053e-01
2.313100539020389035e-01
2.313100539020389035e-01
2.320131239746894836e-01
2.320131239746894836e-01
2.327161940473400636e-01
2.327161940473400636e-01
2.330677290836653259e-01
2.330677290836653259e-01
2.335364424654323978e-01
2.335364424654323978e-01
2.338879775017576879e-01
2.338879775017576879e-01
2.343566908835247320e-01
2.343566908835247320e-01
2.344738692289664861e-01
2.344738692289664861e-01
2.348254042652917761e-01
2.348254042652917761e-01
2.351769393016170662e-01
2.351769393016170662e-01
2.352941176470588203e-01
2.352941176470588203e-01
2.358800093742676462e-01
2.358800093742676462e-01
2.365830794469181986e-01
2.365830794469181986e-01
2.367002577923599804e-01
2.367002577923599804e-01
2.369346144832434886e-01
2.369346144832434886e-01
2.386922896648699388e-01
2.386922896648699388e-01
2.390438247011952289e-01
2.390438247011952289e-01
2.396297164284040271e-01
2.396297164284040271e-01
2.397468947738457812e-01
2.397468947738457812e-01
2.398640731192875630e-01
2.398640731192875630e-01
2.404499648464963613e-01
2.404499648464963613e-01
2.410358565737051872e-01
2.410358565737051872e-01
2.419732833372392755e-01
2.419732833372392755e-01
2.423248183735645656e-01
2.423248183735645656e-01
2.424419967190063196e-01
2.424419967190063196e-01
2.430278884462151456e-01
2.430278884462151456e-01
2.433794234825404357e-01
2.433794234825404357e-01
2.434966018279821898e-01
2.434966018279821898e-01
2.438481368643074798e-01
2.438481368643074798e-01
2.441996719006327698e-01
2.441996719006327698e-01
2.449027419732833499e-01
2.449027419732833499e-01
2.451370986641668581e-01
2.451370986641668581e-01
2.452542770096086122e-01
2.452542770096086122e-01
2.453714553550503941e-01
2.453714553550503941e-01
2.458401687368174382e-01
2.458401687368174382e-01
2.460745254277009741e-01
2.460745254277009741e-01
2.470119521912350624e-01
2.470119521912350624e-01
2.473634872275603525e-01
2.473634872275603525e-01
2.474806655730021065e-01
2.474806655730021065e-01
2.475978439184438606e-01
2.475978439184438606e-01
2.480665573002109325e-01
2.480665573002109325e-01
2.481837356456526866e-01
2.481837356456526866e-01
2.486524490274197308e-01
2.486524490274197308e-01
2.487696273728614849e-01
2.487696273728614849e-01
2.490039840637450208e-01
2.490039840637450208e-01
2.492383407546285568e-01
2.492383407546285568e-01
2.497070541363956009e-01
2.497070541363956009e-01
2.501757675181626173e-01
2.501757675181626173e-01
2.504101242090461810e-01
2.504101242090461810e-01
2.505273025544879073e-01
2.505273025544879073e-01
2.514647293180220511e-01
2.514647293180220511e-01
2.520506210452308493e-01
2.520506210452308493e-01
2.521677993906726312e-01
2.521677993906726312e-01
2.525193344269978657e-01
2.525193344269978657e-01
2.531052261542067194e-01
2.531052261542067194e-01
2.536911178814155177e-01
2.536911178814155177e-01
2.541598312631825896e-01
2.541598312631825896e-01
2.543941879540660977e-01
2.543941879540660977e-01
2.547457229903913878e-01
2.547457229903913878e-01
2.548629013358331141e-01
2.548629013358331141e-01
2.550972580267166778e-01
2.550972580267166778e-01
2.552144363721584042e-01
2.552144363721584042e-01
2.555659714084836942e-01
2.555659714084836942e-01
2.560346847902507661e-01
2.560346847902507661e-01
2.570892898992266362e-01
2.570892898992266362e-01
2.575580032809936526e-01
2.575580032809936526e-01
2.579095383173189426e-01
2.579095383173189426e-01
2.586126083899695227e-01
2.586126083899695227e-01
2.588469650808530309e-01
2.588469650808530309e-01
2.589641434262948128e-01
2.589641434262948128e-01
2.590813217717365946e-01
2.590813217717365946e-01
2.591985001171783209e-01
2.591985001171783209e-01
2.593156784626201028e-01
2.593156784626201028e-01
2.600187485352706829e-01
2.600187485352706829e-01
2.610733536442465530e-01
2.610733536442465530e-01
2.611905319896882793e-01
2.611905319896882793e-01
2.621279587532224231e-01
2.621279587532224231e-01
2.623623154441059313e-01
2.623623154441059313e-01
2.627138504804312213e-01
2.627138504804312213e-01
2.630653855167565114e-01
2.630653855167565114e-01
2.641199906257323815e-01
2.641199906257323815e-01
2.642371689711741078e-01
2.642371689711741078e-01
2.644715256620576715e-01
2.644715256620576715e-01
2.645887040074993979e-01
2.645887040074993979e-01
2.650574173892664698e-01
2.650574173892664698e-01
2.655261307710334862e-01
2.655261307710334862e-01
2.657604874619170499e-01
2.657604874619170499e-01
2.659948441528005580e-01
2.659948441528005580e-01
2.664635575345676299e-01
2.664635575345676299e-01
2.671666276072182100e-01
2.671666276072182100e-01
2.678696976798687346e-01
2.678696976798687346e-01
2.686899460979610965e-01
2.686899460979610965e-01
2.692758378251698947e-01
2.692758378251698947e-01
2.696273728614951848e-01
2.696273728614951848e-01
2.707991563159128368e-01
2.707991563159128368e-01
2.709163346613545631e-01
2.709163346613545631e-01
2.710335130067963449e-01
2.710335130067963449e-01
2.715022263885634168e-01
2.715022263885634168e-01
2.717365830794469250e-01
2.717365830794469250e-01
2.723224748066557233e-01
2.723224748066557233e-01
2.725568314975392314e-01
2.725568314975392314e-01
2.732599015701898115e-01
2.732599015701898115e-01
2.767752519334427119e-01
2.767752519334427119e-01
2.770096086243262201e-01
2.770096086243262201e-01
2.772439653152097283e-01
2.772439653152097283e-01
2.775955003515350183e-01
2.775955003515350183e-01
2.780642137333020902e-01
2.780642137333020902e-01
2.786501054605108885e-01
2.786501054605108885e-01
2.794703538786032504e-01
2.794703538786032504e-01
2.797047105694867586e-01
2.797047105694867586e-01
2.799390672603702668e-01
2.799390672603702668e-01
2.801734239512538305e-01
2.801734239512538305e-01
2.802906022966955568e-01
2.802906022966955568e-01
2.805249589875791205e-01
2.805249589875791205e-01
2.808764940239043550e-01
2.808764940239043550e-01
2.809936723693461369e-01
2.809936723693461369e-01
2.826341692055308052e-01
2.826341692055308052e-01
2.831028825872978771e-01
2.831028825872978771e-01
2.833372392781813853e-01
2.833372392781813853e-01
2.835715959690648935e-01
2.835715959690648935e-01
2.843918443871572554e-01
2.843918443871572554e-01
2.866182329505507220e-01
2.866182329505507220e-01
2.868525896414342857e-01
2.868525896414342857e-01
2.869697679868760121e-01
2.869697679868760121e-01
2.870869463323177939e-01
2.870869463323177939e-01
2.875556597140848103e-01
2.875556597140848103e-01
2.884930864776189541e-01
2.884930864776189541e-01
2.887274431685024623e-01
2.887274431685024623e-01
2.890789782048277523e-01
2.890789782048277523e-01
2.893133348957112605e-01
2.893133348957112605e-01
2.909538317318959288e-01
2.909538317318959288e-01
2.913053667682212189e-01
2.913053667682212189e-01
2.915397234591047826e-01
2.915397234591047826e-01
2.916569018045465089e-01
2.916569018045465089e-01
2.922427935317553072e-01
2.922427935317553072e-01
2.923599718771970890e-01
2.923599718771970890e-01
2.924771502226388709e-01
2.924771502226388709e-01
2.940004687133817574e-01
2.940004687133817574e-01
2.945863604405905556e-01
2.945863604405905556e-01
2.948207171314741193e-01
2.948207171314741193e-01
2.952894305132411357e-01
2.952894305132411357e-01
2.956409655495664257e-01
2.956409655495664257e-01
2.958753222404499894e-01
2.958753222404499894e-01
2.964612139676587876e-01
2.964612139676587876e-01
2.966955706585422958e-01
2.966955706585422958e-01
2.969299273494258040e-01
2.969299273494258040e-01
2.970471056948675859e-01
2.970471056948675859e-01
2.976329974220763841e-01
2.976329974220763841e-01
2.985704241856104724e-01
2.985704241856104724e-01
2.989219592219357624e-01
2.989219592219357624e-01
2.991563159128193261e-01
2.991563159128193261e-01
2.999765643309116325e-01
2.999765643309116325e-01
3.002109210217951962e-01
3.002109210217951962e-01
3.004452777126787044e-01
3.004452777126787044e-01
3.006796344035622126e-01
3.006796344035622126e-01
3.010311694398875026e-01
3.010311694398875026e-01
3.014998828216545745e-01
3.014998828216545745e-01
3.020857745488633728e-01
3.020857745488633728e-01
3.022029528943051546e-01
3.022029528943051546e-01
3.024373095851886628e-01
3.024373095851886628e-01
3.032575580032809692e-01
3.032575580032809692e-01
3.033747363487227511e-01
3.033747363487227511e-01
3.043121631122568393e-01
3.043121631122568393e-01
3.046636981485821294e-01
3.046636981485821294e-01
3.048980548394656931e-01
3.048980548394656931e-01
3.066557300210920878e-01
3.066557300210920878e-01
3.081790485118350298e-01
3.081790485118350298e-01
3.086477618936020462e-01
3.086477618936020462e-01
3.087649402390438280e-01
3.087649402390438280e-01
3.094680103116944081e-01
3.094680103116944081e-01
3.097023670025779163e-01
3.097023670025779163e-01
3.111085071478790764e-01
3.111085071478790764e-01
3.116943988750878747e-01
3.116943988750878747e-01
3.118115772205296565e-01
3.118115772205296565e-01
3.131005390203890348e-01
3.131005390203890348e-01
3.135692524021561067e-01
3.135692524021561067e-01
3.136864307475978331e-01
3.136864307475978331e-01
3.138036090930396149e-01
3.140379657839231231e-01
3.180220295289430399e-01
3.180220295289430399e-01
3.182563862198266036e-01
3.182563862198266036e-01
3.184907429107101118e-01
3.184907429107101118e-01
3.200140614014529983e-01
3.200140614014529983e-01
3.213030232013123766e-01
3.213030232013123766e-01
3.215373798921959403e-01
3.215373798921959403e-01
3.216545582376376666e-01
3.216545582376376666e-01
3.220060932739629567e-01
3.220060932739629567e-01
3.223576283102882467e-01
3.223576283102882467e-01
3.227091633466135367e-01
3.227091633466135367e-01
3.228263416920553186e-01
3.228263416920553186e-01
3.238809468010311887e-01
3.238809468010311887e-01
3.241153034919146969e-01
3.241153034919146969e-01
3.248183735645652770e-01
3.248183735645652770e-01
3.249355519100070033e-01
3.249355519100070033e-01
3.254042652917740752e-01
3.254042652917740752e-01
3.256386219826575834e-01
3.256386219826575834e-01
3.258729786735411471e-01
3.258729786735411471e-01
3.269275837825170172e-01
3.269275837825170172e-01
3.271619404734005254e-01
3.271619404734005254e-01
3.278650105460511055e-01
3.278650105460511055e-01
3.285680806187016856e-01
3.285680806187016856e-01
3.291539723459104838e-01
3.291539723459104838e-01
3.298570424185610639e-01
3.298570424185610639e-01
3.299742207640027902e-01
3.299742207640027902e-01
3.305601124912116440e-01
3.305601124912116440e-01
3.311460042184204422e-01
3.311460042184204422e-01
3.312631825638622241e-01
3.312631825638622241e-01
3.317318959456292404e-01
3.317318959456292404e-01
3.318490742910710223e-01
3.318490742910710223e-01
3.319662526365127486e-01
3.319662526365127486e-01
3.327865010546051105e-01
3.327865010546051105e-01
3.331380360909304006e-01
3.331380360909304006e-01
3.334895711272556906e-01
3.334895711272556906e-01
3.339582845090227070e-01
3.339582845090227070e-01
3.343098195453479970e-01
3.345441762362315608e-01
3.347785329271150689e-01
3.347785329271150689e-01
3.350128896179985771e-01
3.350128896179985771e-01
3.355987813452074309e-01
3.355987813452074309e-01
3.360674947269744473e-01
3.360674947269744473e-01
3.363018514178579554e-01
3.363018514178579554e-01
3.377079915631591156e-01
3.377079915631591156e-01
3.388797750175767676e-01
3.388797750175767676e-01
3.391141317084602758e-01
3.391141317084602758e-01
3.397000234356690740e-01
3.397000234356690740e-01
3.399343801265526377e-01
3.399343801265526377e-01
3.406374501992031623e-01
3.406374501992031623e-01
3.412233419264120160e-01
3.412233419264120160e-01
3.416920553081790324e-01
3.416920553081790324e-01
3.422779470353878861e-01
3.422779470353878861e-01
3.423951253808296125e-01
3.423951253808296125e-01
3.426294820717131207e-01
3.426294820717131207e-01
3.430981954534801925e-01
3.430981954534801925e-01
3.440356222170142808e-01
3.440356222170142808e-01
3.448558706351066427e-01
3.448558706351066427e-01
3.457932973986407310e-01
3.457932973986407310e-01
3.459104757440825129e-01
3.459104757440825129e-01
3.461448324349660211e-01
3.461448324349660211e-01
3.467307241621748193e-01
3.467307241621748193e-01
3.476681509257089076e-01
3.476681509257089076e-01
3.487227560346847777e-01
3.487227560346847777e-01
3.490742910710100677e-01
3.490742910710100677e-01
3.498945394891024296e-01
3.498945394891024296e-01
3.500117178345441560e-01
3.500117178345441560e-01
3.502460745254277197e-01
3.502460745254277197e-01
3.507147879071947361e-01
3.507147879071947361e-01
3.508319662526365179e-01
3.508319662526365179e-01
3.517693930161706062e-01
3.517693930161706062e-01
3.520037497070541144e-01
3.520037497070541144e-01
3.523552847433794044e-01
3.523552847433794044e-01
3.527068197797046945e-01
3.527068197797046945e-01
3.539957815795640728e-01
3.539957815795640728e-01
3.552847433794235066e-01
3.552847433794235066e-01
3.566908835247246112e-01
3.566908835247246112e-01
3.603234122334192380e-01
3.603234122334192380e-01
3.606749472697445280e-01
3.606749472697445280e-01
3.619639090696039618e-01
3.619639090696039618e-01
3.636044059057886302e-01
3.636044059057886302e-01
3.643074759784392103e-01
3.643074759784392103e-01
3.646590110147644448e-01
3.646590110147644448e-01
3.681743613780173452e-01
3.681743613780173452e-01
3.682915397234591270e-01
3.682915397234591270e-01
3.689946097961096516e-01
3.689946097961096516e-01
3.695805015233185054e-01
3.695805015233185054e-01
3.696976798687602317e-01
3.696976798687602317e-01
3.701663932505273036e-01
3.701663932505273036e-01
3.705179282868525936e-01
3.705179282868525936e-01
3.709866416686196655e-01
3.709866416686196655e-01
3.713381767049449000e-01
3.713381767049449000e-01
3.718068900867119719e-01
3.718068900867119719e-01
3.726271385048043339e-01
3.726271385048043339e-01
3.736817436137801485e-01
3.736817436137801485e-01
3.741504569955472204e-01
3.741504569955472204e-01
3.746191703773142923e-01
3.746191703773142923e-01
3.752050621045230905e-01
3.752050621045230905e-01
3.756737754862901069e-01
3.756737754862901069e-01
3.757909538317318887e-01
3.757909538317318887e-01
3.764940239043824688e-01
3.764940239043824688e-01
3.766112022498242506e-01
3.766112022498242506e-01
3.775486290133583389e-01
3.775486290133583389e-01
3.776658073588001208e-01
3.776658073588001208e-01
3.777829857042418471e-01
3.777829857042418471e-01
3.786032341223342090e-01
3.786032341223342090e-01
3.788375908132177172e-01
3.788375908132177172e-01
3.789547691586594991e-01
3.789547691586594991e-01
3.790719475041012254e-01
3.790719475041012254e-01
3.817670494492617639e-01
3.817670494492617639e-01
3.821185844855870539e-01
3.821185844855870539e-01
3.822357628310288358e-01
3.822357628310288358e-01
3.830560112491211422e-01
3.830560112491211422e-01
3.832903679400047059e-01
3.832903679400047059e-01
3.837590813217717223e-01
3.837590813217717223e-01
3.841106163580970123e-01
3.841106163580970123e-01
3.843449730489805760e-01
3.843449730489805760e-01
3.845793297398640842e-01
3.845793297398640842e-01
3.848136864307475924e-01
3.848136864307475924e-01
3.851652214670728824e-01
3.851652214670728824e-01
3.855167565033981725e-01
3.855167565033981725e-01
3.857511131942816807e-01
3.857511131942816807e-01
3.861026482306069707e-01
3.861026482306069707e-01
3.863370049214905344e-01
3.863370049214905344e-01
3.871572533395828408e-01
3.871572533395828408e-01
3.876259667213499127e-01
3.876259667213499127e-01
3.877431450667916391e-01
3.877431450667916391e-01
3.907897820482774676e-01
3.907897820482774676e-01
3.913756737754862658e-01
3.913756737754862658e-01
3.916100304663698295e-01
3.916100304663698295e-01
3.919615655026951195e-01
3.919615655026951195e-01
3.921959221935786277e-01
3.921959221935786277e-01
3.927818139207874260e-01
3.927818139207874260e-01
3.938364190297632961e-01
3.938364190297632961e-01
3.943051324115303680e-01
3.943051324115303680e-01
3.945394891024138762e-01
3.945394891024138762e-01
3.946566674478556580e-01
3.946566674478556580e-01
3.952425591750644562e-01
3.952425591750644562e-01
3.957112725568314726e-01
3.957112725568314726e-01
3.964143426294820527e-01
3.964143426294820527e-01
3.965315209749238345e-01
3.965315209749238345e-01
3.968830560112491246e-01
3.968830560112491246e-01
3.977033044293414310e-01
3.977033044293414310e-01
3.981720178111085029e-01
3.981720178111085029e-01
3.995781579564096631e-01
3.995781579564096631e-01
4.001640496836184613e-01
4.001640496836184613e-01
4.009842981017108232e-01
4.009842981017108232e-01
4.013358331380361133e-01
4.013358331380361133e-01
4.015701898289196214e-01
4.015701898289196214e-01
4.019217248652449115e-01
4.019217248652449115e-01
4.020389032106866378e-01
4.020389032106866378e-01
4.028591516287789998e-01
4.028591516287789998e-01
4.035622217014295798e-01
4.035622217014295798e-01
4.043824701195218863e-01
4.043824701195218863e-01
4.046168268104054500e-01
4.046168268104054500e-01
4.054370752284977564e-01
4.054370752284977564e-01
4.055542535739395382e-01
4.055542535739395382e-01
4.064916803374736265e-01
4.064916803374736265e-01
4.069603937192406984e-01
4.069603937192406984e-01
4.073119287555659884e-01
4.073119287555659884e-01
4.075462854464494966e-01
4.075462854464494966e-01
4.076634637918912785e-01
4.076634637918912785e-01
4.088352472463088749e-01
4.088352472463088749e-01
4.090696039371923831e-01
4.090696039371923831e-01
4.096554956644012369e-01
4.096554956644012369e-01
4.098898523552847450e-01
4.098898523552847450e-01
4.104757440824935433e-01
4.104757440824935433e-01
4.114131708460276315e-01
4.114131708460276315e-01
4.116475275369111952e-01
4.116475275369111952e-01
4.118818842277947034e-01
4.118818842277947034e-01
4.127021326458870654e-01
4.127021326458870654e-01
4.138739161003046618e-01
4.138739161003046618e-01
4.142254511366299519e-01
4.142254511366299519e-01
4.143426294820717337e-01
4.143426294820717337e-01
4.150456995547223138e-01
4.150456995547223138e-01
4.158659479728146202e-01
4.158659479728146202e-01
4.159831263182564021e-01
4.159831263182564021e-01
4.161003046636981284e-01
4.161003046636981284e-01
4.163346613545816921e-01
4.163346613545816921e-01
4.166861963909069821e-01
4.166861963909069821e-01
4.170377314272322722e-01
4.170377314272322722e-01
4.183266932270916505e-01
4.183266932270916505e-01
4.189125849543004487e-01
4.189125849543004487e-01
4.203187250996016089e-01
4.203187250996016089e-01
4.213733302085774790e-01
4.213733302085774790e-01
4.218420435903444954e-01
4.218420435903444954e-01
4.219592219357862772e-01
4.219592219357862772e-01
4.224279353175532936e-01
4.224279353175532936e-01
4.227794703538785837e-01
4.227794703538785837e-01
4.239512538082962356e-01
4.239512538082962356e-01
4.240684321537379620e-01
4.240684321537379620e-01
4.247715022263885420e-01
4.247715022263885420e-01
4.251230372627138321e-01
4.251230372627138321e-01
4.257089289899226858e-01
4.257089289899226858e-01
4.265291774080149922e-01
4.265291774080149922e-01
4.271150691352237905e-01
4.271150691352237905e-01
4.273494258261073542e-01
4.273494258261073542e-01
4.275837825169908624e-01
4.275837825169908624e-01
4.277009608624326442e-01
4.277009608624326442e-01
4.278181392078743706e-01
4.280524958987579343e-01
4.285212092805249506e-01
4.285212092805249506e-01
4.287555659714084588e-01
4.287555659714084588e-01
4.293414576986173126e-01
4.293414576986173126e-01
4.309819545348019809e-01
4.309819545348019809e-01
4.320365596437778510e-01
4.320365596437778510e-01
4.321537379892195774e-01
4.321537379892195774e-01
4.328568080618701575e-01
4.328568080618701575e-01
4.332083430981954475e-01
4.332083430981954475e-01
4.333255214436372293e-01
4.333255214436372293e-01
4.336770564799625194e-01
4.336770564799625194e-01
4.346144832434966077e-01
4.346144832434966077e-01
4.357862666979142041e-01
4.357862666979142041e-01
4.367236934614483479e-01
4.367236934614483479e-01
4.374267635340988725e-01
4.374267635340988725e-01
4.380126552613077262e-01
4.380126552613077262e-01
4.383641902976330162e-01
4.383641902976330162e-01
4.389500820248418145e-01
4.389500820248418145e-01
4.397703304429341209e-01
4.397703304429341209e-01
4.402390438247011928e-01
4.402390438247011928e-01
4.407077572064682647e-01
4.407077572064682647e-01
4.408249355519099910e-01
4.408249355519099910e-01
4.448089992969299078e-01
4.448089992969299078e-01
4.458636044059057779e-01
4.458636044059057779e-01
4.460979610967892861e-01
4.460979610967892861e-01
4.464494961331145761e-01
4.464494961331145761e-01
4.465666744785563580e-01
4.465666744785563580e-01
4.470353878603234299e-01
4.470353878603234299e-01
4.475041012420904463e-01
4.475041012420904463e-01
4.487930630419498246e-01
4.487930630419498246e-01
4.494961331146004047e-01
4.494961331146004047e-01
4.497304898054839684e-01
4.497304898054839684e-01
4.503163815326927666e-01
4.503163815326927666e-01
4.523084134052027250e-01
4.523084134052027250e-01
4.538317318959456115e-01
4.538317318959456115e-01
4.559409421138973517e-01
4.559409421138973517e-01
4.561752988047808599e-01
4.561752988047808599e-01
4.569955472228732218e-01
4.569955472228732218e-01
4.573470822591985119e-01
4.573470822591985119e-01
4.578157956409655283e-01
4.578157956409655283e-01
4.614483243496602105e-01
4.614483243496602105e-01
4.621513944223107351e-01
4.621513944223107351e-01
4.622685727677525169e-01
4.622685727677525169e-01
4.637918912584954034e-01
4.637918912584954034e-01
4.643777829857042572e-01
4.643777829857042572e-01
4.650808530583548372e-01
4.650808530583548372e-01
4.654323880946801273e-01
4.654323880946801273e-01
4.657839231310054173e-01
4.657839231310054173e-01
4.662526365127724337e-01
4.662526365127724337e-01
4.668385282399812319e-01
4.668385282399812319e-01
4.669557065854230138e-01
4.669557065854230138e-01
4.674244199671900857e-01
4.674244199671900857e-01
4.675415983126318120e-01
4.675415983126318120e-01
4.676587766580735939e-01
4.676587766580735939e-01
4.690649168033747540e-01
4.690649168033747540e-01
4.691820951488164804e-01
4.691820951488164804e-01
4.692992734942582622e-01
4.692992734942582622e-01
4.694164518397000441e-01
4.694164518397000441e-01
4.698851652214670604e-01
4.701195219123506241e-01
4.703538786032341323e-01
4.703538786032341323e-01
4.731661588938363971e-01
4.731661588938363971e-01
4.732833372392781790e-01
4.732833372392781790e-01
4.743379423482540491e-01
4.743379423482540491e-01
4.744551206936958310e-01
4.744551206936958310e-01
4.755097258026716456e-01
4.755097258026716456e-01
4.764471525662057894e-01
4.764471525662057894e-01
4.765643309116475157e-01
4.765643309116475157e-01
4.766815092570892975e-01
4.766815092570892975e-01
4.767986876025310794e-01
4.767986876025310794e-01
4.770330442934145876e-01
4.770330442934145876e-01
4.792594328568080542e-01
4.792594328568080542e-01
4.804312163112257061e-01
4.804312163112257061e-01
4.814858214202015207e-01
4.814858214202015207e-01
4.823060698382938827e-01
4.823060698382938827e-01
4.826576048746191727e-01
4.826576048746191727e-01
4.839465666744785510e-01
4.839465666744785510e-01
4.841809233653620592e-01
4.841809233653620592e-01
4.842981017108038411e-01
4.842981017108038411e-01
4.864073119287555813e-01
4.865244902741973076e-01
4.866416686196390895e-01
4.866416686196390895e-01
4.881649871103819760e-01
4.881649871103819760e-01
4.882821654558237578e-01
4.882821654558237578e-01
4.894539489102414098e-01
4.894539489102414098e-01
4.909772674009842963e-01
4.909772674009842963e-01
4.950785094914459949e-01
4.950785094914459949e-01
4.954300445277712850e-01
4.954300445277712850e-01
4.960159362549800832e-01
4.960159362549800832e-01
4.962502929458635914e-01
4.962502929458635914e-01
4.963674712913053733e-01
4.963674712913053733e-01
4.974220764002812434e-01
4.974220764002812434e-01
4.998828216545582181e-01
4.998828216545582181e-01
5.014061401453011602e-01
5.014061401453011602e-01
5.015233184907429420e-01
5.015233184907429420e-01
5.023435669088351929e-01
5.023435669088351929e-01
5.025779235997187566e-01
5.025779235997187566e-01
5.029294586360441022e-01
5.029294586360441022e-01
5.030466369814857730e-01
5.030466369814857730e-01
5.031638153269275548e-01
5.031638153269275548e-01
5.038668853995781349e-01
5.038668853995781349e-01
5.039840637450199168e-01
5.039840637450199168e-01
5.049214905085540606e-01
5.049214905085540606e-01
5.056245605812046406e-01
5.056245605812046406e-01
5.069135223810640190e-01
5.069135223810640190e-01
5.080853058354816154e-01
5.080853058354816154e-01
5.083196625263651791e-01
5.083196625263651791e-01
5.084368408718068499e-01
5.084368408718068499e-01
5.096086243262245574e-01
5.096086243262245574e-01
5.099601593625497920e-01
5.101945160534333557e-01
5.108975861260839357e-01
5.108975861260839357e-01
5.114834778532927340e-01
5.114834778532927340e-01
5.117178345441761866e-01
5.117178345441761866e-01
5.120693695805015322e-01
5.120693695805015322e-01
5.128896179985938941e-01
5.128896179985938941e-01
5.152331849074290870e-01
5.152331849074290870e-01
5.153503632528708689e-01
5.153503632528708689e-01
5.159362549800796671e-01
5.159362549800796671e-01
5.168736817436138109e-01
5.168736817436138109e-01
5.175767518162643910e-01
5.175767518162643910e-01
5.193344269978907857e-01
5.193344269978907857e-01
5.200374970705413658e-01
5.200374970705413658e-01
5.201546754159831476e-01
5.201546754159831476e-01
5.203890321068666003e-01
5.203890321068666003e-01
5.216779939067260896e-01
5.216779939067260896e-01
5.222638856339348878e-01
5.222638856339348878e-01
5.241387391610030644e-01
5.241387391610030644e-01
5.251933442699788790e-01
5.251933442699788790e-01
5.267166627607218210e-01
5.267166627607218210e-01
5.271853761424888374e-01
5.271853761424888374e-01
5.273025544879306192e-01
5.273025544879306192e-01
5.277712678696976356e-01
5.277712678696976356e-01
5.284743379423482157e-01
5.284743379423482157e-01
5.285915162877899975e-01
5.285915162877899975e-01
5.294117647058823595e-01
5.294117647058823595e-01
5.315209749238340997e-01
5.315209749238340997e-01
5.319896883056011161e-01
5.319896883056011161e-01
5.332786501054604944e-01
5.332786501054604944e-01
5.364424654323880493e-01
5.364424654323880493e-01
5.380829622685727731e-01
5.380829622685727731e-01
5.399578157956409497e-01
5.399578157956409497e-01
5.400749941410827315e-01
5.400749941410827315e-01
5.401921724865245134e-01
5.401921724865245134e-01
5.403093508319662952e-01
5.403093508319662952e-01
5.406608858682915297e-01
5.406608858682915297e-01
5.433559878134520682e-01
5.433559878134520682e-01
5.435903445043356319e-01
5.435903445043356319e-01
5.451136629950784629e-01
5.451136629950784629e-01
5.462854464494961704e-01
5.462854464494961704e-01
5.466369814858214049e-01
5.466369814858214049e-01
5.467541598312631868e-01
5.467541598312631868e-01
5.495664401218655071e-01
5.495664401218655071e-01
5.500351535036325235e-01
5.500351535036325235e-01
5.531989688305600783e-01
5.531989688305600783e-01
5.533161471760018602e-01
5.533161471760018602e-01
5.536676822123272057e-01
5.536676822123272057e-01
5.547222873213030203e-01
5.547222873213030203e-01
5.549566440121865840e-01
5.549566440121865840e-01
5.557768924302788349e-01
5.557768924302788349e-01
5.568314975392547606e-01
5.568314975392547606e-01
5.571830325755799951e-01
5.571830325755799951e-01
5.575345676119053406e-01
5.575345676119053406e-01
5.580032809936723570e-01
5.580032809936723570e-01
5.581204593391141389e-01
5.581204593391141389e-01
5.619873447386922738e-01
5.619873447386922738e-01
5.622217014295758375e-01
5.622217014295758375e-01
5.642137333020857959e-01
5.642137333020857959e-01
5.662057651745957543e-01
5.662057651745957543e-01
5.667916569018045525e-01
5.667916569018045525e-01
5.674947269744551326e-01
5.674947269744551326e-01
5.679634403562221490e-01
5.679634403562221490e-01
5.680806187016639308e-01
5.680806187016639308e-01
5.699554722287321074e-01
5.699554722287321074e-01
5.718303257558002839e-01
5.718303257558002839e-01
5.719475041012420657e-01
5.719475041012420657e-01
5.721818607921256294e-01
5.721818607921256294e-01
5.724162174830091931e-01
5.724162174830091931e-01
5.771033513006795790e-01
5.771033513006795790e-01
5.772205296461213608e-01
5.772205296461213608e-01
5.785094914459807391e-01
5.785094914459807391e-01
5.816733067729084050e-01
5.816733067729084050e-01
5.819076634637918577e-01
5.819076634637918577e-01
5.820248418092336395e-01
5.820248418092336395e-01
5.821420201546754214e-01
5.821420201546754214e-01
5.823763768455589851e-01
5.823763768455589851e-01
5.828450902273260015e-01
5.828450902273260015e-01
5.833138036090930179e-01
5.833138036090930179e-01
5.835481602999765816e-01
5.835481602999765816e-01
5.838996953363018161e-01
5.838996953363018161e-01
5.846027654089523962e-01
5.846027654089523962e-01
5.851886571361611944e-01
5.851886571361611944e-01
5.856573705179283218e-01
5.856573705179283218e-01
5.862432622451371200e-01
5.862432622451371200e-01
5.864776189360205727e-01
5.864776189360205727e-01
5.880009374267635147e-01
5.880009374267635147e-01
5.889383641902976585e-01
5.889383641902976585e-01
5.925708928989922297e-01
5.925708928989922297e-01
5.959690649168033483e-01
5.959690649168033483e-01
5.963205999531286938e-01
5.963205999531286938e-01
5.973752050621045084e-01
5.973752050621045084e-01
5.976095617529880721e-01
5.976095617529880721e-01
5.979610967893133067e-01
5.979610967893133067e-01
5.983126318256386522e-01
5.983126318256386522e-01
5.991328802437309031e-01
5.991328802437309031e-01
5.994844152800562487e-01
5.994844152800562487e-01
6.001874853527068288e-01
6.001874853527068288e-01
6.007733770799156270e-01
6.007733770799156270e-01
6.010077337707991907e-01
6.010077337707991907e-01
6.020623388797750053e-01
6.020623388797750053e-01
6.024138739161003508e-01
6.024138739161003508e-01
6.031169439887509309e-01
6.031169439887509309e-01
6.048746191703773256e-01
6.048746191703773256e-01
6.049917975158191075e-01
6.049917975158191075e-01
6.066322943520037203e-01
6.066322943520037203e-01
6.069838293883290659e-01
6.069838293883290659e-01
6.080384344973048805e-01
6.080384344973048805e-01
6.082727911881884442e-01
6.082727911881884442e-01
6.119053198968830154e-01
6.119053198968830154e-01
6.120224982423247972e-01
6.120224982423247972e-01
6.121396765877665791e-01
6.121396765877665791e-01
6.122568549332083609e-01
6.122568549332083609e-01
6.138973517693929738e-01
6.138973517693929738e-01
6.157722052964612613e-01
6.157722052964612613e-01
6.162409186782282777e-01
6.164752753691118414e-01
6.164752753691118414e-01
6.165924537145535123e-01
6.165924537145535123e-01
6.169439887508788578e-01
6.169439887508788578e-01
6.177642371689712197e-01
6.177642371689712197e-01
6.190531989688305980e-01
6.190531989688305980e-01
6.201078040778064127e-01
6.201078040778064127e-01
6.219826576048745892e-01
6.219826576048745892e-01
6.236231544410593131e-01
6.236231544410593131e-01
6.239746894773845476e-01
6.239746894773845476e-01
6.240918678228263294e-01
6.240918678228263294e-01
6.251464729318022551e-01
6.251464729318022551e-01
6.260838996953362878e-01
6.260838996953362878e-01
6.262010780407780697e-01
6.262010780407780697e-01
6.266697914225450861e-01
6.266697914225450861e-01
6.293648933677056245e-01
6.293648933677056245e-01
6.297164284040309701e-01
6.299507850949144228e-01
6.301851417857979865e-01
6.301851417857979865e-01
6.308882118584485665e-01
6.308882118584485665e-01
6.310053902038903484e-01
6.310053902038903484e-01
6.324115303491915085e-01
6.324115303491915085e-01
6.329974220764003068e-01
6.329974220764003068e-01
6.331146004218420886e-01
6.331146004218420886e-01
6.332317787672837595e-01
6.332317787672837595e-01
6.362784157487696435e-01
6.362784157487696435e-01
6.375673775486290218e-01
6.375673775486290218e-01
6.385048043121631656e-01
6.385048043121631656e-01
6.388563393484884001e-01
6.388563393484884001e-01
6.403796578392313421e-01
6.403796578392313421e-01
6.407311928755565766e-01
6.407311928755565766e-01
6.416686196390907204e-01
6.416686196390907204e-01
6.417857979845325023e-01
6.417857979845325023e-01
6.449496133114600571e-01
6.449496133114600571e-01
6.455355050386688553e-01
6.455355050386688553e-01
6.464729318022029991e-01
6.464729318022029991e-01
6.479962502929458301e-01
6.479962502929458301e-01
6.484649636747129575e-01
6.484649636747129575e-01
6.508085305835481504e-01
6.508085305835481504e-01
6.516287790016405124e-01
6.516287790016405124e-01
6.519803140379657469e-01
6.519803140379657469e-01
6.581907663463791858e-01
6.581907663463791858e-01
6.588938364190297658e-01
6.588938364190297658e-01
6.594797281462385641e-01
6.594797281462385641e-01
6.602999765643309260e-01
6.602999765643309260e-01
6.617061167096320862e-01
6.617061167096320862e-01
6.622920084368408844e-01
6.622920084368408844e-01
6.640496836184672791e-01
6.640496836184672791e-01
6.648699320365596410e-01
6.648699320365596410e-01
6.674478556362783976e-01
6.676822123271619613e-01
6.679165690180454140e-01
6.679165690180454140e-01
6.689711741270213397e-01
6.689711741270213397e-01
6.702601359268807180e-01
6.702601359268807180e-01
6.707288493086477343e-01
6.707288493086477343e-01
6.708460276540895162e-01
6.708460276540895162e-01
6.709632059995312980e-01
6.709632059995312980e-01
6.726037028357159109e-01
6.726037028357159109e-01
6.735411295992500547e-01
6.735411295992500547e-01
6.757675181626435768e-01
6.757675181626435768e-01
6.769393016170611732e-01
6.769393016170611732e-01
6.785797984532457860e-01
6.788141551441293498e-01
6.794000468713381480e-01
6.794000468713381480e-01
6.798687602531052754e-01
6.798687602531052754e-01
6.799859385985469462e-01
6.799859385985469462e-01
6.815092570892898882e-01
6.815092570892898882e-01
6.824466838528240320e-01
6.824466838528240320e-01
6.846730724162174431e-01
6.846730724162174431e-01
6.866651042887274015e-01
6.866651042887274015e-01
6.880712444340285616e-01
6.880712444340285616e-01
6.881884227794703435e-01
6.881884227794703435e-01
6.890086711975627054e-01
6.890086711975627054e-01
6.907663463791891001e-01
6.907663463791891001e-01
6.928755565971408403e-01
6.931099132880244040e-01
6.943988750878837823e-01
6.943988750878837823e-01
6.949847668150925806e-01
6.949847668150925806e-01
6.955706585423013788e-01
6.955706585423013788e-01
6.973283337239277735e-01
6.973283337239277735e-01
6.982657604874619173e-01
6.982657604874619173e-01
6.987344738692289337e-01
6.987344738692289337e-01
7.018982891961565995e-01
7.018982891961565995e-01
7.034216076868994305e-01
7.034216076868994305e-01
7.067026013592687672e-01
7.067026013592687672e-01
7.097492383407546512e-01
7.097492383407546512e-01
7.105694867588470132e-01
7.105694867588470132e-01
7.123271619404734079e-01
7.123271619404734079e-01
7.125615186313569716e-01
7.125615186313569716e-01
7.130302320131239879e-01
7.130302320131239879e-01
7.131474103585657698e-01
7.131474103585657698e-01
7.173658307944691392e-01
7.173658307944691392e-01
7.187719709397702994e-01
7.187719709397702994e-01
7.192406843215374268e-01
7.192406843215374268e-01
7.220529646121396361e-01
7.220529646121396361e-01
7.261542067026013347e-01
7.261542067026013347e-01
7.265057417389266803e-01
7.265057417389266803e-01
7.279118818842278404e-01
7.279118818842278404e-01
7.296695570658542351e-01
7.296695570658542351e-01
7.302554487930630334e-01
7.302554487930630334e-01
7.320131239746894281e-01
7.320131239746894281e-01
7.323646590110147736e-01
7.323646590110147736e-01
7.328333723927817900e-01
7.328333723927817900e-01
7.338879775017577156e-01
7.338879775017577156e-01
7.349425826107335302e-01
7.349425826107335302e-01
7.364659011014764722e-01
7.364659011014764722e-01
7.375205062104522868e-01
7.375205062104522868e-01
7.385751113194282125e-01
7.385751113194282125e-01
7.403327865010546072e-01
7.403327865010546072e-01
7.408014998828216235e-01
7.408014998828216235e-01
7.422076400281227837e-01
7.422076400281227837e-01
7.423248183735645656e-01
7.423248183735645656e-01
7.431450667916569275e-01
7.431450667916569275e-01
7.438481368643075076e-01
7.438481368643075076e-01
7.454886337004921204e-01
7.454886337004921204e-01
7.467775955003514987e-01
7.467775955003514987e-01
7.473634872275602969e-01
7.473634872275602969e-01
7.478322006093274243e-01
7.478322006093274243e-01
7.497070541363956009e-01
7.497070541363956009e-01
7.506444808999297447e-01
7.506444808999297447e-01
7.511131942816967610e-01
7.511131942816967610e-01
7.512303726271385429e-01
7.512303726271385429e-01
7.552144363721584597e-01
7.552144363721584597e-01
7.573236465901101999e-01
7.573236465901101999e-01
7.593156784626201583e-01
7.593156784626201583e-01
7.601359268807124092e-01
7.601359268807124092e-01
7.603702835715959729e-01
7.603702835715959729e-01
7.609561752988047711e-01
7.609561752988047711e-01
7.616592453714553512e-01
7.616592453714553512e-01
7.622451370986641495e-01
7.622451370986641495e-01
7.629482071713147295e-01
7.631825638621982932e-01
7.650574173892664698e-01
7.650574173892664698e-01
7.659948441528006136e-01
7.659948441528006136e-01
7.671666276072182100e-01
7.671666276072182100e-01
7.700960862432622012e-01
7.700960862432622012e-01
7.702132645887039830e-01
7.702132645887039830e-01
7.715022263885633613e-01
7.715022263885633613e-01
7.733770799156315379e-01
7.733770799156315379e-01
7.749003984063744799e-01
7.749003984063744799e-01
7.767752519334426564e-01
7.767752519334426564e-01
7.798218889149285404e-01
7.798218889149285404e-01
7.801734239512537750e-01
7.801734239512537750e-01
7.835715959690648935e-01
7.835715959690648935e-01
7.853292711506913992e-01
7.853292711506913992e-01
7.866182329505507775e-01
7.866182329505507775e-01
7.873213030232013576e-01
7.873213030232013576e-01
7.877900164049683740e-01
7.877900164049683740e-01
7.900164049683618961e-01
7.900164049683618961e-01
7.922427935317553072e-01
7.922427935317553072e-01
7.935317553316146855e-01
7.935317553316146855e-01
7.948207171314740638e-01
7.948207171314740638e-01
8.019685962034216464e-01
8.019685962034216464e-01
8.092336536208108999e-01
8.092336536208108999e-01
8.095851886571361344e-01
8.095851886571361344e-01
8.102882587297867145e-01
8.102882587297867145e-01
8.108741504569955127e-01
8.108741504569955127e-01
8.123974689477384548e-01
8.123974689477384548e-01
8.125146472931802366e-01
8.125146472931802366e-01
8.136864307475978331e-01
8.136864307475978331e-01
8.154441059292242278e-01
8.154441059292242278e-01
8.168502460745253879e-01
8.168502460745253879e-01
8.225919850011718104e-01
8.225919850011718104e-01
8.242324818373564232e-01
8.244668385282399869e-01
8.259901570189829290e-01
8.259901570189829290e-01
8.263416920553081635e-01
8.263416920553081635e-01
8.284509022732599037e-01
8.284509022732599037e-01
8.290367940004687020e-01
8.290367940004687020e-01
8.295055073822357183e-01
8.295055073822357183e-01
8.304429341457698621e-01
8.304429341457698621e-01
8.318490742910710223e-01
8.318490742910710223e-01
8.320834309819545860e-01
8.320834309819545860e-01
8.332552144363721824e-01
8.332552144363721824e-01
8.347785329271151245e-01
8.347785329271151245e-01
8.398172017811108558e-01
8.398172017811108558e-01
8.399343801265526377e-01
8.399343801265526377e-01
8.436840871806889908e-01
8.436840871806889908e-01
8.457932973986407310e-01
8.457932973986407310e-01
8.462620107804077474e-01
8.462620107804077474e-01
8.498945394891024296e-01
8.498945394891024296e-01
8.505976095617530097e-01
8.505976095617530097e-01
8.529411764705882026e-01
8.529411764705882026e-01
8.548160299976563792e-01
8.548160299976563792e-01
8.576283102882586995e-01
8.576283102882586995e-01
8.578626669791422632e-01
8.578626669791422632e-01
8.595031638153268760e-01
8.595031638153268760e-01
8.612608389969533818e-01
8.612608389969533818e-01
8.618467307241621800e-01
8.618467307241621800e-01
8.645418326693227185e-01
8.645418326693227185e-01
8.675884696508084915e-01
8.675884696508084915e-01
8.681743613780172897e-01
8.681743613780172897e-01
8.696976798687602317e-01
8.696976798687602317e-01
8.727443168502461157e-01
8.727443168502461157e-01
8.760253105226154524e-01
8.760253105226154524e-01
8.769627372861494852e-01
8.769627372861494852e-01
8.773142723224748307e-01
8.773142723224748307e-01
8.787204124677759909e-01
8.787204124677759909e-01
8.789547691586594436e-01
8.790719475041012254e-01
8.812983360674947475e-01
8.812983360674947475e-01
8.815326927583782002e-01
8.815326927583782002e-01
8.818842277947035457e-01
8.818842277947035457e-01
8.882118584485586554e-01
8.882118584485586554e-01
8.889149285212092355e-01
8.889149285212092355e-01
8.895008202484181448e-01
8.895008202484181448e-01
8.916100304663697740e-01
8.916100304663697740e-01
8.951253808296226744e-01
8.951253808296226744e-01
8.958284509022732545e-01
8.958284509022732545e-01
8.980548394656667766e-01
8.980548394656667766e-01
8.981720178111085584e-01
8.981720178111085584e-01
8.987579095383173566e-01
8.987579095383173566e-01
9.030935083196625079e-01
9.030935083196625079e-01
9.066088586829154083e-01
9.066088586829154083e-01
9.076634637918912230e-01
9.076634637918912230e-01
9.082493555191000212e-01
9.082493555191000212e-01
9.083665338645418030e-01
9.083665338645418030e-01
9.087180689008671486e-01
9.087180689008671486e-01
9.136395594094210981e-01
9.136395594094210981e-01
9.143426294820716782e-01
9.143426294820716782e-01
9.158659479728146202e-01
9.158659479728146202e-01
9.162174830091399658e-01
9.162174830091399658e-01
9.169205530817904348e-01
9.169205530817904348e-01
9.176236231544410149e-01
9.176236231544410149e-01
9.184438715725333768e-01
9.184438715725333768e-01
9.194984766815093025e-01
9.194984766815093025e-01
9.216076868994609317e-01
9.216076868994609317e-01
9.239512538082962356e-01
9.239512538082962356e-01
9.309819545348019254e-01
9.309819545348019254e-01
9.346144832434966077e-01
9.346144832434966077e-01
9.367236934614483479e-01
9.367236934614483479e-01
9.383641902976329607e-01
9.383641902976329607e-01
9.384813686430747426e-01
9.384813686430747426e-01
9.389500820248417590e-01
9.389500820248417590e-01
9.430513241153034576e-01
9.430513241153034576e-01
9.443402859151628359e-01
9.443402859151628359e-01
9.462151394422311235e-01
9.462151394422311235e-01
9.477384579329739545e-01
9.477384579329739545e-01
9.490274197328333328e-01
9.490274197328333328e-01
9.528943051324115787e-01
9.528943051324115787e-01
9.537145535505038296e-01
9.537145535505038296e-01
9.547691586594797553e-01
9.547691586594797553e-01
9.561752988047809154e-01
9.561752988047809154e-01
9.572299039137567300e-01
9.572299039137567300e-01
9.591047574408249066e-01
9.591047574408249066e-01
9.595734708225920340e-01
9.595734708225920340e-01
9.605108975861260667e-01
9.605108975861260667e-01
9.632059995312866052e-01
9.632059995312866052e-01
9.650808530583547817e-01
9.650808530583547817e-01
9.669557065854230693e-01
9.669557065854230693e-01
9.675415983126318675e-01
9.675415983126318675e-01
9.700023435669088423e-01
9.700023435669088423e-01
9.708225919850012042e-01
9.708225919850012042e-01
9.710569486758846569e-01
9.710569486758846569e-01
9.738692289664869772e-01
9.738692289664869772e-01
9.760956175298804993e-01
9.760956175298804993e-01
9.765643309116475157e-01
9.765643309116475157e-01
9.784391844387156922e-01
9.784391844387156922e-01
9.799625029294586342e-01
9.799625029294586342e-01
9.817201781110850289e-01
9.817201781110850289e-01
9.830091399109444072e-01
9.830091399109444072e-01
9.845324584016873493e-01
9.845324584016873493e-01
9.859385985469885094e-01
9.859385985469885094e-01
9.871103820014061059e-01
9.871103820014061059e-01
9.895711272556831917e-01
9.895711272556831917e-01
9.898054839465666443e-01
9.898054839465666443e-01
9.900398406374502080e-01
9.900398406374502080e-01
9.906257323646590063e-01
9.906257323646590063e-01
9.915631591281931501e-01
9.915631591281931501e-01
9.916803374736348209e-01
9.916803374736348209e-01
9.921490508554019483e-01
9.921490508554019483e-01
9.940239043824701248e-01
9.940239043824701248e-01
9.966018279821888814e-01
9.966018279821888814e-01
9.968361846730724452e-01
9.968361846730724452e-01
9.978907897820482598e-01
9.978907897820482598e-01
9.980079681274900416e-01
9.980079681274900416e-01
9.983595031638152761e-01
9.983595031638152761e-01
9.984766815092570580e-01
9.984766815092570580e-01
9.985938598546988398e-01
9.985938598546988398e-01
9.987110382001406217e-01
9.987110382001406217e-01
9.996484649636747655e-01
9.996484649636747655e-01
1.000000000000000000e+00
