0.000000000000000000e+00
4.000000000000000083e-03
4.000000000000000083e-03
8.000000000000000167e-03
8.000000000000000167e-03
8.000000000000000167e-03
8.000000000000000167e-03
1.000000000000000021e-02
1.200000000000000025e-02
1.200000000000000025e-02
1.400000000000000029e-02
1.400000000000000029e-02
1.600000000000000033e-02
1.600000000000000033e-02
2.199999999999999872e-02
2.199999999999999872e-02
2.400000000000000050e-02
2.400000000000000050e-02
2.999999999999999889e-02
2.999999999999999889e-02
3.200000000000000067e-02
3.200000000000000067e-02
3.400000000000000244e-02
3.400000000000000244e-02
3.599999999999999728e-02
3.599999999999999728e-02
3.799999999999999906e-02
3.799999999999999906e-02
4.000000000000000083e-02
4.000000000000000083e-02
4.599999999999999922e-02
4.599999999999999922e-02
4.800000000000000100e-02
4.800000000000000100e-02
5.000000000000000278e-02
5.000000000000000278e-02
5.199999999999999761e-02
5.199999999999999761e-02
5.399999999999999939e-02
5.399999999999999939e-02
5.600000000000000117e-02
5.600000000000000117e-02
5.800000000000000294e-02
5.800000000000000294e-02
5.999999999999999778e-02
5.999999999999999778e-02
6.400000000000000133e-02
6.400000000000000133e-02
6.600000000000000311e-02
6.600000000000000311e-02
6.800000000000000488e-02
6.800000000000000488e-02
7.000000000000000666e-02
7.000000000000000666e-02
7.199999999999999456e-02
7.199999999999999456e-02
7.399999999999999634e-02
7.399999999999999634e-02
7.599999999999999811e-02
7.599999999999999811e-02
7.799999999999999989e-02
8.000000000000000167e-02
8.000000000000000167e-02
8.200000000000000344e-02
8.200000000000000344e-02
8.400000000000000522e-02
8.400000000000000522e-02
8.599999999999999312e-02
8.599999999999999312e-02
8.799999999999999489e-02
8.799999999999999489e-02
8.999999999999999667e-02
8.999999999999999667e-02
9.199999999999999845e-02
9.199999999999999845e-02
9.400000000000000022e-02
9.400000000000000022e-02
9.600000000000000200e-02
9.600000000000000200e-02
1.000000000000000056e-01
1.000000000000000056e-01
1.019999999999999934e-01
1.019999999999999934e-01
1.039999999999999952e-01
1.039999999999999952e-01
1.059999999999999970e-01
1.059999999999999970e-01
1.079999999999999988e-01
1.079999999999999988e-01
1.120000000000000023e-01
1.120000000000000023e-01
1.160000000000000059e-01
1.160000000000000059e-01
1.179999999999999938e-01
1.179999999999999938e-01
1.199999999999999956e-01
1.199999999999999956e-01
1.239999999999999991e-01
1.239999999999999991e-01
1.260000000000000009e-01
1.260000000000000009e-01
1.360000000000000098e-01
1.360000000000000098e-01
1.380000000000000115e-01
1.380000000000000115e-01
1.439999999999999891e-01
1.439999999999999891e-01
1.459999999999999909e-01
1.459999999999999909e-01
1.519999999999999962e-01
1.519999999999999962e-01
1.539999999999999980e-01
1.539999999999999980e-01
1.559999999999999998e-01
1.559999999999999998e-01
1.580000000000000016e-01
1.580000000000000016e-01
1.640000000000000069e-01
1.640000000000000069e-01
1.660000000000000087e-01
1.660000000000000087e-01
1.700000000000000122e-01
1.700000000000000122e-01
1.719999999999999862e-01
1.719999999999999862e-01
1.839999999999999969e-01
1.839999999999999969e-01
1.859999999999999987e-01
1.859999999999999987e-01
1.920000000000000040e-01
1.920000000000000040e-01
2.059999999999999887e-01
2.059999999999999887e-01
2.079999999999999905e-01
2.079999999999999905e-01
2.119999999999999940e-01
2.119999999999999940e-01
2.159999999999999976e-01
2.159999999999999976e-01
2.179999999999999993e-01
2.179999999999999993e-01
2.200000000000000011e-01
2.200000000000000011e-01
2.220000000000000029e-01
2.220000000000000029e-01
2.379999999999999893e-01
2.379999999999999893e-01
2.439999999999999947e-01
2.439999999999999947e-01
2.479999999999999982e-01
2.479999999999999982e-01
2.600000000000000089e-01
2.600000000000000089e-01
2.620000000000000107e-01
2.620000000000000107e-01
2.640000000000000124e-01
2.640000000000000124e-01
2.680000000000000160e-01
2.680000000000000160e-01
2.720000000000000195e-01
2.720000000000000195e-01
2.760000000000000231e-01
2.760000000000000231e-01
2.800000000000000266e-01
2.800000000000000266e-01
2.839999999999999747e-01
2.839999999999999747e-01
2.899999999999999800e-01
2.899999999999999800e-01
2.919999999999999818e-01
2.919999999999999818e-01
2.939999999999999836e-01
2.939999999999999836e-01
2.959999999999999853e-01
2.959999999999999853e-01
2.979999999999999871e-01
2.979999999999999871e-01
3.019999999999999907e-01
3.019999999999999907e-01
3.059999999999999942e-01
3.059999999999999942e-01
3.079999999999999960e-01
3.079999999999999960e-01
3.099999999999999978e-01
3.099999999999999978e-01
3.119999999999999996e-01
3.119999999999999996e-01
3.180000000000000049e-01
3.180000000000000049e-01
3.220000000000000084e-01
3.220000000000000084e-01
3.240000000000000102e-01
3.240000000000000102e-01
3.300000000000000155e-01
3.300000000000000155e-01
3.360000000000000209e-01
3.360000000000000209e-01
3.519999999999999796e-01
3.519999999999999796e-01
3.559999999999999831e-01
3.559999999999999831e-01
3.639999999999999902e-01
3.639999999999999902e-01
3.800000000000000044e-01
3.800000000000000044e-01
3.820000000000000062e-01
3.820000000000000062e-01
3.840000000000000080e-01
3.840000000000000080e-01
3.920000000000000151e-01
3.920000000000000151e-01
3.940000000000000169e-01
3.940000000000000169e-01
4.060000000000000275e-01
4.060000000000000275e-01
4.119999999999999774e-01
4.119999999999999774e-01
4.219999999999999862e-01
4.219999999999999862e-01
4.319999999999999951e-01
4.319999999999999951e-01
4.339999999999999969e-01
4.339999999999999969e-01
4.380000000000000004e-01
4.380000000000000004e-01
4.400000000000000022e-01
4.400000000000000022e-01
4.480000000000000093e-01
4.480000000000000093e-01
4.500000000000000111e-01
4.500000000000000111e-01
4.719999999999999751e-01
4.719999999999999751e-01
4.839999999999999858e-01
4.839999999999999858e-01
4.919999999999999929e-01
4.919999999999999929e-01
4.959999999999999964e-01
4.959999999999999964e-01
5.000000000000000000e-01
5.000000000000000000e-01
5.100000000000000089e-01
5.100000000000000089e-01
5.160000000000000142e-01
5.160000000000000142e-01
5.220000000000000195e-01
5.220000000000000195e-01
5.280000000000000249e-01
5.280000000000000249e-01
5.320000000000000284e-01
5.320000000000000284e-01
5.440000000000000391e-01
5.440000000000000391e-01
5.480000000000000426e-01
5.480000000000000426e-01
5.540000000000000480e-01
5.540000000000000480e-01
5.639999999999999458e-01
5.639999999999999458e-01
5.819999999999999618e-01
5.819999999999999618e-01
5.899999999999999689e-01
5.899999999999999689e-01
5.939999999999999725e-01
5.939999999999999725e-01
6.019999999999999796e-01
6.019999999999999796e-01
6.059999999999999831e-01
6.059999999999999831e-01
6.139999999999999902e-01
6.139999999999999902e-01
6.239999999999999991e-01
6.239999999999999991e-01
6.260000000000000009e-01
6.260000000000000009e-01
6.280000000000000027e-01
6.280000000000000027e-01
6.340000000000000080e-01
6.340000000000000080e-01
6.380000000000000115e-01
6.380000000000000115e-01
6.400000000000000133e-01
6.400000000000000133e-01
6.440000000000000169e-01
6.440000000000000169e-01
6.540000000000000258e-01
6.540000000000000258e-01
6.560000000000000275e-01
6.560000000000000275e-01
6.680000000000000382e-01
6.680000000000000382e-01
6.740000000000000435e-01
6.740000000000000435e-01
6.820000000000000506e-01
6.820000000000000506e-01
6.879999999999999449e-01
6.879999999999999449e-01
6.919999999999999485e-01
6.919999999999999485e-01
6.979999999999999538e-01
6.979999999999999538e-01
7.079999999999999627e-01
7.079999999999999627e-01
7.219999999999999751e-01
7.219999999999999751e-01
7.319999999999999840e-01
7.319999999999999840e-01
7.479999999999999982e-01
7.479999999999999982e-01
7.540000000000000036e-01
7.540000000000000036e-01
7.560000000000000053e-01
7.560000000000000053e-01
7.620000000000000107e-01
7.620000000000000107e-01
8.040000000000000480e-01
8.040000000000000480e-01
8.159999999999999476e-01
8.159999999999999476e-01
8.179999999999999494e-01
8.179999999999999494e-01
8.259999999999999565e-01
8.259999999999999565e-01
8.359999999999999654e-01
8.359999999999999654e-01
8.499999999999999778e-01
8.499999999999999778e-01
8.519999999999999796e-01
8.519999999999999796e-01
8.619999999999999885e-01
8.619999999999999885e-01
8.719999999999999973e-01
8.719999999999999973e-01
8.760000000000000009e-01
8.760000000000000009e-01
8.780000000000000027e-01
8.780000000000000027e-01
8.900000000000000133e-01
8.900000000000000133e-01
8.940000000000000169e-01
8.940000000000000169e-01
8.980000000000000204e-01
8.980000000000000204e-01
9.080000000000000293e-01
9.080000000000000293e-01
9.100000000000000311e-01
9.100000000000000311e-01
9.240000000000000435e-01
9.240000000000000435e-01
9.399999999999999467e-01
9.399999999999999467e-01
9.719999999999999751e-01
9.719999999999999751e-01
9.979999999999999982e-01
9.979999999999999982e-01
1.000000000000000000e+00
