0.000000000000000000e+00
0.000000000000000000e+00
0.000000000000000000e+00
5.993996996996244810e-03
5.993996996996244810e-03
8.468293806901127513e-03
8.468293806901127513e-03
1.036108102468077420e-02
1.036108102468077420e-02
1.195190361406918422e-02
1.195190361406918422e-02
1.334915727677219235e-02
1.334915727677219235e-02
1.460849068179187124e-02
1.460849068179187124e-02
1.576299463934438885e-02
1.576299463934438885e-02
1.683425080008017771e-02
1.783726436424599299e-02
1.783726436424599299e-02
1.878297101099823257e-02
1.878297101099823257e-02
1.967963414294076480e-02
1.967963414294076480e-02
2.053367965075914015e-02
2.053367965075914015e-02
2.135022248127639577e-02
2.135022248127639577e-02
2.213341365447273404e-02
2.213341365447273404e-02
2.288667734731278033e-02
2.288667734731278033e-02
2.431444015394966518e-02
2.431444015394966518e-02
2.499343913910208673e-02
2.499343913910208673e-02
2.565166661252246683e-02
2.565166661252246683e-02
2.629068276024797146e-02
2.629068276024797146e-02
2.751639511273233293e-02
2.751639511273233293e-02
2.867974895287613707e-02
2.867974895287613707e-02
2.978805129577965019e-02
2.978805129577965019e-02
3.186220331364419955e-02
3.186220331364419955e-02
3.235441237296699662e-02
3.235441237296699662e-02
3.331053887285524012e-02
3.331053887285524012e-02
3.467979238692180805e-02
3.467979238692180805e-02
3.512025056858222166e-02
3.512025056858222166e-02
3.639780213144744314e-02
3.639780213144744314e-02
3.680988997538569424e-02
3.680988997538569424e-02
3.721548064985860660e-02
3.721548064985860660e-02
3.761478432744231465e-02
3.761478432744231465e-02
3.800799915807197282e-02
3.800799915807197282e-02
3.839531221386277560e-02
3.839531221386277560e-02
3.877690034027990451e-02
3.877690034027990451e-02
3.915293092477241388e-02
3.915293092477241388e-02
3.988894583716145331e-02
3.988894583716145331e-02
4.024922359499621960e-02
4.024922359499621960e-02
4.060453176678682080e-02
4.060453176678682080e-02
4.095499969478696295e-02
4.095499969478696295e-02
4.130075059850607522e-02
4.130075059850607522e-02
4.197856595930832269e-02
4.197856595930832269e-02
4.231084967239490124e-02
4.231084967239490124e-02
4.328242137404052226e-02
4.328242137404052226e-02
4.359816509900388271e-02
4.359816509900388271e-02
4.421800538242311868e-02
4.421800538242311868e-02
4.511984042524973260e-02
4.511984042524973260e-02
4.541330201603931138e-02
4.541330201603931138e-02
4.570330403811085490e-02
4.570330403811085490e-02
4.598991193729337623e-02
4.598991193729337623e-02
4.627318878140990882e-02
4.627318878140990882e-02
4.682999039077415104e-02
4.682999039077415104e-02
4.710363043333283539e-02
4.710363043333283539e-02
4.737417017742896752e-02
4.737417017742896752e-02
4.764166243950771623e-02
4.764166243950771623e-02
4.816770702452006364e-02
4.816770702452006364e-02
4.842635646009309236e-02
4.842635646009309236e-02
4.943286356261388653e-02
4.943286356261388653e-02
4.967768110530119963e-02
4.967768110530119963e-02
4.991985576902241428e-02
4.991985576902241428e-02
5.015942583403441846e-02
5.015942583403441846e-02
5.039642844488089607e-02
5.039642844488089607e-02
5.063089965623759903e-02
5.063089965623759903e-02
5.109238690842306252e-02
5.109238690842306252e-02
5.131946998946890909e-02
5.131946998946890909e-02
5.154415582779487554e-02
5.154415582779487554e-02
5.263268946196840437e-02
5.263268946196840437e-02
5.284361834696787996e-02
5.284361834696787996e-02
5.305235150302010927e-02
5.305235150302010927e-02
5.325891474673512260e-02
5.325891474673512260e-02
5.366563145999495715e-02
5.366563145999495715e-02
5.386583332688726911e-02
5.386583332688726911e-02
5.406396211895684450e-02
5.406396211895684450e-02
5.426004054550641331e-02
5.426004054550641331e-02
5.445409075542442107e-02
5.445409075542442107e-02
5.464613435550587373e-02
5.464613435550587373e-02
5.483619242799413207e-02
5.483619242799413207e-02
5.502428554738353350e-02
5.502428554738353350e-02
5.539465678203991245e-02
5.539465678203991245e-02
5.557697364916516780e-02
5.557697364916516780e-02
5.611267236551828463e-02
5.611267236551828463e-02
5.646060573532664384e-02
5.646060573532664384e-02
5.713499803097921853e-02
5.713499803097921853e-02
5.746170898955233614e-02
5.746170898955233614e-02
5.778158876320380749e-02
5.778158876320380749e-02
5.809475019311124977e-02
5.809475019311124977e-02
5.855213061879131764e-02
5.855213061879131764e-02
5.870134581080743708e-02
5.870134581080743708e-02
5.899498283752610539e-02
5.899498283752610539e-02
5.956341158798746788e-02
5.956341158798746788e-02
5.970165826842668139e-02
5.970165826842668139e-02
5.997359418944307047e-02
5.997359418944307047e-02
6.023952191045343907e-02
6.023952191045343907e-02
6.049952065925812139e-02
6.049952065925812139e-02
6.062732057414380038e-02
6.062732057414380038e-02
6.075366655601947830e-02
6.075366655601947830e-02
6.087856765726341879e-02
6.087856765726341879e-02
6.124468956570846417e-02
6.124468956570846417e-02
6.136389818125963236e-02
6.136389818125963236e-02
6.182679030970311684e-02
6.182679030970311684e-02
6.204997985495240564e-02
6.204997985495240564e-02
6.226774445890905646e-02
6.226774445890905646e-02
6.248014084491167186e-02
6.248014084491167186e-02
6.258434308994542672e-02
6.258434308994542672e-02
6.278878880819410702e-02
6.278878880819410702e-02
6.318202275964263093e-02
6.327710486423979153e-02
6.337090815192725213e-02
6.337090815192725213e-02
6.346343829324092856e-02
6.346343829324092856e-02
6.355470084895373239e-02
6.355470084895373239e-02
6.390718269490526515e-02
6.390718269490526515e-02
6.399218702310462137e-02
6.399218702310462137e-02
6.423980074688899478e-02
6.423980074688899478e-02
6.447641429235964616e-02
6.447641429235964616e-02
6.455286205893584484e-02
6.455286205893584484e-02
6.462810534125226769e-02
6.462810534125226769e-02
6.477499517560769693e-02
6.477499517560769693e-02
6.484664987491643717e-02
6.484664987491643717e-02
6.491711638697456044e-02
6.498639857693300215e-02
6.498639857693300215e-02
6.505450022865444382e-02
6.505450022865444382e-02
6.512142504583265379e-02
6.512142504583265379e-02
6.525175859699108849e-02
6.525175859699108849e-02
6.531517434716070658e-02
6.531517434716070658e-02
6.537742729719486778e-02
6.537742729719486778e-02
6.543852076567746590e-02
6.543852076567746590e-02
6.549845799711623284e-02
6.549845799711623284e-02
6.555724216286099026e-02
6.555724216286099026e-02
6.561487636199583862e-02
6.561487636199583862e-02
6.588590137502864374e-02
6.588590137502864374e-02
6.593669691454069615e-02
6.593669691454069615e-02
6.598636222735725088e-02
6.598636222735725088e-02
6.608231230821150215e-02
6.608231230821150215e-02
6.617377123906419134e-02
6.617377123906419134e-02
6.626075761715979895e-02
6.626075761715979895e-02
6.634328903513904419e-02
6.634328903513904419e-02
6.638288936164198073e-02
6.638288936164198073e-02
6.645876917307451393e-02
6.645876917307451393e-02
6.662918279552887402e-02
6.662918279552887402e-02
6.668966936490239306e-02
6.668966936490239306e-02
6.671827335895316735e-02
6.671827335895316735e-02
6.674578638386095830e-02
6.674578638386095830e-02
6.677220978820455621e-02
6.677220978820455621e-02
6.679754486506223055e-02
6.679754486506223055e-02
6.684495493303889424e-02
6.684495493303889424e-02
6.686703223562415199e-02
6.686703223562415199e-02
6.688802583422537307e-02
6.688802583422537307e-02
6.692676594606973561e-02
6.692676594606973561e-02
6.694451433836831611e-02
6.694451433836831611e-02
6.696118278525253764e-02
6.696118278525253764e-02
6.697677209301743095e-02
6.697677209301743095e-02
6.700471625191767311e-02
6.700471625191767311e-02
6.706271691484025355e-02
6.706271691484025355e-02
6.706862157521950585e-02
6.706862157521950585e-02
6.707345227435367041e-02
6.707345227435367041e-02
6.707720924427311437e-02
6.707720924427311437e-02
6.707720924427311437e-02
6.707720924427311437e-02
6.707345227435367041e-02
6.707345227435367041e-02
6.700471625191767311e-02
6.700471625191767311e-02
6.699128301503114169e-02
6.699128301503114169e-02
6.696118278525253764e-02
6.696118278525253764e-02
6.694451433836830223e-02
6.694451433836830223e-02
6.692676594606973561e-02
6.692676594606973561e-02
6.684495493303888036e-02
6.684495493303888036e-02
6.682179285233223742e-02
6.682179285233223742e-02
6.677220978820455621e-02
6.677220978820455621e-02
6.662918279552887402e-02
6.662918279552887402e-02
6.659729724245570803e-02
6.659729724245570803e-02
6.656431476399346514e-02
6.656431476399346514e-02
6.649505244753176059e-02
6.649505244753176059e-02
6.630257913535490821e-02
6.630257913535490821e-02
6.598636222735725088e-02
6.598636222735725088e-02
6.578090908462728981e-02
6.578090908462728981e-02
6.567136362220599155e-02
6.567136362220599155e-02
6.549845799711623284e-02
6.549845799711623284e-02
6.484664987491643717e-02
6.484664987491643717e-02
6.477499517560769693e-02
6.477499517560769693e-02
6.447641429235964616e-02
6.447641429235964616e-02
6.439875775199394026e-02
6.439875775199394026e-02
6.423980074688899478e-02
6.423980074688899478e-02
6.415849125408108755e-02
6.415849125408108755e-02
6.382093700346305742e-02
6.382093700346305742e-02
6.373344490924683081e-02
6.373344490924683081e-02
6.337090815192725213e-02
6.337090815192725213e-02
6.327710486423979153e-02
6.327710486423979153e-02
6.318202275964263093e-02
6.318202275964263093e-02
6.278878880819410702e-02
6.278878880819410702e-02
6.258434308994542672e-02
6.258434308994542672e-02
6.237461021922301174e-02
6.237461021922301174e-02
6.226774445890905646e-02
6.226774445890905646e-02
6.204997985495240564e-02
6.204997985495240564e-02
6.171314284656065352e-02
6.171314284656065352e-02
6.087856765726342573e-02
6.087856765726342573e-02
6.062732057414380038e-02
6.062732057414380038e-02
5.928230764739172987e-02
5.928230764739172987e-02
5.913942847204393255e-02
5.913942847204393255e-02
5.870134581080743708e-02
5.870134581080743708e-02
5.855213061879131764e-02
5.855213061879131764e-02
5.840130135536364397e-02
5.840130135536364397e-02
5.809475019311124977e-02
5.809475019311124977e-02
5.762249560718452068e-02
5.762249560718452068e-02
5.729921465430394545e-02
5.729921465430394545e-02
5.713499803097921853e-02
5.713499803097921853e-02
5.696904422578984856e-02
5.696904422578984856e-02
5.611267236551828463e-02
5.611267236551828463e-02
5.539465678203991245e-02
5.539465678203991245e-02
5.445409075542442107e-02
5.445409075542442107e-02
5.325891474673512260e-02
5.325891474673512260e-02
5.263268946196839049e-02
5.263268946196839049e-02
5.241953834211056373e-02
5.241953834211056373e-02
5.220413776703912434e-02
5.220413776703912434e-02
5.015942583403443233e-02
5.015942583403443233e-02
4.991985576902241428e-02
4.991985576902241428e-02
4.967768110530119963e-02
4.967768110530119963e-02
4.918536367660607950e-02
4.918536367660607950e-02
4.764166243950771623e-02
4.764166243950771623e-02
4.737417017742896752e-02
4.737417017742896752e-02
4.570330403811085490e-02
4.570330403811085490e-02
4.328242137404052226e-02
4.328242137404052226e-02
4.296268148055937958e-02
4.296268148055937958e-02
4.263885551934995521e-02
4.263885551934995521e-02
4.164190197385320841e-02
4.164190197385320841e-02
4.130075059850607522e-02
4.130075059850607522e-02
3.839531221386276866e-02
3.839531221386276866e-02
3.800799915807197282e-02
3.800799915807197282e-02
3.555322770157443024e-02
3.555322770157443024e-02
3.423156438143018510e-02
3.423156438143018510e-02
3.377525721589695606e-02
3.377525721589695606e-02
3.186220331364422731e-02
3.186220331364422731e-02
2.053367965075914708e-02
2.053367965075914708e-02
1.334915727677219929e-02
1.334915727677219929e-02
1.195190361406918769e-02
1.195190361406918769e-02
1.036108102468077767e-02
1.036108102468077767e-02
8.468293806901130982e-03
8.468293806901130982e-03
0.000000000000000000e+00
0.000000000000000000e+00
