0.000000000000000000e+00
7.558263045125715451e-02
7.612536638357675356e-02
7.922211652095387246e-02
8.296405851043511803e-02
8.296405851043511803e-02
9.036704573550502495e-02
9.036704573550502495e-02
9.552786093948673063e-02
9.552786093948673063e-02
9.579381434579700705e-02
9.579381434579700705e-02
9.656812240171350203e-02
9.656812240171350203e-02
9.706501291401281595e-02
9.706501291401281595e-02
9.754672809564966796e-02
9.754672809564966796e-02
9.846551634758624050e-02
9.846551634758624050e-02
9.932614714405682554e-02
9.932614714405682554e-02
1.001301201079113912e-01
1.001301201079113912e-01
1.003224222987449676e-01
1.003224222987449676e-01
1.005112885179653692e-01
1.005112885179653692e-01
1.010574622383201698e-01
1.010574622383201698e-01
1.012327730533320452e-01
1.012327730533320452e-01
1.030802168137998076e-01
1.030802168137998076e-01
1.033431464896082674e-01
1.033431464896082674e-01
1.035935022901014468e-01
1.035935022901014468e-01
1.037139936208902324e-01
1.037139936208902324e-01
1.038313751688277053e-01
1.038313751688277053e-01
1.039456574691633439e-01
1.039456574691633439e-01
1.042700094081848161e-01
1.042700094081848161e-01
1.044709265862778513e-01
1.044709265862778513e-01
1.045668168330096959e-01
1.045668168330096959e-01
1.047495024615709425e-01
1.047495024615709425e-01
1.048363136919282235e-01
1.048363136919282235e-01
1.051535196019856289e-01
1.051535196019856289e-01
1.052253452843271153e-01
1.052253452843271153e-01
1.053600693954792333e-01
1.053600693954792333e-01
1.054829280888548160e-01
1.054829280888548160e-01
1.055399210094178503e-01
1.055399210094178503e-01
1.055939627807423176e-01
1.055939627807423176e-01
1.057384252128178159e-01
1.057384252128178159e-01
1.057807051305542784e-01
1.057807051305542784e-01
1.058564751092320455e-01
1.058564751092320455e-01
1.059205458329479377e-01
1.059205458329479377e-01
1.059482007583668339e-01
1.059482007583668339e-01
1.059947611652543864e-01
1.059947611652543864e-01
1.060296680528021174e-01
1.060296680528021174e-01
1.060645634521516223e-01
1.060645634521516223e-01
1.060529329281348354e-01
1.060529329281348354e-01
1.060427551732221890e-01
1.060427551732221890e-01
1.059729385216422182e-01
1.059729385216422182e-01
1.059482007583668339e-01
1.059482007583668339e-01
1.058899714597895669e-01
1.058899714597895669e-01
1.057807051305542784e-01
1.057807051305542784e-01
1.056932107358228012e-01
1.056932107358228012e-01
1.055939627807423176e-01
1.055939627807423176e-01
1.055399210094178503e-01
1.055399210094178503e-01
1.053600693954792333e-01
1.053600693954792333e-01
1.052941932697028377e-01
1.052941932697028377e-01
1.050787101165382986e-01
1.050787101165382986e-01
1.050009104504184415e-01
1.050009104504184415e-01
1.049201139518495252e-01
1.049201139518495252e-01
1.047495024615709425e-01
1.047495024615709425e-01
1.046596727683204997e-01
1.046596727683204997e-01
1.042700094081848161e-01
1.042700094081848161e-01
1.041649648536550343e-01
1.041649648536550343e-01
1.040568507333102799e-01
1.040568507333102799e-01
1.039456574691633439e-01
1.039456574691633439e-01
1.037139936208902324e-01
1.037139936208902324e-01
1.035935022901014468e-01
1.035935022901014468e-01
1.034698903123775771e-01
1.034698903123775771e-01
1.032132592842644747e-01
1.032132592842644747e-01
1.030802168137998076e-01
1.030802168137998076e-01
1.029440068448384260e-01
1.029440068448384260e-01
1.028046167871428662e-01
1.028046167871428662e-01
1.019007429317817376e-01
1.019007429317817376e-01
1.015733793563858012e-01
1.015733793563858012e-01
1.014047397643539627e-01
1.014047397643539627e-01
1.012327730533320452e-01
1.012327730533320452e-01
1.010574622383201698e-01
1.010574622383201698e-01
1.006967380990398675e-01
1.006967380990398675e-01
1.003224222987449676e-01
1.003224222987449676e-01
1.001301201079113912e-01
1.001301201079113912e-01
9.973512795636152450e-02
9.973512795636152450e-02
9.953239677201500268e-02
9.953239677201500268e-02
9.911635710807184529e-02
9.911635710807184529e-02
9.868606511525221392e-02
9.868606511525221392e-02
9.846551634758624050e-02
9.846551634758624050e-02
9.801349169731535249e-02
9.801349169731535249e-02
9.754672809564966796e-02
9.754672809564966796e-02
9.730775316893586213e-02
9.730775316893586213e-02
9.706501291401284370e-02
9.706501291401284370e-02
9.579381434579700705e-02
9.579381434579700705e-02
9.525792778043092046e-02
9.525792778043092046e-02
9.442390595930347241e-02
9.442390595930347241e-02
9.413770534872428764e-02
9.413770534872428764e-02
9.325399544794175932e-02
9.325399544794175932e-02
9.295092350848679907e-02
9.295092350848679907e-02
9.264353153754111003e-02
9.264353153754111003e-02
9.233177638822498423e-02
9.233177638822498423e-02
9.201561371231503639e-02
9.201561371231503639e-02
9.169499791860932780e-02
9.169499791860932780e-02
9.136988212931300424e-02
9.136988212931300424e-02
9.070595634333557256e-02
9.070595634333557256e-02
9.036704573550501107e-02
9.036704573550501107e-02
9.002343380674618367e-02
9.002343380674618367e-02
8.967506651429570097e-02
8.967506651429570097e-02
8.860086770368870435e-02
8.860086770368870435e-02
8.823290565427541199e-02
8.823290565427541199e-02
8.748176453792343155e-02
8.748176453792343155e-02
8.670989318125733869e-02
8.670989318125733869e-02
8.551198485120126147e-02
8.551198485120126147e-02
8.426412460945656435e-02
8.426412460945656435e-02
8.383668782250797147e-02
8.383668782250797147e-02
8.340336320850785801e-02
8.340336320850785801e-02
8.296405851043511803e-02
8.296405851043511803e-02
8.251867821982193651e-02
8.251867821982193651e-02
8.206712341955894885e-02
8.206712341955894885e-02
8.160929161662119902e-02
8.160929161662119902e-02
8.114507656391302393e-02
8.114507656391302393e-02
8.019705179823923002e-02
8.019705179823923002e-02
7.971300904682393496e-02
7.971300904682393496e-02
7.922211652095387246e-02
7.922211652095387246e-02
7.821926448998156589e-02
7.821926448998156589e-02
7.770703310439300293e-02
7.770703310439300293e-02
7.612536638357675356e-02
7.612536638357675356e-02
7.558263045125716839e-02
7.558263045125716839e-02
7.503185913610170565e-02
7.503185913610170565e-02
7.447287415898018459e-02
7.447287415898018459e-02
7.332950911762102508e-02
7.332950911762102508e-02
7.274472990728426958e-02
7.274472990728426958e-02
7.215093756651536072e-02
7.215093756651536072e-02
7.093540468896405993e-02
7.093540468896405993e-02
7.031318100188291287e-02
7.031318100188291287e-02
6.968097622314847750e-02
6.968097622314847750e-02
6.903851615445834311e-02
6.903851615445834311e-02
6.838551176089001371e-02
6.838551176089001371e-02
6.772165802296364889e-02
6.772165802296364889e-02
6.636009478830660890e-02
6.636009478830660890e-02
6.566168326098888175e-02
6.566168326098888175e-02
6.495101506220524179e-02
6.495101506220524179e-02
6.349125528190913137e-02
6.349125528190913137e-02
6.274126973523816431e-02
6.274126973523816431e-02
6.197723452444666575e-02
6.197723452444666575e-02
5.959537781379756205e-02
5.959537781379756205e-02
5.876948775037603434e-02
5.876948775037603434e-02
5.792650140225037714e-02
5.792650140225037714e-02
5.706566112435063759e-02
5.706566112435063759e-02
5.528706567580535941e-02
5.528706567580535941e-02
5.246226131892954558e-02
5.246226131892954558e-02
5.147425007803330121e-02
5.147425007803330121e-02
5.046078893643229230e-02
5.046078893643229230e-02
4.942031221744169756e-02
4.942031221744169756e-02
4.835107589126284855e-02
4.835107589126284855e-02
4.725112761201465811e-02
4.725112761201465811e-02
4.611826993678444508e-02
4.611826993678444508e-02
4.495001472645293594e-02
4.495001472645293594e-02
4.374352599466059532e-02
4.374352599466059532e-02
4.249554740880216730e-02
4.249554740880216730e-02
3.846163598320172239e-02
3.846163598320172239e-02
3.547530935847714034e-02
3.547530935847714034e-02
3.217500066851543272e-02
3.217500066851543272e-02
3.037551770546658564e-02
3.037551770546658564e-02
2.411007554922839358e-02
2.411007554922839358e-02
2.159328861497517363e-02
2.159328861497517363e-02
1.083940346217973465e-02
1.083940346217973465e-02
0.000000000000000000e+00
