0.000000000000000000e+00
0.000000000000000000e+00
0.000000000000000000e+00
2.000000000000000042e-03
2.000000000000000042e-03
4.000000000000000083e-03
4.000000000000000083e-03
6.000000000000000125e-03
6.000000000000000125e-03
8.000000000000000167e-03
8.000000000000000167e-03
1.000000000000000021e-02
1.000000000000000021e-02
1.200000000000000025e-02
1.200000000000000025e-02
1.400000000000000029e-02
1.400000000000000029e-02
1.600000000000000033e-02
1.600000000000000033e-02
1.799999999999999864e-02
1.799999999999999864e-02
2.000000000000000042e-02
2.000000000000000042e-02
2.199999999999999872e-02
2.199999999999999872e-02
2.400000000000000050e-02
2.400000000000000050e-02
2.599999999999999881e-02
2.599999999999999881e-02
2.800000000000000058e-02
2.800000000000000058e-02
3.200000000000000067e-02
3.200000000000000067e-02
3.400000000000000244e-02
3.400000000000000244e-02
3.599999999999999728e-02
3.799999999999999906e-02
3.799999999999999906e-02
4.000000000000000083e-02
4.000000000000000083e-02
4.200000000000000261e-02
4.200000000000000261e-02
4.399999999999999745e-02
4.399999999999999745e-02
4.599999999999999922e-02
4.599999999999999922e-02
5.000000000000000278e-02
5.000000000000000278e-02
5.199999999999999761e-02
5.199999999999999761e-02
5.399999999999999939e-02
5.399999999999999939e-02
5.800000000000000294e-02
5.800000000000000294e-02
5.999999999999999778e-02
5.999999999999999778e-02
6.199999999999999956e-02
6.199999999999999956e-02
6.400000000000000133e-02
6.400000000000000133e-02
6.800000000000000488e-02
6.800000000000000488e-02
7.000000000000000666e-02
7.000000000000000666e-02
7.199999999999999456e-02
7.199999999999999456e-02
7.399999999999999634e-02
7.399999999999999634e-02
8.200000000000000344e-02
8.200000000000000344e-02
8.400000000000000522e-02
8.400000000000000522e-02
8.599999999999999312e-02
8.599999999999999312e-02
8.999999999999999667e-02
8.999999999999999667e-02
9.199999999999999845e-02
9.199999999999999845e-02
9.400000000000000022e-02
9.400000000000000022e-02
9.600000000000000200e-02
9.600000000000000200e-02
9.800000000000000377e-02
9.800000000000000377e-02
1.000000000000000056e-01
1.000000000000000056e-01
1.019999999999999934e-01
1.019999999999999934e-01
1.039999999999999952e-01
1.039999999999999952e-01
1.059999999999999970e-01
1.059999999999999970e-01
1.079999999999999988e-01
1.079999999999999988e-01
1.100000000000000006e-01
1.100000000000000006e-01
1.120000000000000023e-01
1.120000000000000023e-01
1.239999999999999991e-01
1.239999999999999991e-01
1.300000000000000044e-01
1.300000000000000044e-01
1.320000000000000062e-01
1.320000000000000062e-01
1.340000000000000080e-01
1.340000000000000080e-01
1.360000000000000098e-01
1.360000000000000098e-01
1.419999999999999873e-01
1.419999999999999873e-01
1.439999999999999891e-01
1.439999999999999891e-01
1.539999999999999980e-01
1.539999999999999980e-01
1.580000000000000016e-01
1.580000000000000016e-01
1.600000000000000033e-01
1.600000000000000033e-01
1.640000000000000069e-01
1.640000000000000069e-01
1.719999999999999862e-01
1.719999999999999862e-01
1.739999999999999880e-01
1.739999999999999880e-01
1.819999999999999951e-01
1.819999999999999951e-01
1.859999999999999987e-01
1.859999999999999987e-01
1.880000000000000004e-01
1.880000000000000004e-01
1.900000000000000022e-01
1.900000000000000022e-01
1.920000000000000040e-01
1.920000000000000040e-01
1.940000000000000058e-01
1.940000000000000058e-01
2.039999999999999869e-01
2.039999999999999869e-01
2.079999999999999905e-01
2.079999999999999905e-01
2.159999999999999976e-01
2.159999999999999976e-01
2.260000000000000064e-01
2.260000000000000064e-01
2.320000000000000118e-01
2.320000000000000118e-01
2.340000000000000135e-01
2.340000000000000135e-01
2.379999999999999893e-01
2.379999999999999893e-01
2.399999999999999911e-01
2.399999999999999911e-01
2.479999999999999982e-01
2.479999999999999982e-01
2.660000000000000142e-01
2.660000000000000142e-01
2.740000000000000213e-01
2.740000000000000213e-01
2.760000000000000231e-01
2.760000000000000231e-01
2.780000000000000249e-01
2.780000000000000249e-01
2.819999999999999729e-01
2.819999999999999729e-01
2.939999999999999836e-01
2.939999999999999836e-01
2.999999999999999889e-01
2.999999999999999889e-01
3.119999999999999996e-01
3.119999999999999996e-01
3.140000000000000013e-01
3.140000000000000013e-01
3.260000000000000120e-01
3.260000000000000120e-01
3.320000000000000173e-01
3.320000000000000173e-01
3.519999999999999796e-01
3.519999999999999796e-01
3.559999999999999831e-01
3.559999999999999831e-01
3.579999999999999849e-01
3.579999999999999849e-01
3.639999999999999902e-01
3.639999999999999902e-01
3.780000000000000027e-01
3.780000000000000027e-01
3.820000000000000062e-01
3.820000000000000062e-01
3.900000000000000133e-01
3.900000000000000133e-01
4.000000000000000222e-01
4.000000000000000222e-01
4.020000000000000240e-01
4.020000000000000240e-01
4.079999999999999738e-01
4.079999999999999738e-01
4.179999999999999827e-01
4.179999999999999827e-01
4.239999999999999880e-01
4.239999999999999880e-01
4.259999999999999898e-01
4.259999999999999898e-01
4.339999999999999969e-01
4.339999999999999969e-01
4.500000000000000111e-01
4.500000000000000111e-01
4.560000000000000164e-01
4.560000000000000164e-01
4.600000000000000200e-01
4.600000000000000200e-01
4.799999999999999822e-01
4.799999999999999822e-01
4.919999999999999929e-01
4.919999999999999929e-01
5.000000000000000000e-01
5.000000000000000000e-01
5.120000000000000107e-01
5.120000000000000107e-01
5.140000000000000124e-01
5.140000000000000124e-01
5.240000000000000213e-01
5.240000000000000213e-01
5.300000000000000266e-01
5.300000000000000266e-01
5.440000000000000391e-01
5.440000000000000391e-01
5.460000000000000409e-01
5.460000000000000409e-01
5.580000000000000515e-01
5.580000000000000515e-01
5.739999999999999547e-01
5.739999999999999547e-01
5.759999999999999565e-01
5.759999999999999565e-01
6.039999999999999813e-01
6.039999999999999813e-01
6.219999999999999973e-01
6.219999999999999973e-01
6.360000000000000098e-01
6.360000000000000098e-01
6.500000000000000222e-01
6.500000000000000222e-01
6.520000000000000240e-01
6.520000000000000240e-01
6.540000000000000258e-01
6.540000000000000258e-01
6.660000000000000364e-01
6.660000000000000364e-01
6.840000000000000524e-01
6.840000000000000524e-01
7.299999999999999822e-01
7.299999999999999822e-01
7.560000000000000053e-01
7.560000000000000053e-01
7.640000000000000124e-01
7.640000000000000124e-01
7.760000000000000231e-01
7.760000000000000231e-01
8.100000000000000533e-01
8.100000000000000533e-01
8.279999999999999583e-01
8.279999999999999583e-01
8.319999999999999618e-01
8.319999999999999618e-01
8.479999999999999760e-01
8.479999999999999760e-01
8.619999999999999885e-01
8.619999999999999885e-01
8.699999999999999956e-01
8.699999999999999956e-01
8.800000000000000044e-01
8.800000000000000044e-01
9.040000000000000258e-01
9.040000000000000258e-01
9.100000000000000311e-01
9.100000000000000311e-01
9.320000000000000506e-01
9.320000000000000506e-01
9.399999999999999467e-01
9.399999999999999467e-01
9.499999999999999556e-01
9.499999999999999556e-01
9.679999999999999716e-01
9.679999999999999716e-01
1.000000000000000000e+00
1.000000000000000000e+00
