0.000000000000000000e+00
0.000000000000000000e+00
0.000000000000000000e+00
3.499970815709471032e-04
3.499970815709471032e-04
3.499970815709471032e-04
3.499970815709471032e-04
4.949417406070115259e-04
4.949417406070115259e-04
6.061419870465618170e-04
6.061419870465618170e-04
6.061419870465618170e-04
6.998716330193330455e-04
6.998716330193330455e-04
6.998716330193330455e-04
6.998716330193330455e-04
6.998716330193330455e-04
6.998716330193330455e-04
6.998716330193330455e-04
6.998716330193330455e-04
6.998716330193330455e-04
6.998716330193330455e-04
6.998716330193330455e-04
6.998716330193330455e-04
6.998716330193330455e-04
6.998716330193330455e-04
6.998716330193330455e-04
6.998716330193330455e-04
6.998716330193330455e-04
6.998716330193330455e-04
6.998716330193330455e-04
6.998716330193330455e-04
6.998716330193330455e-04
6.998716330193330455e-04
6.998716330193330455e-04
6.998716330193330455e-04
6.998716330193330455e-04
6.998716330193330455e-04
6.998716330193330455e-04
6.998716330193330455e-04
7.824346038668534772e-04
7.824346038668534772e-04
7.824346038668534772e-04
7.824346038668534772e-04
7.824346038668534772e-04
7.824346038668534772e-04
7.824346038668534772e-04
7.824346038668534772e-04
7.824346038668534772e-04
7.824346038668534772e-04
7.824346038668534772e-04
7.824346038668534772e-04
7.824346038668534772e-04
7.824346038668534772e-04
8.570641331488265376e-04
8.570641331488265376e-04
8.570641331488265376e-04
8.570641331488265376e-04
8.570641331488265376e-04
8.570641331488265376e-04
9.256810248194336475e-04
9.256810248194336475e-04
9.256810248194336475e-04
9.256810248194336475e-04
9.895368631183489895e-04
9.895368631183489895e-04
1.049501052695129720e-03
1.049501052695129720e-03
1.106206638980713379e-03
1.106206638980713379e-03
1.160131548153296851e-03
1.160131548153296851e-03
1.211647103035723991e-03
1.211647103035723991e-03
1.261048614426857556e-03
1.261048614426857556e-03
1.308575533157971737e-03
1.308575533157971737e-03
1.354425212549655857e-03
1.354425212549655857e-03
1.398762595717882584e-03
1.398762595717882584e-03
1.441727212182462425e-03
1.441727212182462425e-03
1.483438344486935189e-03
1.483438344486935189e-03
1.523998917919432670e-03
1.523998917919432670e-03
1.563498479092257157e-03
1.563498479092257157e-03
1.602015511412651413e-03
1.602015511412651413e-03
1.602015511412651413e-03
1.602015511412651413e-03
1.639619259422264415e-03
1.639619259422264415e-03
1.676371183631127949e-03
1.676371183631127949e-03
1.676371183631127949e-03
1.676371183631127949e-03
1.712326133400988298e-03
1.712326133400988298e-03
1.747533301921845930e-03
1.747533301921845930e-03
1.782037010811643018e-03
1.782037010811643018e-03
1.815877360081858891e-03
1.815877360081858891e-03
1.849090770674053502e-03
1.849090770674053502e-03
1.881710440504809909e-03
1.881710440504809909e-03
1.913766730298231515e-03
1.913766730298231515e-03
1.945287491983306062e-03
1.945287491983306062e-03
1.976298349773068612e-03
1.976298349773068612e-03
2.006822942001497759e-03
2.006822942001497759e-03
2.036883130213925329e-03
2.036883130213925329e-03
2.066499180772967629e-03
2.066499180772967629e-03
2.095689923270938407e-03
2.095689923270938407e-03
2.124472889269735185e-03
2.124472889269735185e-03
2.152864434274387277e-03
2.152864434274387277e-03
2.180879845352283117e-03
2.180879845352283117e-03
2.208533436410405580e-03
2.208533436410405580e-03
2.235838632817773852e-03
2.235838632817773852e-03
2.262808046794266646e-03
2.262808046794266646e-03
2.289453544768282455e-03
2.289453544768282455e-03
2.315786307724865354e-03
2.315786307724865354e-03
2.341816885415811018e-03
2.341816885415811018e-03
2.367555245178028841e-03
2.367555245178028841e-03
2.393010816001490439e-03
2.393010816001490439e-03
2.418192528399874634e-03
2.418192528399874634e-03
2.443108850562450592e-03
2.443108850562450592e-03
2.467767821202576910e-03
2.467767821202576910e-03
2.492177079464456650e-03
2.492177079464456650e-03
2.516343892203885303e-03
2.516343892203885303e-03
2.540275178919470644e-03
2.540275178919470644e-03
2.563977534577017037e-03
2.563977534577017037e-03
2.587457250540704974e-03
2.587457250540704974e-03
2.610720333799548733e-03
2.610720333799548733e-03
2.633772524655826966e-03
2.633772524655826966e-03
2.656619313023258176e-03
2.656619313023258176e-03
2.679265953466199775e-03
2.679265953466199775e-03
2.701717479096743361e-03
2.701717479096743361e-03
2.723978714433964408e-03
2.723978714433964408e-03
2.746054287318534359e-03
2.746054287318534359e-03
2.767948639966145291e-03
2.767948639966145291e-03
2.789666039234642986e-03
2.789666039234642986e-03
2.811210586172175219e-03
2.811210586172175219e-03
2.853796750933312084e-03
2.853796750933312084e-03
2.895736949549026530e-03
2.895736949549026530e-03
2.916473537034855110e-03
2.916473537034855110e-03
2.937058854678337421e-03
2.937058854678337421e-03
2.957496061171171857e-03
2.957496061171171857e-03
2.977788206071799258e-03
2.977788206071799258e-03
2.997938235016917724e-03
2.997938235016917724e-03
3.017948994617227453e-03
3.017948994617227453e-03
3.037823237060486951e-03
3.037823237060486951e-03
3.057563624442983553e-03
3.057563624442983553e-03
3.077172732848760823e-03
3.077172732848760823e-03
3.096653056194323926e-03
3.096653056194323926e-03
3.116007009855099440e-03
3.116007009855099440e-03
3.135236934088607257e-03
3.135236934088607257e-03
3.154345097268097461e-03
3.154345097268097461e-03
3.173333698939329126e-03
3.173333698939329126e-03
3.192204872712180869e-03
3.192204872712180869e-03
3.210960688997850643e-03
3.210960688997850643e-03
3.229603157601634595e-03
3.229603157601634595e-03
3.248134230180472082e-03
3.248134230180472082e-03
3.266555802573785187e-03
3.266555802573785187e-03
3.284869717015513526e-03
3.284869717015513526e-03
3.303077764234658379e-03
3.303077764234658379e-03
3.303077764234658379e-03
3.303077764234658379e-03
3.321181685451131491e-03
3.321181685451131491e-03
3.339183174273215558e-03
3.339183174273215558e-03
3.357083878502503671e-03
3.357083878502503671e-03
3.392589305580880153e-03
3.392589305580880153e-03
3.410197110055375631e-03
3.410197110055375631e-03
3.427710296232318668e-03
3.427710296232318668e-03
3.445130307077340359e-03
3.445130307077340359e-03
3.462458548916838054e-03
3.462458548916838054e-03
3.479696392728901487e-03
3.479696392728901487e-03
3.496845175376298714e-03
3.496845175376298714e-03
3.513906200784705502e-03
3.513906200784705502e-03
3.530880741069095975e-03
3.530880741069095975e-03
3.547770037611066608e-03
3.547770037611066608e-03
3.564575302089681777e-03
3.564575302089681777e-03
3.581297717468265567e-03
3.581297717468265567e-03
3.597938438939416676e-03
3.597938438939416676e-03
3.614498594830400056e-03
3.614498594830400056e-03
3.630979287470917187e-03
3.630979287470917187e-03
3.647381594025146234e-03
3.647381594025146234e-03
3.663706567289848857e-03
3.663706567289848857e-03
3.679955236460200757e-03
3.679955236460200757e-03
3.696128607864946659e-03
3.696128607864946659e-03
3.712227665672356881e-03
3.712227665672356881e-03
3.728253372568384513e-03
3.728253372568384513e-03
3.744206670408374571e-03
3.744206670408374571e-03
3.760088480843548110e-03
3.760088480843548110e-03
3.775899705923457805e-03
3.775899705923457805e-03
3.791641228675533045e-03
3.791641228675533045e-03
3.807313913662766641e-03
3.807313913662766641e-03
3.822918607520544090e-03
3.822918607520544090e-03
3.838456139473562113e-03
3.838456139473562113e-03
3.853927321833726816e-03
3.853927321833726816e-03
3.869332950479891474e-03
3.869332950479891474e-03
3.884673805320222779e-03
3.884673805320222779e-03
3.899950650737970138e-03
3.899950650737970138e-03
3.915164236021353994e-03
3.915164236021353994e-03
3.930315295778261456e-03
3.930315295778261456e-03
3.960432706129540098e-03
3.960432706129540098e-03
3.975400456070389381e-03
3.975400456070389381e-03
3.990308479910732384e-03
3.990308479910732384e-03
4.005157444589299044e-03
4.005157444589299044e-03
4.019948004567895292e-03
4.019948004567895292e-03
4.034680802156281193e-03
4.034680802156281193e-03
4.049356467826246107e-03
4.049356467826246107e-03
4.078538867920478150e-03
4.078538867920478150e-03
4.093046806782456304e-03
4.093046806782456304e-03
4.107500023160658327e-03
4.107500023160658327e-03
4.121899092699419370e-03
4.121899092699419370e-03
4.136244580885723929e-03
4.136244580885723929e-03
4.150537043298791785e-03
4.150537043298791785e-03
4.164777025851825604e-03
4.164777025851825604e-03
4.178965065026220282e-03
4.178965065026220282e-03
4.193101688098534174e-03
4.193101688098534174e-03
4.207187413360461564e-03
4.207187413360461564e-03
4.221222750332104777e-03
4.221222750332104777e-03
4.235208199968771431e-03
4.235208199968771431e-03
4.249144254861542298e-03
4.249144254861542298e-03
4.263031399431830085e-03
4.263031399431830085e-03
4.290660855569413887e-03
4.290660855569413887e-03
4.318100287395435638e-03
4.318100287395435638e-03
4.331749873644263893e-03
4.331749873644263893e-03
4.345353294728563319e-03
4.345353294728563319e-03
4.358910982869276980e-03
4.358910982869276980e-03
4.385890855328559643e-03
4.385890855328559643e-03
4.399313870657664202e-03
4.399313870657664202e-03
4.412692815350497365e-03
4.412692815350497365e-03
4.426028089055651128e-03
4.426028089055651128e-03
4.439320085322984860e-03
4.439320085322984860e-03
4.452569191733381747e-03
4.452569191733381747e-03
4.465775790024975947e-03
4.465775790024975947e-03
4.478940256215956268e-03
4.478940256215956268e-03
4.492062960724088616e-03
4.492062960724088616e-03
4.518184539055514377e-03
4.518184539055514377e-03
4.544143380696329983e-03
4.544143380696329983e-03
4.557062645013492015e-03
4.557062645013492015e-03
4.569942258848266187e-03
4.569942258848266187e-03
4.582782556506011067e-03
4.582782556506011067e-03
4.621070824767124080e-03
4.621070824767124080e-03
4.633757107147227355e-03
4.633757107147227355e-03
4.646405675459224296e-03
4.646405675459224296e-03
4.659016836868127079e-03
4.659016836868127079e-03
4.671590894318597247e-03
4.671590894318597247e-03
4.684128146615856685e-03
4.684128146615856685e-03
4.696628888504617537e-03
4.696628888504617537e-03
4.721522000193026716e-03
4.721522000193026716e-03
4.733914939863219026e-03
4.733914939863219026e-03
4.746272509010870944e-03
4.746272509010870944e-03
4.758594983196536878e-03
4.758594983196536878e-03
4.770882634355291980e-03
4.770882634355291980e-03
4.783135730863306498e-03
4.783135730863306498e-03
4.795354537602864071e-03
4.795354537602864071e-03
4.807539316025843945e-03
4.807539316025843945e-03
4.819690324215739931e-03
4.819690324215739931e-03
4.831807816948243892e-03
4.831807816948243892e-03
4.843892045750423231e-03
4.843892045750423231e-03
4.867961701774631972e-03
4.867961701774631972e-03
4.891901241697329400e-03
4.891901241697329400e-03
4.915712566516692097e-03
4.915712566516692097e-03
4.927570729499816497e-03
4.927570729499816497e-03
4.939397530490466544e-03
4.939397530490466544e-03
4.951193194229652761e-03
4.951193194229652761e-03
4.962957942732888761e-03
4.962957942732888761e-03
4.986395568742072772e-03
4.986395568742072772e-03
4.998068877062044127e-03
4.998068877062044127e-03
5.009712131861534211e-03
5.009712131861534211e-03
5.032909314679298585e-03
5.032909314679298585e-03
5.044463653470629937e-03
5.044463653470629937e-03
5.055988760367808622e-03
5.055988760367808622e-03
5.067484834819309739e-03
5.067484834819309739e-03
5.078952073967672558e-03
5.078952073967672558e-03
5.090390672686732031e-03
5.090390672686732031e-03
5.101800823618105225e-03
5.101800823618105225e-03
5.113182717206908416e-03
5.113182717206908416e-03
5.124536541736744721e-03
5.124536541736744721e-03
5.135862483363987444e-03
5.135862483363987444e-03
5.158431452100818368e-03
5.158431452100818368e-03
5.169674841185824092e-03
5.169674841185824092e-03
5.192080318702644096e-03
5.192080318702644096e-03
5.203242757219990987e-03
5.203242757219990987e-03
5.225487894647195750e-03
5.225487894647195750e-03
5.236570932293721677e-03
5.236570932293721677e-03
5.247627838667814383e-03
5.247627838667814383e-03
5.269663915159431694e-03
5.269663915159431694e-03
5.280643409669653031e-03
5.280643409669653031e-03
5.291597421745192903e-03
5.291597421745192903e-03
5.313429628631801717e-03
5.313429628631801717e-03
5.324308134329881238e-03
5.324308134329881238e-03
5.335161779415797251e-03
5.335161779415797251e-03
5.345990715308591990e-03
5.345990715308591990e-03
5.356795091859585176e-03
5.356795091859585176e-03
5.367575057375066801e-03
5.367575057375066801e-03
5.378330758638566640e-03
5.378330758638566640e-03
5.389062340932713503e-03
5.389062340932713503e-03
5.399769948060695497e-03
5.399769948060695497e-03
5.421113804759689417e-03
5.421113804759689417e-03
5.452953288380672607e-03
5.452953288380672607e-03
5.463519984136072996e-03
5.463519984136072996e-03
5.474063671645191219e-03
5.474063671645191219e-03
5.484584483602723652e-03
5.484584483602723652e-03
5.495082551400354287e-03
5.495082551400354287e-03
5.526441584578963354e-03
5.526441584578963354e-03
5.536849964213177121e-03
5.536849964213177121e-03
5.547236237716040089e-03
5.547236237716040089e-03
5.557600529026110459e-03
5.557600529026110459e-03
5.567942960897797298e-03
5.567942960897797298e-03
5.588562731517612153e-03
5.588562731517612153e-03
5.598840309994905506e-03
5.598840309994905506e-03
5.609096508522457697e-03
5.609096508522457697e-03
5.660060861251829147e-03
5.660060861251829147e-03
5.670191200695282215e-03
5.670191200695282215e-03
5.680300957184254707e-03
5.680300957184254707e-03
5.700459159121908960e-03
5.700459159121908960e-03
5.710507820999742232e-03
5.710507820999742232e-03
5.720536332806593939e-03
5.720536332806593939e-03
5.740533328412851521e-03
5.740533328412851521e-03
5.750502020955739098e-03
5.750502020955739098e-03
5.790180481676944664e-03
5.790180481676944664e-03
5.800051523105951429e-03
5.800051523105951429e-03
5.809903333391477562e-03
5.809903333391477562e-03
5.819736010198562313e-03
5.819736010198562313e-03
5.829549650344278272e-03
5.829549650344278272e-03
5.839344349808036488e-03
5.839344349808036488e-03
5.858877306479728063e-03
5.858877306479728063e-03
5.868615751548683299e-03
5.868615751548683299e-03
5.878335631677236717e-03
5.878335631677236717e-03
5.897720064094620629e-03
5.897720064094620629e-03
5.907384797935663623e-03
5.907384797935663623e-03
5.936270143324437823e-03
5.936270143324437823e-03
5.945862600203372789e-03
5.945862600203372789e-03
5.955437206355888163e-03
5.955437206355888163e-03
5.964994047740330291e-03
5.964994047740330291e-03
5.984054776501704018e-03
5.984054776501704018e-03
6.012514742510521003e-03
6.012514742510521003e-03
6.021966761275614720e-03
6.021966761275614720e-03
6.031401597579871474e-03
6.031401597579871474e-03
6.040819331932423611e-03
6.040819331932423611e-03
6.050220044195637852e-03
6.050220044195637852e-03
6.068970718713285854e-03
6.068970718713285854e-03
6.078320837523604192e-03
6.078320837523604192e-03
6.087654247370392901e-03
6.087654247370392901e-03
6.115554987469136450e-03
6.115554987469136450e-03
6.124822322804696420e-03
6.124822322804696420e-03
6.134073326874527748e-03
6.134073326874527748e-03
6.143308073456767680e-03
6.143308073456767680e-03
6.152526635757330636e-03
6.152526635757330636e-03
6.161729086416121992e-03
6.161729086416121992e-03
6.170915497513171193e-03
6.170915497513171193e-03
6.180085940574672927e-03
6.180085940574672927e-03
6.189240486578946772e-03
6.189240486578946772e-03
6.207502168624890251e-03
6.207502168624890251e-03
6.234777207365579943e-03
6.234777207365579943e-03
6.252883040809849302e-03
6.252883040809849302e-03
6.270927480694102503e-03
6.270927480694102503e-03
6.279926843501531554e-03
6.279926843501531554e-03
6.288911055478244722e-03
6.288911055478244722e-03
6.297880181464283328e-03
6.297880181464283328e-03
6.306834285822279784e-03
6.306834285822279784e-03
6.333607105696121772e-03
6.333607105696121772e-03
6.342501757791021294e-03
6.342501757791021294e-03
6.351381703079946386e-03
6.351381703079946386e-03
6.360247003162219914e-03
6.360247003162219914e-03
6.369097719192885580e-03
6.369097719192885580e-03
6.395562967955398595e-03
6.395562967955398595e-03
6.404355950600454719e-03
6.404355950600454719e-03
6.439385617076731454e-03
6.439385617076731454e-03
6.448107757491133851e-03
6.448107757491133851e-03
6.465510106941202255e-03
6.465510106941202255e-03
6.474190428686640332e-03
6.474190428686640332e-03
6.482856922932612662e-03
6.482856922932612662e-03
6.491509645060357901e-03
6.491509645060357901e-03
6.500148650068452924e-03
6.500148650068452924e-03
6.508773992576524260e-03
6.508773992576524260e-03
6.517385726828903159e-03
6.517385726828903159e-03
6.534568585689068572e-03
6.534568585689068572e-03
6.543139816941342599e-03
6.543139816941342599e-03
6.551697653233908361e-03
6.551697653233908361e-03
6.560242146987941766e-03
6.560242146987941766e-03
6.568773350270347422e-03
6.568773350270347422e-03
6.585796091936654134e-03
6.585796091936654134e-03
6.594287732713010816e-03
6.594287732713010816e-03
6.602766287809166620e-03
6.602766287809166620e-03
6.653365615168185115e-03
6.653365615168185115e-03
6.670129615983731372e-03
6.670129615983731372e-03
6.678492625963724713e-03
6.678492625963724713e-03
6.686843039017677584e-03
6.686843039017677584e-03
6.695180902279282767e-03
6.695180902279282767e-03
6.703506262577070898e-03
6.703506262577070898e-03
6.720119660086104792e-03
6.720119660086104792e-03
6.728407789453370348e-03
6.728407789453370348e-03
6.744947137592334496e-03
6.744947137592334496e-03
6.761437572452190167e-03
6.761437572452190167e-03
6.769664559146404414e-03
6.769664559146404414e-03
6.777879451047821163e-03
6.777879451047821163e-03
6.786082292080495779e-03
6.786082292080495779e-03
6.810618945075213454e-03
6.810618945075213454e-03
6.818774016381868620e-03
6.818774016381868620e-03
6.843168387169668021e-03
6.843168387169668021e-03
6.859372684837964848e-03
6.859372684837964848e-03
6.867457373383597033e-03
6.867457373383597033e-03
6.875530476505722390e-03
6.875530476505722390e-03
6.883592034966631162e-03
6.883592034966631162e-03
6.891642089279723278e-03
6.891642089279723278e-03
6.915723628777505246e-03
6.915723628777505246e-03
6.923728066729817505e-03
6.923728066729817505e-03
6.947673705166844751e-03
6.947673705166844751e-03
6.955633155606500036e-03
6.955633155606500036e-03
6.987359833784322245e-03
6.987359833784322245e-03
6.995263911431921951e-03
6.995263911431921951e-03
7.003157027138540852e-03
7.003157027138540852e-03
7.034620607769807681e-03
7.034620607769807681e-03
7.042459464798603297e-03
7.042459464798603297e-03
7.050287578800027571e-03
7.050287578800027571e-03
7.058104985519215654e-03
7.058104985519215654e-03
7.065911720494335441e-03
7.065911720494335441e-03
7.073707819058257240e-03
7.073707819058257240e-03
7.081493316340234725e-03
7.081493316340234725e-03
7.097032646567053016e-03
7.097032646567053016e-03
7.104786548766981596e-03
7.104786548766981596e-03
7.112529988198338510e-03
7.112529988198338510e-03
7.135697870267094373e-03
7.135697870267094373e-03
7.158772804738020891e-03
7.158772804738020891e-03
7.166443949825343149e-03
7.166443949825343149e-03
7.174104899881139814e-03
7.174104899881139814e-03
7.181755687531263428e-03
7.181755687531263428e-03
7.189396345219496026e-03
7.189396345219496026e-03
7.212257860249539701e-03
7.212257860249539701e-03
7.242599997800147800e-03
7.242599997800147800e-03
7.265252784464146241e-03
7.265252784464146241e-03
7.272784103188953062e-03
7.272784103188953062e-03
7.280305667580901953e-03
7.280305667580901953e-03
7.287817507841561591e-03
7.287817507841561591e-03
7.295319654009145213e-03
7.295319654009145213e-03
7.317768225911158372e-03
7.317768225911158372e-03
7.325231892864553750e-03
7.325231892864553750e-03
7.384599985006312997e-03
7.384599985006312997e-03
7.391978769318059347e-03
7.391978769318059347e-03
7.421401282764004265e-03
7.421401282764004265e-03
7.436057349897509661e-03
7.436057349897509661e-03
7.465260188487522069e-03
7.465260188487522069e-03
7.487067522730943628e-03
7.487067522730943628e-03
7.508794391209340155e-03
7.508794391209340155e-03
7.559181387884287076e-03
7.559181387884287076e-03
7.573499114443851127e-03
7.573499114443851127e-03
7.594910980494817138e-03
7.594910980494817138e-03
7.609142691984012788e-03
7.609142691984012788e-03
7.616245760097839490e-03
7.616245760097839490e-03
7.637504099258115436e-03
7.637504099258115436e-03
7.651634173172576145e-03
7.651634173172576145e-03
7.665730742953025430e-03
7.665730742953025430e-03
7.672766521517493388e-03
7.672766521517493388e-03
7.686813180465938006e-03
7.686813180465938006e-03
7.700826793180393787e-03
7.700826793180393787e-03
7.721785644018864386e-03
7.721785644018864386e-03
7.742671146135243244e-03
7.742671146135243244e-03
7.763483891502789835e-03
7.763483891502789835e-03
7.770405406231396805e-03
7.770405406231396805e-03
7.791122048983896951e-03
7.791122048983896951e-03
7.804893438139007093e-03
7.804893438139007093e-03
7.852845781341540737e-03
7.852845781341540737e-03
7.866476408589376593e-03
7.866476408589376593e-03
7.893645322546310322e-03
7.893645322546310322e-03
7.907183926535520102e-03
7.907183926535520102e-03
7.913941833977679308e-03
7.913941833977679308e-03
7.920692170983609226e-03
7.920692170983609226e-03
7.934170210955611424e-03
7.934170210955611424e-03
7.940897952338304283e-03
7.940897952338304283e-03
7.954330973291056164e-03
7.954330973291056164e-03
7.961036290761959108e-03
7.961036290761959108e-03
7.967734171355062706e-03
7.967734171355062706e-03
8.001112674110480438e-03
8.001112674110480438e-03
8.021051719781860379e-03
8.021051719781860379e-03
8.040925324266378488e-03
8.040925324266378488e-03
8.047535400451709744e-03
8.047535400451709744e-03
8.067322501863993106e-03
8.067322501863993106e-03
8.073903885338936173e-03
8.073903885338936173e-03
8.087045281686473797e-03
8.087045281686473797e-03
8.093605329258011724e-03
8.093605329258011724e-03
8.106704209382652876e-03
8.106704209382652876e-03
8.119774916865989123e-03
8.119774916865989123e-03
8.178248079079044469e-03
8.178248079079044469e-03
8.191166234269450785e-03
8.191166234269450785e-03
8.210492300830100204e-03
8.210492300830100204e-03
8.229757352313210594e-03
8.229757352313210594e-03
8.312544500603601810e-03
8.312544500603601810e-03
8.331491230545561705e-03
8.331491230545561705e-03
8.344089917619111618e-03
8.344089917619111618e-03
8.375473857733611166e-03
8.375473857733611166e-03
8.381731428312921492e-03
8.381731428312921492e-03
8.400465962969515948e-03
8.400465962969515948e-03
8.412923980162717585e-03
8.412923980162717585e-03
8.437764505277263113e-03
8.437764505277263113e-03
8.443958986464446259e-03
8.443958986464446259e-03
8.468674722953312486e-03
8.468674722953312486e-03
8.474838178021981000e-03
8.474838178021981000e-03
8.480995468487656508e-03
8.480995468487656508e-03
8.505563251877713837e-03
8.505563251877713837e-03
8.523925013340840490e-03
8.523925013340840490e-03
8.566557671326639062e-03
8.566557671326639062e-03
8.596830250307625071e-03
8.596830250307625071e-03
8.632962584236621856e-03
8.632962584236621856e-03
8.638964156397796468e-03
8.638964156397796468e-03
8.668884960286945413e-03
8.668884960286945413e-03
8.674851793757520566e-03
8.674851793757520566e-03
8.692717853746152745e-03
8.692717853746152745e-03
8.698661766232832285e-03
8.698661766232832285e-03
8.704599977838354055e-03
8.704599977838354055e-03
8.716459345000400830e-03
8.716459345000400830e-03
8.722380523747148146e-03
8.722380523747148146e-03
8.728296047993622936e-03
8.728296047993622936e-03
8.751901829129398250e-03
8.751901829129398250e-03
8.757789252373551075e-03
8.757789252373551075e-03
8.769547351526664480e-03
8.769547351526664480e-03
8.816358085543729919e-03
8.816358085543729919e-03
8.833821462140858949e-03
8.833821462140858949e-03
8.845436479253371287e-03
8.845436479253371287e-03
8.862818368139759734e-03
8.862818368139759734e-03
8.903187949766059109e-03
8.903187949766059109e-03
8.920409237156720281e-03
8.920409237156720281e-03
8.926139080229789427e-03
8.926139080229789427e-03
8.931863647259672898e-03
8.931863647259672898e-03
8.937582948384363568e-03
8.937582948384363568e-03
8.943296993706613407e-03
8.943296993706613407e-03
8.954709357179584453e-03
8.954709357179584453e-03
8.977471455144825363e-03
8.977471455144825363e-03
8.988821348230412525e-03
8.988821348230412525e-03
9.005807463905578236e-03
9.005807463905578236e-03
9.028383741232565846e-03
9.028383741232565846e-03
9.039641248646567914e-03
9.039641248646567914e-03
9.045262377921414743e-03
9.045262377921414743e-03
9.062095381496340640e-03
9.062095381496340640e-03
9.112323119022902942e-03
9.112323119022902942e-03
9.151111073544817773e-03
9.151111073544817773e-03
9.156632552916899384e-03
9.156632552916899384e-03
9.184166812440460945e-03
9.184166812440460945e-03
9.206106979892549405e-03
9.206106979892549405e-03
9.255191848038211988e-03
9.255191848038211988e-03
9.260621944986840645e-03
9.260621944986840645e-03
9.266047317185978349e-03
9.266047317185978349e-03
9.298500793269236231e-03
9.298500793269236231e-03
9.303893322982448658e-03
9.303893322982448658e-03
9.309281193562954707e-03
9.309281193562954707e-03
9.314664413095682938e-03
9.314664413095682938e-03
9.325416931229395245e-03
9.325416931229395245e-03
9.346866507827216591e-03
9.346866507827216591e-03
9.373575145643023993e-03
9.373575145643023993e-03
9.389545593748728144e-03
9.389545593748728144e-03
9.410776101106001212e-03
9.410776101106001212e-03
9.426651681863018606e-03
9.426651681863018606e-03
9.431934573101607294e-03
9.431934573101607294e-03
9.437212992390633590e-03
9.437212992390633590e-03
9.510645465907937093e-03
9.510645465907937093e-03
9.515857693153753974e-03
9.515857693153753974e-03
9.541853651823948429e-03
9.541853651823948429e-03
9.552221751512376263e-03
9.552221751512376263e-03
9.562572630669077811e-03
9.562572630669077811e-03
9.572906345154086685e-03
9.572906345154086685e-03
9.583222950494078157e-03
9.583222950494078157e-03
9.608939972752816167e-03
9.608939972752816167e-03
9.624319379424503204e-03
9.624319379424503204e-03
9.654964727319840026e-03
9.654964727319840026e-03
9.670231028120028494e-03
9.670231028120028494e-03
9.680387803873997249e-03
9.680387803873997249e-03
9.685459983916563237e-03
9.685459983916563237e-03
9.725889289876620686e-03
9.725889289876620686e-03
9.746005851910325563e-03
9.746005851910325563e-03
9.751024843217791227e-03
9.751024843217791227e-03
9.761050690645306852e-03
9.761050690645306852e-03
9.781054018789868063e-03
9.781054018789868063e-03
9.796014388429400213e-03
9.796014388429400213e-03
9.810938833238891030e-03
9.810938833238891030e-03
9.850562960774890409e-03
9.850562960774890409e-03
9.855498248780925410e-03
9.855498248780925410e-03
9.880116009191065862e-03
9.880116009191065862e-03
9.889935838571686788e-03
9.889935838571686788e-03
9.899740151972204541e-03
9.899740151972204541e-03
9.914417630283193714e-03
9.914417630283193714e-03
9.929060455560655141e-03
9.929060455560655141e-03
9.953388572839574899e-03
9.953388572839574899e-03
9.963093143662093629e-03
9.963093143662093629e-03
9.977621557423238530e-03
9.977621557423238530e-03
1.000176010079470434e-02
1.000176010079470434e-02
1.004497365854957643e-02
1.004497365854957643e-02
1.006408319748799962e-02
1.006408319748799962e-02
1.006885136637533651e-02
1.006885136637533651e-02
1.007837668177227232e-02
1.009263717691419315e-02
1.009263717691419315e-02
1.010686482255395563e-02
1.010686482255395563e-02
1.014464566344423606e-02
1.014464566344423606e-02
1.018687428341997180e-02
1.018687428341997180e-02
1.019154853887516490e-02
1.019154853887516490e-02
1.021021016239222548e-02
1.021021016239222548e-02
1.022881538098357503e-02
1.022881538098357503e-02
1.023809693456420415e-02
1.023809693456420415e-02
1.027508366437128277e-02
1.027508366437128277e-02
1.029808780210306543e-02
1.029808780210306543e-02
1.030267830376931960e-02
1.030267830376931960e-02
1.032557943518500922e-02
1.032557943518500922e-02
1.036204423953982108e-02
1.036204423953982108e-02
1.036658711662704312e-02
1.036658711662704312e-02
1.040732197174651548e-02
1.040732197174651548e-02
1.041183136493395965e-02
1.041183136493395965e-02
1.042084018231775877e-02
1.042084018231775877e-02
1.043432855044480745e-02
1.043432855044480745e-02
1.045674316098952131e-02
1.045674316098952131e-02
1.046121622084602784e-02
1.046121622084602784e-02
1.048353244030502014e-02
1.048353244030502014e-02
1.049688305832040605e-02
1.049688305832040605e-02
1.050576724204528578e-02
1.050576724204528578e-02
1.052349680954635727e-02
1.052349680954635727e-02
1.053234225863625487e-02
1.053234225863625487e-02
1.054117486123310257e-02
1.054117486123310257e-02
1.055880165585626126e-02
1.055880165585626126e-02
1.056320037568230473e-02
1.056320037568230473e-02
1.057637744969386340e-02
1.057637744969386340e-02
1.058952597859694547e-02
1.058952597859694547e-02
1.059827585861325069e-02
1.059827585861325069e-02
1.061137704795811314e-02
1.061137704795811314e-02
1.062009546574815139e-02
1.062009546574815139e-02
1.063314960705215133e-02
1.063314960705215133e-02
1.065917372167641229e-02
1.065917372167641229e-02
1.066782359944526935e-02
1.066782359944526935e-02
1.073658004633949031e-02
1.073658004633949031e-02
1.075790656207765289e-02
1.075790656207765289e-02
1.077915773216070634e-02
1.077915773216070634e-02
1.078339896392679388e-02
1.078339896392679388e-02
1.078763720320690539e-02
1.078763720320690539e-02
1.080033400134805532e-02
1.080033400134805532e-02
1.080456030586095066e-02
1.080456030586095066e-02
1.080878363543632224e-02
1.080878363543632224e-02
1.082985578097911926e-02
1.082985578097911926e-02
1.084246359093864881e-02
1.084246359093864881e-02
1.089679245033387672e-02
1.089679245033387672e-02
1.090926001082823810e-02
1.090926001082823810e-02
1.091341007971452157e-02
1.091341007971452157e-02
1.093411718770598978e-02
1.093411718770598978e-02
1.095063118648798538e-02
1.095063118648798538e-02
1.096709946560797677e-02
1.096709946560797677e-02
1.097120941583012120e-02
1.097531652463103018e-02
1.097531652463103018e-02
1.097942079519940647e-02
1.097942079519940647e-02
1.102030809465278684e-02
1.102030809465278684e-02
1.102438135313968740e-02
1.102438135313968740e-02
1.104470569988429823e-02
1.104470569988429823e-02
1.104876220169994684e-02
1.104876220169994684e-02
1.105686686236942787e-02
1.105686686236942787e-02
1.107304289730728919e-02
1.107304289730728919e-02
1.107707998909980389e-02
1.107707998909980389e-02
1.110124466988797985e-02
1.110124466988797985e-02
1.112531061149088854e-02
1.112531061149088854e-02
1.113730675522509213e-02
1.113730675522509213e-02
1.114529059859349983e-02
1.114529059859349983e-02
1.115724604329439498e-02
1.115724604329439498e-02
1.116122578437824843e-02
1.116122578437824843e-02
1.120482544972218643e-02
1.120482544972218643e-02
1.120877299469251638e-02
1.120877299469251638e-02
1.126376011710136446e-02
1.126376011710136446e-02
1.129494977899887093e-02
1.129494977899887093e-02
1.131435859854548406e-02
1.131435859854548406e-02
1.131823257981965335e-02
1.131823257981965335e-02
1.133756371927526277e-02
1.133756371927526277e-02
1.136451924673295005e-02
1.136451924673295005e-02
1.142186039746366163e-02
1.142186039746366163e-02
1.142566290068827359e-02
1.142566290068827359e-02
1.142946288823576753e-02
1.142946288823576753e-02
1.145221012442044356e-02
1.145221012442044356e-02
1.149743531886222858e-02
1.149743531886222858e-02
1.151991433425803360e-02
1.151991433425803360e-02
1.152738767834013411e-02
1.152738767834013411e-02
1.154230498953745868e-02
1.154230498953745868e-02
1.156089674207691660e-02
1.156089674207691660e-02
1.161630889595164848e-02
1.161630889595164848e-02
1.164198310422620911e-02
1.164198310422620911e-02
1.164564131812626489e-02
1.164564131812626489e-02
1.171108505782935023e-02
1.171108505782935023e-02
1.172191841417272000e-02
1.172191841417272000e-02
1.172552487064928116e-02
1.172552487064928116e-02
1.173273080304571697e-02
1.173273080304571697e-02
1.179716804006863268e-02
1.179716804006863268e-02
1.190292373577908104e-02
1.190292373577908104e-02
1.192730994922113451e-02
1.192730994922113451e-02
1.194812614682450383e-02
1.194812614682450383e-02
1.196195958856382559e-02
1.196195958856382559e-02
1.196541246359195121e-02
1.196541246359195121e-02
1.199295676941663710e-02
1.199295676941663710e-02
1.201010120195348391e-02
1.201010120195348391e-02
1.203741975747992486e-02
1.203741975747992486e-02
1.205102734554857474e-02
1.205102734554857474e-02
1.205442387799824516e-02
1.205442387799824516e-02
1.206121051811051906e-02
1.206121051811051906e-02
1.207475814971777951e-02
1.207475814971777951e-02
1.209501569091716092e-02
1.209501569091716092e-02
1.212525897385831330e-02
1.212525897385831330e-02
1.212860879090254390e-02
1.212860879090254390e-02
1.213195650481669816e-02
1.213195650481669816e-02
1.216864304693926653e-02
1.216864304693926653e-02
1.219516577151915152e-02
1.219516577151915152e-02
1.222155608660699562e-02
1.222155608660699562e-02
1.225435908243377274e-02
1.225435908243377274e-02
1.228370739184392671e-02
1.228370739184392671e-02
1.229994107633285844e-02
1.229994107633285844e-02
1.231935497179708836e-02
1.231935497179708836e-02
1.232903480440360189e-02
1.232903480440360189e-02
1.235796635121685742e-02
1.235796635121685742e-02
1.236117100586855456e-02
1.236117100586855456e-02
1.236437367387533889e-02
1.236437367387533889e-02
1.240900328791696115e-02
1.240900328791696115e-02
1.241217634003445418e-02
1.241217634003445418e-02
1.242801219683493247e-02
1.242801219683493247e-02
1.244064568751753093e-02
1.244064568751753093e-02
1.246267932367890394e-02
1.246267932367890394e-02
1.247209320375040204e-02
1.247209320375040204e-02
1.248461797308660082e-02
1.248461797308660082e-02
1.249399129790211040e-02
1.249399129790211040e-02
1.249711188966701886e-02
1.249711188966701886e-02
1.250023055891524501e-02
1.250023055891524501e-02
1.250646213561366557e-02
1.250646213561366557e-02
1.251579511767544894e-02
1.251579511767544894e-02
1.252200753373498669e-02
1.252200753373498669e-02
1.253131182832376705e-02
1.253131182832376705e-02
1.255295517613585869e-02
1.255295517613585869e-02
1.255603948385298346e-02
1.255603948385298346e-02
1.256220241395630127e-02
1.256220241395630127e-02
1.256835777290966558e-02
1.256835777290966558e-02
1.258677853387817937e-02
1.258677853387817937e-02
1.259596349250537844e-02
1.259596349250537844e-02
1.260513155264825907e-02
1.260513155264825907e-02
1.262037420069405877e-02
1.262037420069405877e-02
1.263253470975409312e-02
1.263253470975409312e-02
1.264163554267472636e-02
1.264163554267472636e-02
1.266280587502816371e-02
1.266280587502816371e-02
1.266883788925779290e-02
1.266883788925779290e-02
1.268688968456499130e-02
1.268688968456499130e-02
1.269888744675092343e-02
1.269888744675092343e-02
1.270487532870684909e-02
1.270487532870684909e-02
1.271384343186308594e-02
1.271384343186308594e-02
1.273470516048121406e-02
1.273470516048121406e-02
1.274361862218471864e-02
1.274361862218471864e-02
1.276730816974253058e-02
1.276730816974253058e-02
1.277321250129864749e-02
1.277321250129864749e-02
1.277910963076084663e-02
1.277910963076084663e-02
1.279088232323692328e-02
1.279088232323692328e-02
1.280848759440755130e-02
1.280848759440755130e-02
1.282018871168173410e-02
1.282018871168173410e-02
1.282310953594480163e-02
1.282310953594480163e-02
1.286960152210063144e-02
1.286960152210063144e-02
1.292422581198501147e-02
1.292422581198501147e-02
1.294419195595161026e-02
1.294419195595161026e-02
1.300077227492013945e-02
1.300077227492013945e-02
1.300358328661370931e-02
1.300358328661370931e-02
1.300639259179290491e-02
1.300639259179290491e-02
1.303159972714027295e-02
1.303159972714027295e-02
1.304832813568403485e-02
1.304832813568403485e-02
1.305666952356676451e-02
1.305666952356676451e-02
1.312011824137739209e-02
1.312011824137739209e-02
1.313106272399184107e-02
1.313106272399184107e-02
1.314198068987898656e-02
1.314198068987898656e-02
1.314470604585872907e-02
1.314470604585872907e-02
1.317728174337071123e-02
1.317728174337071123e-02
1.319617506638835758e-02
1.319617506638835758e-02
1.328153076152247848e-02
1.328153076152247848e-02
1.331573624807556519e-02
1.331573624807556519e-02
1.332620688105168490e-02
1.332620688105168490e-02
1.332882057308916804e-02
1.332882057308916804e-02
1.334446948093678462e-02
1.334446948093678462e-02
1.339107592300205207e-02
1.339107592300205207e-02
1.339622306745272273e-02
1.339622306745272273e-02
1.340136396863448286e-02
1.340136396863448286e-02
1.342186528402117100e-02
1.342186528402117100e-02
1.342442095561077742e-02
1.342442095561077742e-02
1.344226727815103599e-02
1.344226727815103599e-02
1.344989251200778835e-02
1.344989251200778835e-02
1.346003790364709227e-02
1.346003790364709227e-02
1.346510136365172347e-02
1.346510136365172347e-02
1.346763078774003072e-02
1.346763078774003072e-02
1.350789324587196860e-02
1.350789324587196860e-02
1.351539896246974765e-02
1.351539896246974765e-02
1.354031935229724898e-02
1.354031935229724898e-02
1.354280306417490407e-02
1.354280306417490407e-02
1.355272281315203498e-02
1.355272281315203498e-02
1.355767364011825106e-02
1.355767364011825106e-02
1.356261844421267557e-02
1.356261844421267557e-02
1.356508858974154672e-02
1.356508858974154672e-02
1.357249001010956205e-02
1.357249001010956205e-02
1.361417690247336901e-02
1.361417690247336901e-02
1.362878711341078408e-02
1.362878711341078408e-02
1.363364531708153443e-02
1.363364531708153443e-02
1.364334396250196577e-02
1.364334396250196577e-02
1.365784762036978059e-02
1.365784762036978059e-02
1.370819397396930324e-02
1.370819397396930324e-02
1.371295525021037909e-02
1.371295525021037909e-02
1.372720417966726350e-02
1.372720417966726350e-02
1.373667444356592264e-02
1.373667444356592264e-02
1.374612154554220866e-02
1.374612154554220866e-02
1.374847970758375122e-02
1.374847970758375122e-02
1.376259838402365751e-02
1.376259838402365751e-02
1.376963827963856996e-02
1.376963827963856996e-02
1.382780290884838212e-02
1.382780290884838212e-02
1.386684751701681637e-02
1.386684751701681637e-02
1.386913156001168962e-02
1.386913156001168962e-02
1.391000448535441303e-02
1.391000448535441303e-02
1.399922164245249664e-02
1.399922164245249664e-02
1.405386842775652179e-02
1.405386842775652179e-02
1.405603666021195373e-02
1.405603666021195373e-02
1.406036907223350008e-02
1.406036907223350008e-02
1.409054504315656806e-02
1.409054504315656806e-02
1.409483439645680021e-02
1.409483439645680021e-02
1.412258475625239110e-02
1.412258475625239110e-02
1.412683402674541275e-02
1.412683402674541275e-02
1.414800061741355863e-02
1.414800061741355863e-02
1.415221801659032747e-02
1.415221801659032747e-02
1.416063693395136144e-02
1.416063693395136144e-02
1.416483846157454846e-02
1.416483846157454846e-02
1.416903470809958640e-02
1.416903470809958640e-02
1.418576697686088628e-02
1.418576697686088628e-02
1.422310745174803007e-02
1.422310745174803007e-02
1.423751445427652237e-02
1.423751445427652237e-02
1.424776615427574521e-02
1.424776615427574521e-02
1.425390160153302763e-02
1.425390160153302763e-02
1.425798542037360998e-02
1.425798542037360998e-02
1.427223803656661391e-02
1.427223803656661391e-02
1.428237974483958714e-02
1.428237974483958714e-02
1.429450729855229196e-02
1.429450729855229196e-02
1.430256663368431776e-02
1.430256663368431776e-02
1.430859766688958798e-02
1.430859766688958798e-02
1.434255619807547205e-02
1.434255619807547205e-02
1.435049292832574208e-02
1.435049292832574208e-02
1.438007500905506136e-02
1.438007500905506136e-02
1.439768786267528640e-02
1.439768786267528640e-02
1.441131632368956167e-02
1.441131632368956167e-02
1.441519887891535255e-02
1.441519887891535255e-02
1.441907642345509333e-02
1.441907642345509333e-02
1.442101331798097998e-02
1.442101331798097998e-02
1.443260842845171116e-02
1.443260842845171116e-02
1.445566395739677351e-02
1.445566395739677351e-02
1.445948913191068795e-02
1.445948913191068795e-02
1.448991212505053999e-02
1.448991212505053999e-02
1.449180305764766370e-02
1.449180305764766370e-02
1.449746845990006194e-02
1.449746845990006194e-02
1.450123923660059586e-02
1.450123923660059586e-02
1.451064465287712699e-02
1.451064465287712699e-02
1.451439821924083509e-02
1.451439821924083509e-02
1.452189062982180146e-02
1.452189062982180146e-02
1.454425035697197097e-02
1.454425035697197097e-02
1.458295776081158096e-02
1.458295776081158096e-02
1.459574144522445514e-02
1.459574144522445514e-02
1.460301984906907727e-02
1.460301984906907727e-02
1.467297828194356196e-02
1.467297828194356196e-02
1.469238238439852379e-02
1.469238238439852379e-02
1.469413928657896384e-02
1.469413928657896384e-02
1.470465587823575025e-02
1.470465587823575025e-02
1.470815196314659290e-02
1.470815196314659290e-02
1.471164333085219281e-02
1.471164333085219281e-02
1.472208916427562853e-02
1.472208916427562853e-02
1.474801873056914500e-02
1.474801873056914500e-02
1.475660336261704585e-02
1.475660336261704585e-02
1.479908963637761518e-02
1.479908963637761518e-02
1.481085586338145091e-02
1.481085586338145091e-02
1.481922565521929212e-02
1.481922565521929212e-02
1.483753780320124643e-02
1.483753780320124643e-02
1.489164230606346631e-02
1.489164230606346631e-02
1.489326245241215374e-02
1.489326245241215374e-02
1.490295949013235345e-02
1.490295949013235345e-02
1.491100917594182645e-02
1.491100917594182645e-02
1.492063145279429529e-02
1.492063145279429529e-02
1.492861894856454576e-02
1.492861894856454576e-02
1.494450939852151605e-02
1.494450939852151605e-02
1.496342957138370455e-02
1.496342957138370455e-02
1.497751383037244574e-02
1.497751383037244574e-02
1.499615216759626370e-02
1.499615216759626370e-02
1.500695050119995981e-02
1.500695050119995981e-02
1.501309654445382932e-02
1.501309654445382932e-02
1.501769443236169836e-02
1.501769443236169836e-02
1.502380944095131621e-02
1.502380944095131621e-02
1.505110819883521620e-02
1.505110819883521620e-02
1.506012845239561998e-02
1.506012845239561998e-02
1.506910915873602846e-02
1.506910915873602846e-02
1.507953676042210478e-02
1.507953676042210478e-02
1.508991074150205919e-02
1.508991074150205919e-02
1.509434034633982090e-02
1.509434034633982090e-02
1.510317010546640033e-02
1.510317010546640033e-02
1.510463791804462705e-02
1.510463791804462705e-02
1.511342193874869178e-02
1.511342193874869178e-02
1.511634124666039886e-02
1.511634124666039886e-02
1.512507310868561015e-02
1.512507310868561015e-02
1.513231983531160632e-02
1.513231983531160632e-02
1.513521094358609778e-02
1.513521094358609778e-02
1.513665487417078723e-02
1.513665487417078723e-02
1.515532762608748363e-02
1.515532762608748363e-02
1.516672795860570661e-02
1.516672795860570661e-02
1.516956728035492863e-02
1.516956728035492863e-02
1.517805945695604314e-02
1.517805945695604314e-02
1.519632672786319291e-02
1.519632672786319291e-02
1.520608806091465828e-02
1.520608806091465828e-02
1.522132168398773744e-02
1.522132168398773744e-02
1.522407759031198758e-02
1.522407759031198758e-02
1.523368977973442277e-02
1.523368977973442277e-02
1.524324995993599045e-02
1.524324995993599045e-02
1.524733128309484036e-02
1.524733128309484036e-02
1.525546535577910340e-02
1.525546535577910340e-02
1.525816825535482313e-02
1.525816825535482313e-02
1.528894847175660959e-02
1.528894847175660959e-02
1.529688661262179790e-02
1.529688661262179790e-02
1.530215773669088911e-02
1.530215773669088911e-02
1.530872308117308365e-02
1.530872308117308365e-02
1.531787064393776501e-02
1.531787064393776501e-02
1.532955664015049450e-02
1.532955664015049450e-02
1.533343321349755692e-02
1.533343321349755692e-02
1.537545881224515291e-02
1.537545881224515291e-02
1.537796959458809926e-02
1.537796959458809926e-02
1.538547718610809752e-02
1.538547718610809752e-02
1.538921706934612277e-02
1.538921706934612277e-02
1.539418916772466658e-02
1.539418916772466658e-02
1.539790744078058798e-02
1.539790744078058798e-02
1.541146201780490416e-02
1.541146201780490416e-02
1.541391315043778854e-02
1.541391315043778854e-02
1.544060553832586613e-02
1.544060553832586613e-02
1.545138281279051333e-02
1.545138281279051333e-02
1.545970816652111543e-02
1.545970816652111543e-02
1.546207769568160376e-02
1.546207769568160376e-02
1.546680457503840644e-02
1.546680457503840644e-02
1.547503757848412223e-02
1.547503757848412223e-02
1.548088791498056054e-02
1.548088791498056054e-02
1.549482561671772229e-02
1.549482561671772229e-02
1.550747423964793197e-02
1.550747423964793197e-02
1.554357904244577440e-02
1.554357904244577440e-02
1.555244509613235536e-02
1.555244509613235536e-02
1.556015052176923895e-02
1.556015052176923895e-02
1.556343790287392087e-02
1.556343790287392087e-02
1.556780714354394184e-02
1.556780714354394184e-02
1.556998579587768120e-02
1.556998579587768120e-02
1.558834395943541409e-02
1.558834395943541409e-02
1.560746999487835560e-02
1.560746999487835560e-02
1.561586774096285560e-02
1.561586774096285560e-02
1.562004295869387840e-02
1.562004295869387840e-02
1.564068299798088146e-02
1.564068299798088146e-02
1.565489752817909863e-02
1.565489752817909863e-02
1.565590551043475817e-02
1.565590551043475817e-02
1.565691251485788749e-02
1.565691251485788749e-02
1.567090800959569999e-02
1.567090800959569999e-02
1.567289175364443635e-02
1.567289175364443635e-02
1.568275202397224899e-02
1.568275202397224899e-02
1.568666888289512590e-02
1.568666888289512590e-02
1.569639300917772401e-02
1.569639300917772401e-02
1.569736008226681884e-02
1.569736008226681884e-02
1.570218089970073366e-02
1.570218089970073366e-02
1.573152999973862626e-02
1.573152999973862626e-02
1.573339162954518616e-02
1.573339162954518616e-02
1.574356174286923107e-02
1.574356174286923107e-02
1.574631520727385117e-02
1.574631520727385117e-02
1.574723110634619269e-02
1.574723110634619269e-02
1.575543097672677667e-02
1.575543097672677667e-02
1.575905041146951485e-02
1.575905041146951485e-02
1.576085437563357408e-02
1.576265450608282589e-02
1.576981671694709097e-02
1.576981671694709097e-02
1.579006726227091817e-02
1.579006726227091817e-02
1.580043248651682303e-02
1.580043248651682303e-02
1.580811649726870938e-02
1.580811649726870938e-02
1.581150691018892371e-02
1.581150691018892371e-02
1.581319642055618521e-02
1.581319642055618521e-02
1.581403975224953545e-02
1.581403975224953545e-02
1.581824218187967424e-02
1.581824218187967424e-02
1.582657595725431993e-02
1.582657595725431993e-02
1.583235327206841681e-02
1.583235327206841681e-02
1.583563379051315667e-02
1.583563379051315667e-02
1.584052622364875637e-02
1.584052622364875637e-02
1.584376896299993787e-02
1.584376896299993787e-02
1.584457728882569111e-02
1.584457728882569111e-02
1.585817461760912622e-02
1.585817461760912622e-02
1.586604598109771919e-02
1.586604598109771919e-02
1.586838906370806671e-02
1.586838906370806671e-02
1.587382339526005604e-02
1.587382339526005604e-02
1.588909692577660654e-02
1.588909692577660654e-02
1.588985077158817233e-02
1.588985077158817233e-02
1.589956570525861632e-02
1.589956570525861632e-02
1.590912286646681273e-02
1.590912286646681273e-02
1.592705961924699085e-02
1.592705961924699085e-02
1.593197780776717601e-02
1.593197780776717601e-02
1.593685053032378729e-02
1.593685053032378729e-02
1.594099099407714909e-02
1.594099099407714909e-02
1.594509811090074822e-02
1.594509811090074822e-02
1.596119362061006186e-02
1.596119362061006186e-02
1.596185272090468177e-02
1.596185272090468177e-02
1.596382448618974964e-02
1.596382448618974964e-02
1.597098329574934278e-02
1.597098329574934278e-02
1.597611969093713086e-02
1.597611969093713086e-02
1.598245737287577739e-02
1.598245737287577739e-02
1.598683905654822018e-02
1.598683905654822018e-02
1.598870314347937069e-02
1.598870314347937069e-02
1.598932266957677623e-02
1.598932266957677623e-02
1.599179159574585368e-02
1.599179159574585368e-02
1.600689005525737785e-02
1.600689005525737785e-02
1.600984107758002956e-02
1.600984107758002956e-02
1.601276923980073791e-02
1.601276923980073791e-02
1.603317829771574998e-02
1.603317829771574998e-02
1.603809602891959757e-02
1.603809602891959757e-02
1.604559941515102187e-02
1.604559941515102187e-02
1.605032899539435287e-02
1.605032899539435287e-02
1.605292477327342759e-02
1.605292477327342759e-02
1.605498506794622582e-02
1.605498506794622582e-02
1.605549787461675940e-02
1.605549787461675940e-02
1.605855567854278312e-02
1.605855567854278312e-02
1.606655039734035395e-02
1.606655039734035395e-02
1.607431349789636629e-02
1.607431349789636629e-02
1.607669202029849906e-02
1.607669202029849906e-02
1.607904796658912727e-02
1.607904796658912727e-02
1.609403170648104550e-02
1.609403170648104550e-02
1.609447044342002253e-02
1.609447044342002253e-02
1.609751640455911459e-02
1.609751640455911459e-02
1.610221386950091288e-02
1.610221386950091288e-02
1.610721435125696613e-02
1.610721435125696613e-02
1.610925971683204241e-02
1.610925971683204241e-02
1.610966609693961424e-02
1.610966609693961424e-02
1.611368054607937098e-02
1.611368054607937098e-02
1.611526121048572485e-02
1.611526121048572485e-02
1.611565413498331975e-02
1.611565413498331975e-02
1.611876526207241603e-02
1.611876526207241603e-02
1.611991714909887310e-02
1.611991714909887310e-02
1.612592442669517206e-02
1.612592442669517206e-02
1.612665922482118749e-02
1.612665922482118749e-02
1.612702528183953404e-02
1.612702528183953404e-02
1.613519780083256736e-02
1.613519780083256736e-02
1.613588611306217974e-02
1.613588611306217974e-02
1.614093461032869645e-02
1.614093461032869645e-02
1.614322185688553402e-02
1.614322185688553402e-02
1.614578233847208111e-02
1.614578233847208111e-02
1.615370999631235427e-02
1.615370999631235427e-02
1.615659881374736234e-02
1.615659881374736234e-02
1.616210958101836279e-02
1.616210958101836279e-02
1.616776080959672623e-02
1.616776080959672623e-02
1.617183331497967086e-02
1.617183331497967086e-02
1.617756596854464171e-02
1.617756596854464171e-02
1.617880378532362065e-02
1.617880378532362065e-02
1.617961127499160587e-02
1.617961127499160587e-02
1.618040458992694303e-02
1.618040458992694303e-02
1.618866494542998274e-02
1.618866494542998274e-02
1.618912583970155000e-02
1.618912583970155000e-02
1.619046076975700840e-02
1.619046076975700840e-02
1.619541811803723586e-02
1.619541811803723586e-02
1.619686990300980844e-02
1.619686990300980844e-02
1.620030601106718648e-02
1.620030601106718648e-02
1.620064217047955529e-02
1.620064217047955529e-02
1.620094656078020431e-02
1.620094656078020431e-02
1.620117595259010917e-02
1.620117595259010917e-02
1.620207143183750864e-02
1.620207143183750864e-02
1.620223817078318695e-02
1.620224346405494537e-02
1.620224346405494537e-02
1.620224346405494537e-02
1.620222493759621712e-02
1.620222493759621712e-02
1.620210583842712770e-02
1.620210583842712770e-02
1.620134358301261041e-02
1.620134358301261041e-02
1.620130299896418297e-02
1.620130299896418297e-02
1.619887924112772479e-02
1.619887924112772479e-02
1.619667310330993523e-02
1.619667310330993523e-02
1.619657337878234460e-02
1.619657337878234460e-02
1.619252651598242915e-02
1.619252651598242915e-02
1.619088983104307461e-02
1.619088983104307461e-02
1.618866494542998274e-02
1.618866494542998274e-02
1.618707113899903183e-02
1.618707113899903183e-02
1.618521576830978664e-02
1.618521576830978664e-02
1.618486692427049956e-02
1.618486692427049956e-02
1.618379914983621159e-02
1.618379914983621159e-02
1.617564941868165906e-02
1.617564941868165906e-02
1.617206488746125020e-02
1.617206488746125020e-02
1.616210958101836279e-02
1.616210958101836279e-02
1.615772942614015703e-02
1.615772942614015703e-02
1.614951608896689553e-02
1.614951608896689553e-02
1.614797595510980566e-02
1.614797595510980566e-02
1.614322185688553402e-02
1.614322185688553402e-02
1.613622892943519446e-02
1.613622892943519446e-02
1.612294943732468441e-02
1.612294943732468441e-02
1.612068059468081682e-02
1.612068059468081682e-02
1.610680258465573694e-02
1.610680258465573694e-02
1.610347611842183335e-02
1.610347611842183335e-02
1.609708396646718914e-02
1.609708396646718914e-02
1.609226775670199311e-02
1.609226775670199311e-02
1.607763710739022398e-02
1.607763710739022398e-02
1.607287554375608218e-02
1.607287554375608218e-02
1.606802361123133016e-02
1.606802361123133016e-02
1.606407694463546712e-02
1.606407694463546712e-02
1.605956769674182771e-02
1.605956769674182771e-02
1.605754003591454426e-02
1.605754003591454426e-02
1.605600977466222629e-02
1.605600977466222629e-02
1.604559941515101840e-02
1.604559941515101840e-02
1.603809602891959410e-02
1.603809602891959410e-02
1.603482573183867554e-02
1.603482573183867554e-02
1.602985884567872943e-02
1.602985884567872943e-02
1.602762765926344507e-02
1.602762765926344507e-02
1.602368799187228049e-02
1.602368799187228049e-02
1.601798236429609334e-02
1.601798236429609334e-02
1.601625287677784643e-02
1.601625287677784643e-02
1.600391616018700253e-02
1.600391616018700253e-02
1.599668541466634994e-02
1.599668541466634994e-02
1.598808269934676174e-02
1.598808269934676174e-02
1.598308608415591886e-02
1.598308608415591886e-02
1.597675759824592617e-02
1.597675759824592617e-02
1.595921078252708972e-02
1.595921078252708972e-02
1.595721963623560752e-02
1.595721963623560752e-02
1.595655407399935652e-02
1.595655407399935652e-02
1.595119631693240822e-02
1.595119631693240822e-02
1.594509811090074475e-02
1.594509811090074475e-02
1.593407168225408760e-02
1.593267669364281658e-02
1.592280780996647646e-02
1.592280780996647646e-02
1.591420378046592282e-02
1.591420378046592282e-02
1.591130598976728261e-02
1.591130598976728261e-02
1.590178519703784946e-02
1.590178519703784946e-02
1.588303247334767881e-02
1.588303247334767881e-02
1.588150699812135302e-02
1.588150699812135302e-02
1.586838906370806671e-02
1.586838906370806671e-02
1.586682794794102777e-02
1.586682794794102777e-02
1.586526307476274558e-02
1.586526307476274558e-02
1.585896598565147628e-02
1.585896598565147628e-02
1.585180978931023665e-02
1.585180978931023665e-02
1.584699660698505458e-02
1.584699660698505458e-02
1.584619111067415986e-02
1.584619111067415986e-02
1.584457728882569111e-02
1.584457728882569111e-02
1.582491677925928347e-02
1.582491677925928347e-02
1.577070768601728304e-02
1.577070768601728304e-02
1.573802884656098217e-02
1.573802884656098217e-02
1.572404491484177824e-02
1.572404491484177824e-02
1.571649805864798813e-02
1.571649805864798813e-02
1.571555035390522978e-02
1.571555035390522978e-02
1.571270143852857362e-02
1.571270143852857362e-02
1.569736008226681537e-02
1.569736008226681537e-02
1.569445595196401755e-02
1.569445595196401755e-02
1.569154308585814228e-02
1.569154308585814228e-02
1.568275202397224899e-02
1.568275202397224899e-02
1.567090800959569999e-02
1.567090800959569999e-02
1.564882908956773122e-02
1.564882908956773122e-02
1.563761203751671061e-02
1.563761203751671061e-02
1.562627625172104129e-02
1.562627625172104129e-02
1.554691130058357892e-02
1.554691130058357892e-02
1.554580154669903298e-02
1.554580154669903298e-02
1.553800529231184890e-02
1.553800529231184890e-02
1.552000111443372320e-02
1.552000111443372320e-02
1.551886733077676404e-02
1.551886733077676404e-02
1.549366969452525659e-02
1.549366969452525659e-02
1.544300761727956592e-02
1.544300761727956592e-02
1.543216614121285454e-02
1.543216614121285454e-02
1.543095643103913756e-02
1.543095643103913756e-02
1.540654744934102753e-02
1.540654744934102753e-02
1.540408400958478280e-02
1.540408400958478280e-02
1.533084987253716287e-02
1.533084987253716287e-02
1.525411232082267074e-02
1.525411232082267074e-02
1.524733128309484036e-02
1.524733128309484036e-02
1.517240230239076323e-02
1.517240230239076323e-02
1.516956728035492863e-02
1.516956728035492863e-02
1.515961082712294003e-02
1.515961082712294003e-02
1.511196065452131629e-02
1.511196065452131629e-02
1.508695221193789154e-02
1.508695221193789154e-02
1.501922484546978562e-02
1.501922484546978562e-02
1.501463028219292457e-02
1.501463028219292457e-02
1.500695050119995981e-02
1.500695050119995981e-02
1.500078669390041836e-02
1.500078669390041836e-02
1.499615216759626370e-02
1.499615216759626370e-02
1.495083408006140681e-02
1.495083408006140681e-02
1.494450939852151605e-02
1.494450939852151605e-02
1.494134031381577805e-02
1.494134031381577805e-02
1.491742854959376280e-02
1.491742854959376280e-02
1.491582540263406212e-02
1.491582540263406212e-02
1.486392566874405324e-02
1.486392566874405324e-02
1.482256549834543372e-02
1.482256549834543372e-02
1.478895915392986621e-02
1.478895915392986621e-02
1.474629829650404497e-02
1.474629829650404497e-02
1.474285391744535254e-02
1.474285391744535254e-02
1.472902952855028105e-02
1.472902952855028105e-02
1.472729619995917158e-02
1.472729619995917158e-02
1.471861192807060251e-02
1.471861192807060251e-02
1.467828453951698642e-02
1.467828453951698642e-02
1.467297828194356196e-02
1.467297828194356196e-02
1.464986081800847932e-02
1.464986081800847932e-02
1.464807420968671642e-02
1.464807420968671642e-02
1.463194095801216218e-02
1.463194095801216218e-02
1.462113157453873505e-02
1.461751884758182886e-02
1.458112668407681931e-02
1.458112668407681931e-02
1.456643445770413985e-02
1.456643445770413985e-02
1.455351502953087378e-02
1.455351502953087378e-02
1.453309249721391680e-02
1.453309249721391680e-02
1.450876602776144872e-02
1.450876602776144872e-02
1.449935446374325462e-02
1.449935446374325462e-02
1.444223669193208694e-02
1.444223669193208694e-02
1.442101331798097998e-02
1.442101331798097998e-02
1.437811172282568023e-02
1.437811172282568023e-02
1.437221428772725990e-02
1.437221428772725990e-02
1.431060544881504817e-02
1.431060544881504817e-02
1.430658860408588057e-02
1.430658860408588057e-02
1.429248925445311680e-02
1.429248925445311680e-02
1.428844931006791052e-02
1.428844931006791052e-02
1.428035398126984573e-02
1.428035398126984573e-02
1.424571841122550947e-02
1.424571841122550947e-02
1.423751445427652237e-02
1.423751445427652237e-02
1.423546021604607699e-02
1.423546021604607699e-02
1.422310745174803007e-02
1.422310745174803007e-02
1.418785258937410587e-02
1.418785258937410587e-02
1.417113085241659270e-02
1.417113085241659270e-02
1.413954991438343654e-02
1.413954991438343654e-02
1.413743392168603438e-02
1.413743392168603438e-02
1.408195023642443144e-02
1.408195023642443144e-02
1.407549002440210487e-02
1.407549002440210487e-02
1.401021906372665500e-02
1.401021906372665500e-02
1.397046812505452554e-02
1.397046812505452554e-02
1.395265814723806175e-02
1.395265814723806175e-02
1.389643056396339810e-02
1.389643056396339810e-02
1.388962473591015545e-02
1.388962473591015545e-02
1.386913156001168962e-02
1.386913156001168962e-02
1.384163001316343275e-02
1.384163001316343275e-02
1.378601443324757071e-02
1.378601443324757071e-02
1.378367928495973296e-02
1.378367928495973296e-02
1.370342687108517393e-02
1.370342687108517393e-02
1.367470155251142121e-02
1.367470155251142121e-02
1.366267038201674465e-02
1.366267038201674465e-02
1.364576492806012127e-02
1.364576492806012127e-02
1.363364531708153443e-02
1.363364531708153443e-02
1.361173666730392320e-02
1.361173666730392320e-02
1.359216115601766250e-02
1.359216115601766250e-02
1.358479570575421048e-02
1.358479570575421048e-02
1.357002437187012842e-02
1.357002437187012842e-02
1.350538829661502606e-02
1.350538829661502606e-02
1.349284068424399727e-02
1.349284068424399727e-02
1.346257040257642021e-02
1.346257040257642021e-02
1.342186528402117100e-02
1.342186528402117100e-02
1.338076287546624554e-02
1.338076287546624554e-02
1.328681070937646168e-02
1.328681070937646168e-02
1.325237632796152226e-02
1.325237632796152226e-02
1.324439131681610926e-02
1.324439131681610926e-02
1.323372201913133872e-02
1.323372201913133872e-02
1.321766948221339728e-02
1.321766948221339728e-02
1.314198068987898656e-02
1.314198068987898656e-02
1.313106272399184107e-02
1.313106272399184107e-02
1.312559380141745807e-02
1.312559380141745807e-02
1.299514512755951985e-02
1.299514512755951985e-02
1.292136656233453841e-02
1.292136656233453841e-02
1.284059715266515356e-02
1.284059715266515356e-02
1.278499956809511437e-02
1.278499956809511437e-02
1.275547786033137503e-02
1.275547786033137503e-02
1.272279510222815851e-02
1.272279510222815851e-02
1.271682914613545858e-02
1.271682914613545858e-02
1.270786652443752635e-02
1.270786652443752635e-02
1.262949737787194722e-02
1.262949737787194722e-02
1.262341712468836863e-02
1.262341712468836863e-02
1.259290371906358896e-02
1.259290371906358896e-02
1.257450557183156445e-02
1.257450557183156445e-02
1.255912189599467724e-02
1.255912189599467724e-02
1.255295517613585696e-02
1.255295517613585696e-02
1.253750515492463129e-02
1.253750515492463129e-02
1.252200753373498669e-02
1.252200753373498669e-02
1.250957504593406752e-02
1.250957504593406752e-02
1.245639371358975983e-02
1.245639371358975983e-02
1.224453966828914150e-02
1.224453966828914150e-02
1.222484560870568983e-02
1.222484560870568983e-02
1.219516577151915152e-02
1.219516577151915152e-02
1.218854753745529651e-02
1.218192101436788716e-02
1.217528618872275835e-02
1.217528618872275835e-02
1.214198704516907673e-02
1.214198704516907673e-02
1.206460062938723155e-02
1.206460062938723155e-02
1.205442387799824169e-02
1.205442387799824169e-02
1.200667665487804500e-02
1.200667665487804500e-02
1.199295676941663710e-02
1.199295676941663710e-02
1.197920207899754244e-02
1.197920207899754244e-02
1.195850452127544816e-02
1.195850452127544816e-02
1.194119623428500573e-02
1.194119623428500573e-02
1.183971406353952205e-02
1.183971406353952205e-02
1.182910821677073294e-02
1.182910821677073294e-02
1.180428180218047809e-02
1.180428180218047809e-02
1.176504274237192768e-02
1.176504274237192768e-02
1.171830962797991774e-02
1.171830962797991774e-02
1.169298271120800328e-02
1.169298271120800328e-02
1.153857932792182531e-02
1.153857932792182531e-02
1.145599257218350014e-02
1.145599257218350014e-02
1.145221012442044183e-02
1.145221012442044183e-02
1.141424783392466086e-02
1.141424783392466086e-02
1.141043776856849948e-02
1.141043776856849948e-02
1.137603321604254911e-02
1.137603321604254911e-02
1.129883674024117525e-02
1.129883674024117525e-02
1.122059965350512972e-02
1.122059965350512972e-02
1.117314882662566455e-02
1.117314882662566455e-02
1.110124466988797812e-02
1.110124466988797812e-02
1.100398699341833229e-02
1.100398699341833229e-02
1.090095119944473057e-02
1.090095119944473057e-02
1.087595513765221046e-02
1.087595513765221046e-02
1.083826393603285095e-02
1.083826393603285095e-02
1.083406133385671731e-02
1.083406133385671731e-02
1.077066627702766982e-02
1.077066627702766982e-02
1.076641604656906025e-02
1.076641604656906025e-02
1.070229977733985934e-02
1.070229977733985934e-02
1.051020447777248866e-02
1.051020447777248866e-02
1.047015251203200700e-02
1.047015251203200700e-02
1.045674316098952478e-02
1.045674316098952478e-02
1.044778719170981127e-02
1.044778719170981127e-02
1.038925106802631761e-02
1.038925106802631761e-02
1.036204423953982282e-02
1.036204423953982282e-02
1.035749798986810091e-02
1.035749798986810091e-02
1.028889648673219151e-02
1.028889648673219151e-02
1.026123971147628253e-02
1.026123971147628253e-02
1.024736450187728638e-02
1.024736450187728638e-02
1.021951980302765461e-02
1.021951980302765461e-02
1.015875403786726389e-02
1.015875403786726389e-02
1.013522211837021049e-02
1.013522211837021049e-02
1.000176010079470434e-02
1.000176010079470434e-02
9.963093143662095363e-03
9.963093143662095363e-03
9.880116009191067597e-03
9.880116009191067597e-03
9.850562960774892143e-03
9.850562960774892143e-03
9.735955702828874223e-03
9.735955702828874223e-03
9.710759065027479292e-03
9.710759065027479292e-03
9.695591960808715506e-03
9.695591960808715506e-03
9.608939972752819636e-03
9.608939972752819636e-03
9.588374854496307248e-03
9.588374854496307248e-03
9.578066783009741778e-03
9.578066783009741778e-03
9.567741630017348453e-03
9.567741630017348453e-03
9.547039857738982491e-03
9.547039857738982491e-03
9.500207918725508960e-03
9.500207918725508960e-03
9.394860000581888373e-03
9.394860000581888373e-03
9.249757018019062749e-03
9.249757018019062749e-03
9.206106979892552875e-03
9.206106979892552875e-03
9.140053416688827953e-03
9.140053416688827953e-03
9.062095381496342375e-03
9.062095381496342375e-03
8.971788734431777185e-03
8.971788734431777185e-03
8.931863647259674632e-03
8.931863647259674632e-03
8.614922826758960456e-03
8.614922826758960456e-03
8.578684520694573878e-03
8.578684520694573878e-03
8.480995468487659977e-03
8.480995468487659977e-03
8.331491230545563439e-03
8.331491230545563439e-03
8.255349913391904146e-03
8.255349913391904146e-03
8.216920742889799109e-03
8.216920742889799109e-03
8.165302484170390562e-03
8.165302484170390562e-03
7.940897952338307753e-03
7.940897952338307753e-03
7.893645322546312057e-03
7.893645322546312057e-03
7.749616783017459869e-03
7.749616783017459869e-03
7.693824106306668478e-03
7.679793993094014871e-03
7.181755687531264296e-03
7.181755687531264296e-03
7.065911720494335441e-03
7.065911720494335441e-03
6.653365615168188585e-03
6.636550653290937581e-03
6.602766287809168355e-03
6.602766287809168355e-03
5.516010973674597556e-03
5.516010973674597556e-03
5.399769948060696365e-03
5.399769948060696365e-03
5.269663915159432561e-03
5.269663915159432561e-03
5.225487894647197484e-03
5.225487894647197484e-03
5.214378559104045595e-03
5.214378559104045595e-03
5.055988760367809490e-03
5.055988760367809490e-03
4.709093410746072704e-03
4.709093410746072704e-03
4.518184539055515245e-03
4.518184539055515245e-03
4.331749873644263893e-03
4.331749873644263893e-03
4.263031399431830952e-03
4.263031399431830952e-03
3.712227665672357315e-03
3.712227665672357315e-03
3.630979287470918054e-03
3.630979287470918054e-03
2.916473537034855110e-03
2.916473537034855110e-03
2.656619313023259044e-03
2.656619313023259044e-03
2.443108850562451025e-03
2.443108850562451025e-03
2.289453544768283322e-03
2.289453544768283322e-03
2.180879845352283117e-03
2.180879845352283117e-03
2.124472889269735619e-03
2.124472889269735619e-03
2.095689923270938840e-03
2.095689923270938840e-03
1.976298349773069046e-03
1.976298349773069046e-03
0.000000000000000000e+00
