iter	Logloss
0	0.6717965849
1	0.6528091745
2	0.6346595492
3	0.6198492741
4	0.6050964041
5	0.5919904668
6	0.5804434913
7	0.5701781401
8	0.5633722842
9	0.5556900864
10	0.5477412781
11	0.5392088433
12	0.5323592449
13	0.527040156
14	0.5215291129
15	0.5174751347
16	0.5136874081
17	0.5090927411
18	0.5052081659
19	0.5017268465
20	0.4981011291
21	0.495375734
22	0.4917313038
23	0.4891286924
24	0.4863553024
25	0.4834972545
26	0.48073373
27	0.4781854115
28	0.4759446439
29	0.4736879281
30	0.4721468099
31	0.4702320848
32	0.4688149618
33	0.4672956359
34	0.4660534316
35	0.4644022104
36	0.4633261631
37	0.4622237077
38	0.4603067491
39	0.4591860746
40	0.4578900678
41	0.4570909797
42	0.4561963832
43	0.4552678311
44	0.4542594893
45	0.4529590315
46	0.4521972647
47	0.4513617434
48	0.4506104068
49	0.4501021129
50	0.449357887
51	0.4489643868
52	0.4484955306
53	0.4480079929
54	0.4477045895
55	0.4472345593
56	0.4464661073
57	0.4460575082
58	0.445492256
59	0.4449099734
60	0.4443749414
61	0.4440905017
62	0.4438202566
63	0.443541778
64	0.4430436704
65	0.4426118895
66	0.4423493201
67	0.4419932411
68	0.4417419297
69	0.4414992763
70	0.4412463674
71	0.4408581756
72	0.4406771812
73	0.4403163436
74	0.4400529169
75	0.4397844741
76	0.4394370983
77	0.4391444036
78	0.4389381612
79	0.438654032
80	0.4384751412
81	0.4382019736
82	0.4380625011
83	0.4376767673
84	0.4373503971
85	0.4371599003
86	0.4368559252
87	0.4364890877
88	0.4363043933
89	0.436098921
90	0.4357337429
91	0.4355135963
92	0.4353714244
93	0.4351736276
94	0.4348366371
95	0.4343207773
96	0.434081941
97	0.4338343932
98	0.4336558278
99	0.4333154643
100	0.4331757403
101	0.4329463364
102	0.4327543576
103	0.4326466459
104	0.4324511618
105	0.4321902894
106	0.4321200088
107	0.4318534149
108	0.4315915747
109	0.4313326302
110	0.431095696
111	0.4309672714
112	0.4308269597
113	0.4307286218
114	0.4306166193
115	0.4304134889
116	0.430192342
117	0.4299579077
118	0.4296298897
119	0.4295037343
120	0.4292736618
121	0.429134576
122	0.4290209881
123	0.4288441206
124	0.4284257661
125	0.4282442759
126	0.4281435816
127	0.4280593965
128	0.4279319643
129	0.4278267078
130	0.4277035516
131	0.4276085213
132	0.4274091534
133	0.4273042692
134	0.4271047336
135	0.4269330101
136	0.4267873631
137	0.4266704534
138	0.4264855172
139	0.4262850075
140	0.4261047733
141	0.4259878681
142	0.4258104915
143	0.4257496181
144	0.4256106669
145	0.4254923047
146	0.425412528
147	0.4253061814
148	0.4251880432
149	0.4250635328
150	0.4249500905
151	0.4248232702
152	0.4247506091
153	0.4243462653
154	0.4241352737
155	0.4240478155
156	0.4239059351
157	0.4236990247
158	0.4235436498
159	0.4234153551
160	0.4232869285
161	0.4231778236
162	0.4231202092
163	0.4230255257
164	0.422932211
165	0.4227872574
166	0.4226977278
167	0.4225971419
168	0.4225007565
169	0.4223869773
170	0.4222132829
171	0.422103731
172	0.4216454226
173	0.4215558293
174	0.4212676637
175	0.4211818803
176	0.4207643725
177	0.4206734942
178	0.4205941824
179	0.4204939031
180	0.4204256886
181	0.4203129717
182	0.4202353278
183	0.4200193528
184	0.4194441767
185	0.4192998019
186	0.4192370152
187	0.4189946555
188	0.4188433276
189	0.418722711
190	0.4185720395
191	0.4185076019
192	0.4183766923
193	0.4181867864
194	0.4180799215
195	0.4178360545
196	0.4177589096
197	0.4176555282
198	0.4174920213
199	0.4173978736
200	0.4173325485
201	0.417230865
202	0.4171401946
203	0.4170326581
204	0.4169345573
205	0.4168699666
206	0.4167909513
207	0.4164592129
208	0.4163660169
209	0.4162476202
210	0.4161487507
211	0.4159170004
212	0.4158412258
213	0.4156909342
214	0.4154618826
215	0.4152977232
216	0.414961582
217	0.4148781172
218	0.414807571
219	0.414686171
220	0.4145896863
221	0.4143939004
222	0.4139242303
223	0.4133966135
224	0.4133074471
225	0.4131408031
226	0.413068924
227	0.4129672354
228	0.412861785
229	0.4127137719
230	0.4126190754
231	0.4125614185
232	0.4124235318
233	0.4122972573
234	0.4122228831
235	0.4121253629
236	0.4120289093
237	0.4119468397
238	0.4118428364
239	0.4117731428
240	0.4116729986
241	0.4115817469
242	0.4115073428
243	0.4113547996
244	0.4113018178
245	0.4112322426
246	0.4110868449
247	0.4109509164
248	0.4108728945
249	0.4107366245
250	0.410666902
251	0.4106180114
252	0.4102792471
253	0.4101530914
254	0.4100962718
255	0.4100291942
256	0.4098994442
257	0.4096917824
258	0.409572877
259	0.4092725341
260	0.4090990088
261	0.4089337114
262	0.4088426958
263	0.4086524484
264	0.4085202376
265	0.4084191296
266	0.4081164585
267	0.4079294746
268	0.4078446183
269	0.4076884493
270	0.4076051349
271	0.4074748734
272	0.4073559533
273	0.4071472711
274	0.40710108
275	0.4069254988
276	0.4067679753
277	0.406636831
278	0.4063718614
279	0.4062518501
280	0.405951539
281	0.4058904345
282	0.405784262
283	0.405578224
284	0.4055494315
285	0.4054742419
286	0.4053989214
287	0.405312029
288	0.4052367179
289	0.4050571931
290	0.4049819258
291	0.4045213232
292	0.4044634323
293	0.404375189
294	0.404264452
295	0.4040089972
296	0.4039382386
297	0.403802339
298	0.4037245961
299	0.4036317153
300	0.4035296514
301	0.4034589181
302	0.4033451883
303	0.4032225081
304	0.4030611813
305	0.4029441175
306	0.4027817879
307	0.4027153929
308	0.4025637677
309	0.402426988
310	0.4023409353
311	0.4022505596
312	0.4021827878
313	0.4020909716
314	0.4020367317
315	0.4019835664
316	0.401803946
317	0.4017183873
318	0.4015672344
319	0.4014988777
320	0.4014299424
321	0.4013081698
322	0.4012029027
323	0.401054259
324	0.4009230036
325	0.4008405564
326	0.4007583736
327	0.4006836581
328	0.400495787
329	0.4004448276
330	0.4003845044
331	0.4001970279
332	0.4001301928
333	0.400029341
334	0.3999374318
335	0.3998835752
336	0.3998088359
337	0.3996474905
338	0.3995937872
339	0.3994930718
340	0.3994050493
341	0.3993014152
342	0.3990660373
343	0.3989996566
344	0.3989042523
345	0.3988538963
346	0.3987592243
347	0.3986591028
348	0.398572839
349	0.3985206414
350	0.3984910106
351	0.3983979654
352	0.3982668934
353	0.3981776306
354	0.398085761
355	0.3980202503
356	0.3979325364
357	0.3978173908
358	0.3977025752
359	0.3976094743
360	0.3975117372
361	0.3973111036
362	0.3972437686
363	0.3971894827
364	0.3970513344
365	0.3969899924
366	0.3969282699
367	0.3968229149
368	0.3967478937
369	0.396641651
370	0.3965963637
371	0.396551585
372	0.3964936325
373	0.3964061559
374	0.3962556108
375	0.3961576363
376	0.3960692124
377	0.3960091435
378	0.3959655834
379	0.3958297892
380	0.3956288699
381	0.3955298739
382	0.3954773375
383	0.3953826857
384	0.3952689586
385	0.3952208717
386	0.3951558566
387	0.3950806589
388	0.3949533786
389	0.3948525578
390	0.3947846852
391	0.394701234
392	0.3946182114
393	0.3945324419
394	0.3944407753
395	0.3943861382
396	0.3943361677
397	0.3942532142
398	0.3940594625
399	0.3939119998
400	0.3938444126
401	0.3937286431
402	0.3936770064
403	0.3935903
404	0.3935063647
405	0.3934584189
406	0.3933622992
407	0.393284217
408	0.3931450806
409	0.392981556
410	0.392880012
411	0.3927971957
412	0.3926813201
413	0.3925769933
414	0.3924757576
415	0.3923951866
416	0.3923419654
417	0.3922790899
418	0.3921992368
419	0.3920316088
420	0.391955496
421	0.391902586
422	0.3918111231
423	0.3917543597
424	0.3916870236
425	0.3916319848
426	0.3915687301
427	0.3914825639
428	0.3914207035
429	0.3913673516
430	0.39130359
431	0.3911180372
432	0.3910117997
433	0.3909177439
434	0.390781708
435	0.3907369583
436	0.3906780901
437	0.3906163783
438	0.3905618259
439	0.3905039168
440	0.3903926055
441	0.3902958512
442	0.3902586178
443	0.3901653257
444	0.3901259341
445	0.3900339679
446	0.3899660748
447	0.3899317979
448	0.3898492067
449	0.389748259
450	0.3897078972
451	0.3896033565
452	0.3895522196
453	0.3894567515
454	0.3891654648
455	0.3890829234
456	0.3889973871
457	0.3889408891
458	0.3887179463
459	0.3886262143
460	0.3885289108
461	0.3884655823
462	0.3883933054
463	0.3883323528
464	0.3882400801
465	0.3881643031
466	0.3880300586
467	0.3879436886
468	0.3878657332
469	0.3878033411
470	0.3877423668
471	0.3876655866
472	0.3874662593
473	0.3874065566
474	0.3873444095
475	0.3871376568
476	0.3871007391
477	0.3870481915
478	0.3869936556
479	0.3869300491
480	0.3868548357
481	0.3867989106
482	0.3867393414
483	0.386687797
484	0.3866026127
485	0.3865139686
486	0.386434692
487	0.3863879002
488	0.386372582
489	0.3863216561
490	0.3862795211
491	0.3862133292
492	0.386179354
493	0.3860935673
494	0.3860288888
495	0.3859432469
496	0.3858878884
497	0.3857407092
498	0.3856985527
499	0.3856495962
