6.509022712707519531e-01
5.879207849502563477e-01
2.918442487716674805e-01
5.854927301406860352e-01
3.311445116996765137e-01
7.706788778305053711e-01
7.792319655418395996e-01
6.849754452705383301e-01
5.879915356636047363e-01
6.194658279418945312e-01
7.827651500701904297e-01
3.350347876548767090e-01
7.687530517578125000e-01
6.740790009498596191e-01
7.823796868324279785e-01
3.838558197021484375e-01
5.885409712791442871e-01
6.848860383033752441e-01
6.196964979171752930e-01
3.821679949760437012e-01
7.818348407745361328e-01
6.201350688934326172e-01
5.297571420669555664e-01
6.849859952926635742e-01
7.804293632507324219e-01
6.834244132041931152e-01
6.199277639389038086e-01
6.200792789459228516e-01
6.204378008842468262e-01
5.466533303260803223e-01
5.872371792793273926e-01
4.984125792980194092e-01
6.196520328521728516e-01
6.838422417640686035e-01
6.210070848464965820e-01
6.849017143249511719e-01
3.805441856384277344e-01
5.337333083152770996e-01
4.093527197837829590e-01
3.836627304553985596e-01
3.636761903762817383e-01
6.841503381729125977e-01
3.817360103130340576e-01
7.761561870574951172e-01
7.766633629798889160e-01
6.198858022689819336e-01
6.848013997077941895e-01
3.822805881500244141e-01
5.878008008003234863e-01
3.714477717876434326e-01
6.194795966148376465e-01
3.623924255371093750e-01
7.210630178451538086e-01
6.847695112228393555e-01
3.876914978027343750e-01
6.840429306030273438e-01
7.845341563224792480e-01
7.450892329216003418e-01
6.850783228874206543e-01
6.203999519348144531e-01
7.820814847946166992e-01
7.164936065673828125e-01
7.025314569473266602e-01
2.615267634391784668e-01
5.885331630706787109e-01
7.629383206367492676e-01
6.195611357688903809e-01
7.394973039627075195e-01
6.833313703536987305e-01
4.050745368003845215e-01
6.849956512451171875e-01
6.203922033309936523e-01
7.531039714813232422e-01
6.847796440124511719e-01
7.331827878952026367e-01
5.855857729911804199e-01
5.881249308586120605e-01
3.656394481658935547e-01
6.193684339523315430e-01
6.202095150947570801e-01
6.848900318145751953e-01
6.841013431549072266e-01
6.228419542312622070e-01
6.849628686904907227e-01
5.864045023918151855e-01
5.864799022674560547e-01
5.907876491546630859e-01
3.708146512508392334e-01
7.113200426101684570e-01
3.622586727142333984e-01
7.577005624771118164e-01
5.452416539192199707e-01
5.471025705337524414e-01
3.289211392402648926e-01
6.200792193412780762e-01
7.492947578430175781e-01
7.538692951202392578e-01
6.195408105850219727e-01
5.459217429161071777e-01
3.349705338478088379e-01
6.199976801872253418e-01
3.463979959487915039e-01
3.655588030815124512e-01
6.194720268249511719e-01
5.453086495399475098e-01
6.850322484970092773e-01
3.412572741508483887e-01
2.527449727058410645e-01
3.286861181259155273e-01
4.005374312400817871e-01
3.928959369659423828e-01
7.821202278137207031e-01
6.201221942901611328e-01
3.614606857299804688e-01
5.876239538192749023e-01
6.195443272590637207e-01
3.257759809494018555e-01
6.838550567626953125e-01
5.885613560676574707e-01
4.651793837547302246e-01
6.850190162658691406e-01
5.878328680992126465e-01
6.850150823593139648e-01
3.520881831645965576e-01
6.841545701026916504e-01
3.690366148948669434e-01
5.852065086364746094e-01
7.847712635993957520e-01
6.196143627166748047e-01
6.196741461753845215e-01
2.769084572792053223e-01
3.073528110980987549e-01
3.532719910144805908e-01
3.860105276107788086e-01
5.877056121826171875e-01
5.880576372146606445e-01
6.841123700141906738e-01
5.468508005142211914e-01
9.983241558074951172e-01
3.602936863899230957e-01
5.906267166137695312e-01
6.846390962600708008e-01
5.852736234664916992e-01
7.817052602767944336e-01
6.849727630615234375e-01
3.326554298400878906e-01
6.839896440505981445e-01
4.143939316272735596e-01
3.526027202606201172e-01
3.868852853775024414e-01
3.096506595611572266e-01
6.199706792831420898e-01
3.397151827812194824e-01
6.205302476882934570e-01
5.908094644546508789e-01
7.835245132446289062e-01
5.877347588539123535e-01
3.521152138710021973e-01
4.032787084579467773e-01
3.325369060039520264e-01
5.882800817489624023e-01
7.559170722961425781e-01
6.850566267967224121e-01
7.858098745346069336e-01
3.610908389091491699e-01
3.652355074882507324e-01
6.840367317199707031e-01
5.906085968017578125e-01
6.839489936828613281e-01
5.866278409957885742e-01
5.893852710723876953e-01
2.620396018028259277e-01
2.339067459106445312e-01
5.877590179443359375e-01
5.853355526924133301e-01
5.451610684394836426e-01
3.414660692214965820e-01
6.848088502883911133e-01
6.832989454269409180e-01
6.927882432937622070e-01
6.201966404914855957e-01
6.820970773696899414e-01
6.194366812705993652e-01
7.551900148391723633e-01
7.836169004440307617e-01
3.791852593421936035e-01
3.356935083866119385e-01
6.324352622032165527e-01
5.451686382293701172e-01
3.371986746788024902e-01
6.195241212844848633e-01
6.837379932403564453e-01
5.454139113426208496e-01
3.388042449951171875e-01
6.194491982460021973e-01
5.319815278053283691e-01
6.202816367149353027e-01
3.288372159004211426e-01
7.096946835517883301e-01
4.839036166667938232e-01
3.298479914665222168e-01
6.837445497512817383e-01
4.859291613101959229e-01
6.849530339241027832e-01
6.840199232101440430e-01
7.828409075736999512e-01
6.848757863044738770e-01
7.851295471191406250e-01
2.624419033527374268e-01
3.841553330421447754e-01
5.904275178909301758e-01
3.648148775100708008e-01
5.307919979095458984e-01
3.866687715053558350e-01
6.194889545440673828e-01
6.200748085975646973e-01
6.838362216949462891e-01
5.469701886177062988e-01
4.650620818138122559e-01
5.809965133666992188e-01
3.904189467430114746e-01
6.251837015151977539e-01
7.077581882476806641e-01
2.999930381774902344e-01
3.237306177616119385e-01
6.837790012359619141e-01
9.981057643890380859e-01
3.831897377967834473e-01
7.673954963684082031e-01
5.469145774841308594e-01
5.470277070999145508e-01
6.839878559112548828e-01
7.849272489547729492e-01
5.811452269554138184e-01
3.200045228004455566e-01
6.839513778686523438e-01
7.439058423042297363e-01
6.850143671035766602e-01
7.514915466308593750e-01
5.467885732650756836e-01
3.832016885280609131e-01
3.270378708839416504e-01
3.414677381515502930e-01
3.253111243247985840e-01
6.194177865982055664e-01
6.193315982818603516e-01
5.754446387290954590e-01
5.465703010559082031e-01
5.606545805931091309e-01
5.853171944618225098e-01
5.461542010307312012e-01
7.337478995323181152e-01
2.977693080902099609e-01
7.699273824691772461e-01
6.193212270736694336e-01
4.093783497810363770e-01
7.822482585906982422e-01
2.634440660476684570e-01
6.849764585494995117e-01
5.447399616241455078e-01
6.847737431526184082e-01
3.826460838317871094e-01
7.134588360786437988e-01
5.887328386306762695e-01
6.200460195541381836e-01
6.850177049636840820e-01
6.841741800308227539e-01
4.813391566276550293e-01
5.454135537147521973e-01
7.862114906311035156e-01
5.885012745857238770e-01
7.041239142417907715e-01
3.828457593917846680e-01
7.738484144210815430e-01
4.051612615585327148e-01
3.818343281745910645e-01
6.838544607162475586e-01
5.461975336074829102e-01
4.306757152080535889e-01
2.526001334190368652e-01
7.838669419288635254e-01
3.845894038677215576e-01
3.652634024620056152e-01
6.839476227760314941e-01
5.854494571685791016e-01
3.610715270042419434e-01
7.626140117645263672e-01
3.988204896450042725e-01
6.841074228286743164e-01
6.201185584068298340e-01
6.849026083946228027e-01
6.978539228439331055e-01
5.907216668128967285e-01
6.196481585502624512e-01
5.871278047561645508e-01
6.937717795372009277e-01
4.199385046958923340e-01
3.864293396472930908e-01
5.338253378868103027e-01
5.884990096092224121e-01
3.302577733993530273e-01
6.268289685249328613e-01
6.515405774116516113e-01
5.326726436614990234e-01
5.869247317314147949e-01
6.200520992279052734e-01
3.808545470237731934e-01
5.451806783676147461e-01
6.841247677803039551e-01
3.771290183067321777e-01
6.836994886398315430e-01
2.539847493171691895e-01
6.849447488784790039e-01
6.202610731124877930e-01
6.838742494583129883e-01
6.849551200866699219e-01
6.840817928314208984e-01
2.857350409030914307e-01
9.986400008201599121e-01
7.465034723281860352e-01
5.451660156250000000e-01
7.845859527587890625e-01
7.827272415161132812e-01
6.838869452476501465e-01
3.363043665885925293e-01
7.757763862609863281e-01
7.825953364372253418e-01
7.813676595687866211e-01
5.860989689826965332e-01
6.841367483139038086e-01
7.410818934440612793e-01
3.727701306343078613e-01
6.849688291549682617e-01
7.575311064720153809e-01
6.194053292274475098e-01
5.880821943283081055e-01
6.850759983062744141e-01
6.840806603431701660e-01
3.270099461078643799e-01
7.859723567962646484e-01
6.808389425277709961e-01
3.631485104560852051e-01
3.788200616836547852e-01
6.841627359390258789e-01
3.395402729511260986e-01
6.849431991577148438e-01
7.770369052886962891e-01
5.328043103218078613e-01
5.888342261314392090e-01
6.847643852233886719e-01
3.929898738861083984e-01
3.357736468315124512e-01
5.461475253105163574e-01
6.194527745246887207e-01
7.506927251815795898e-01
5.892436504364013672e-01
6.846290826797485352e-01
7.807828187942504883e-01
5.467703938484191895e-01
6.850120425224304199e-01
3.521385788917541504e-01
6.847919225692749023e-01
2.540381550788879395e-01
4.167940318584442139e-01
6.839340925216674805e-01
6.841285228729248047e-01
6.840458512306213379e-01
7.716835737228393555e-01
6.194581985473632812e-01
4.809648096561431885e-01
4.949596524238586426e-01
5.907346606254577637e-01
6.839644908905029297e-01
7.714569568634033203e-01
5.870190262794494629e-01
7.833126783370971680e-01
7.356902360916137695e-01
6.839693784713745117e-01
3.611807823181152344e-01
5.784814357757568359e-01
7.842658162117004395e-01
6.194620728492736816e-01
7.243639230728149414e-01
3.618105053901672363e-01
6.202700138092041016e-01
3.728735446929931641e-01
4.027858972549438477e-01
7.832353115081787109e-01
6.839100122451782227e-01
7.812229394912719727e-01
7.091779708862304688e-01
6.202319264411926270e-01
3.159026205539703369e-01
7.116445302963256836e-01
7.817178964614868164e-01
7.186504602432250977e-01
3.808695077896118164e-01
6.846115589141845703e-01
6.841328144073486328e-01
5.906059741973876953e-01
5.333351492881774902e-01
7.850912809371948242e-01
3.943314254283905029e-01
3.602053523063659668e-01
4.093468189239501953e-01
7.773951888084411621e-01
6.849935650825500488e-01
6.847839355468750000e-01
7.436720132827758789e-01
5.465989112854003906e-01
7.811045050621032715e-01
3.656781315803527832e-01
6.837277412414550781e-01
6.199225187301635742e-01
5.888634920120239258e-01
7.810177803039550781e-01
3.257796466350555420e-01
3.567130565643310547e-01
6.203814148902893066e-01
5.889356136322021484e-01
5.463739037513732910e-01
6.193550825119018555e-01
3.799799084663391113e-01
4.121798872947692871e-01
7.832702398300170898e-01
6.846140027046203613e-01
5.871899724006652832e-01
5.888831019401550293e-01
7.785751223564147949e-01
5.451446175575256348e-01
6.841313838958740234e-01
6.837610006332397461e-01
3.813239336013793945e-01
6.849330663681030273e-01
3.708325028419494629e-01
6.199150681495666504e-01
4.028967916965484619e-01
3.838933110237121582e-01
3.847953379154205322e-01
3.262611627578735352e-01
5.451457500457763672e-01
3.336457014083862305e-01
3.695344924926757812e-01
7.827670574188232422e-01
6.849009990692138672e-01
5.451354384422302246e-01
3.785715103149414062e-01
6.849899888038635254e-01
4.186370968818664551e-01
4.010990262031555176e-01
5.458860993385314941e-01
3.948767185211181641e-01
5.454722642898559570e-01
6.728610992431640625e-01
3.453991413116455078e-01
7.369045019149780273e-01
5.326297879219055176e-01
7.832372188568115234e-01
6.205500364303588867e-01
5.885251164436340332e-01
5.907325148582458496e-01
6.840522885322570801e-01
6.841816902160644531e-01
5.469076633453369141e-01
2.658629417419433594e-01
3.633531928062438965e-01
5.882385969161987305e-01
6.846338510513305664e-01
5.874882936477661133e-01
6.892136335372924805e-01
7.518858909606933594e-01
5.467055439949035645e-01
3.379970788955688477e-01
7.849305272102355957e-01
3.478792607784271240e-01
5.886694192886352539e-01
9.974548816680908203e-01
3.693775534629821777e-01
3.766532540321350098e-01
6.849511861801147461e-01
6.837525963783264160e-01
6.200498342514038086e-01
3.373268544673919678e-01
6.849131584167480469e-01
5.904065966606140137e-01
3.504943847656250000e-01
3.851129114627838135e-01
4.683355093002319336e-01
3.655181527137756348e-01
5.859726667404174805e-01
4.526589214801788330e-01
5.878755450248718262e-01
3.300961554050445557e-01
6.838300824165344238e-01
6.904025077819824219e-01
6.196249127388000488e-01
3.924046754837036133e-01
3.780115842819213867e-01
2.770433425903320312e-01
7.656780481338500977e-01
5.711233019828796387e-01
6.346684098243713379e-01
2.671791911125183105e-01
4.162568151950836182e-01
3.364160656929016113e-01
3.625540435314178467e-01
5.739201903343200684e-01
4.682314693927764893e-01
3.456674218177795410e-01
6.842340826988220215e-01
4.192558526992797852e-01
5.449060201644897461e-01
3.112111687660217285e-01
4.162845611572265625e-01
5.461091399192810059e-01
5.868957042694091797e-01
3.793599605560302734e-01
2.599109709262847900e-01
3.499919176101684570e-01
2.686316072940826416e-01
6.200444698333740234e-01
2.869174480438232422e-01
6.207458376884460449e-01
4.942857921123504639e-01
6.268289685249328613e-01
2.523955106735229492e-01
5.461214780807495117e-01
6.841816902160644531e-01
7.843208312988281250e-01
4.290797412395477295e-01
7.143299579620361328e-01
3.708011507987976074e-01
3.374446630477905273e-01
7.858705520629882812e-01
2.880167961120605469e-01
2.864885330200195312e-01
3.782559335231781006e-01
3.177323341369628906e-01
4.171265363693237305e-01
6.195396184921264648e-01
4.014293551445007324e-01
3.536332249641418457e-01
3.289409875869750977e-01
5.448275804519653320e-01
6.543608307838439941e-01
6.200128793716430664e-01
4.452638328075408936e-01
6.195534467697143555e-01
7.402061820030212402e-01
3.594802021980285645e-01
3.865273594856262207e-01
5.884625911712646484e-01
7.410636544227600098e-01
3.994371592998504639e-01
3.936329483985900879e-01
7.054347991943359375e-01
2.852273285388946533e-01
3.964949250221252441e-01
3.599941134452819824e-01
3.214255571365356445e-01
4.073828756809234619e-01
5.861910581588745117e-01
3.355088829994201660e-01
5.880213379859924316e-01
3.628007173538208008e-01
5.466982722282409668e-01
5.449573397636413574e-01
3.539373278617858887e-01
6.193907856941223145e-01
5.456757545471191406e-01
6.849303245544433594e-01
3.847119808197021484e-01
2.717275619506835938e-01
3.675253987312316895e-01
3.393496870994567871e-01
5.452328920364379883e-01
7.854379415512084961e-01
2.635941505432128906e-01
7.807103395462036133e-01
2.626706361770629883e-01
5.448873043060302734e-01
3.293465673923492432e-01
5.879158973693847656e-01
4.220276474952697754e-01
5.881062150001525879e-01
3.425303101539611816e-01
3.611031770706176758e-01
6.198682785034179688e-01
6.198942065238952637e-01
6.835325956344604492e-01
6.209901571273803711e-01
5.105885863304138184e-01
4.666189849376678467e-01
3.587802350521087646e-01
2.613955736160278320e-01
3.265622854232788086e-01
4.177765846252441406e-01
3.396755754947662354e-01
5.877031683921813965e-01
5.979101061820983887e-01
3.019042015075683594e-01
3.850782215595245361e-01
3.845734894275665283e-01
5.201255679130554199e-01
6.839618682861328125e-01
3.071691393852233887e-01
7.730674743652343750e-01
5.460728406906127930e-01
4.575906097888946533e-01
3.393395841121673584e-01
7.614187598228454590e-01
5.447590947151184082e-01
3.378687202930450439e-01
5.459285378456115723e-01
5.447628498077392578e-01
5.892481803894042969e-01
3.237036466598510742e-01
3.410969376564025879e-01
6.203124523162841797e-01
2.152021527290344238e-01
3.298558592796325684e-01
3.098122477531433105e-01
2.908307313919067383e-01
5.862152576446533203e-01
2.538133561611175537e-01
6.206080913543701172e-01
3.362306952476501465e-01
5.464035272598266602e-01
2.483745813369750977e-01
3.724403083324432373e-01
5.867021679878234863e-01
2.548979520797729492e-01
2.634066045284271240e-01
6.205219030380249023e-01
5.453287363052368164e-01
2.475959956645965576e-01
3.239851593971252441e-01
3.255836963653564453e-01
5.906955003738403320e-01
5.461201071739196777e-01
3.595062494277954102e-01
3.456000685691833496e-01
3.343278765678405762e-01
3.718982934951782227e-01
4.009667634963989258e-01
5.451179146766662598e-01
5.884057283401489258e-01
3.314197063446044922e-01
2.866059541702270508e-01
4.387429356575012207e-01
4.179748892784118652e-01
3.597528338432312012e-01
3.314827084541320801e-01
3.306024074554443359e-01
6.209868192672729492e-01
4.374769032001495361e-01
2.560583651065826416e-01
6.849368810653686523e-01
5.187703967094421387e-01
6.848436594009399414e-01
3.989919424057006836e-01
2.961106002330780029e-01
3.714188933372497559e-01
5.466261506080627441e-01
6.203585863113403320e-01
7.368999719619750977e-01
3.768517971038818359e-01
3.364643454551696777e-01
3.614976406097412109e-01
6.204701066017150879e-01
4.001876115798950195e-01
3.618259429931640625e-01
2.533670663833618164e-01
5.882745981216430664e-01
5.871427059173583984e-01
3.285594582557678223e-01
3.806861639022827148e-01
6.199277639389038086e-01
6.211596727371215820e-01
5.461528897285461426e-01
5.851691961288452148e-01
6.846415996551513672e-01
6.850543022155761719e-01
6.207701563835144043e-01
4.594691991806030273e-01
7.865105867385864258e-01
3.897658884525299072e-01
3.966025710105895996e-01
6.847149729728698730e-01
5.865215063095092773e-01
3.385999202728271484e-01
6.490938067436218262e-01
6.849633455276489258e-01
6.836857795715332031e-01
3.413229882717132568e-01
3.525249361991882324e-01
6.552496552467346191e-01
5.338615775108337402e-01
5.906786322593688965e-01
6.194409728050231934e-01
2.878723144531250000e-01
5.907149910926818848e-01
2.676625847816467285e-01
2.713874578475952148e-01
2.929147481918334961e-01
7.733062505722045898e-01
3.315940499305725098e-01
6.829916834831237793e-01
3.355150818824768066e-01
2.885201573371887207e-01
3.229865729808807373e-01
3.531720936298370361e-01
6.840233802795410156e-01
3.842940926551818848e-01
3.504066169261932373e-01
3.126823306083679199e-01
5.871273279190063477e-01
6.845633983612060547e-01
2.966086268424987793e-01
3.966608345508575439e-01
2.619155943393707275e-01
3.671904206275939941e-01
3.370830416679382324e-01
5.167867541313171387e-01
3.928233981132507324e-01
3.461652994155883789e-01
5.455517768859863281e-01
3.598449230194091797e-01
6.898231506347656250e-01
4.065508246421813965e-01
3.761250376701354980e-01
6.627825498580932617e-01
4.657885730266571045e-01
3.388562798500061035e-01
3.270152211189270020e-01
3.205574750900268555e-01
3.646189570426940918e-01
3.852448165416717529e-01
3.619187176227569580e-01
3.602132201194763184e-01
3.739136457443237305e-01
6.838971376419067383e-01
2.642610669136047363e-01
3.975012600421905518e-01
3.652766942977905273e-01
2.504161596298217773e-01
6.047500371932983398e-01
5.455126762390136719e-01
3.881628215312957764e-01
5.456904172897338867e-01
3.613159060478210449e-01
7.863714694976806641e-01
4.365922808647155762e-01
4.017125964164733887e-01
3.468340635299682617e-01
2.645882964134216309e-01
3.660830855369567871e-01
5.854009985923767090e-01
2.648956775665283203e-01
5.464810132980346680e-01
3.320432901382446289e-01
3.798273801803588867e-01
6.209028959274291992e-01
3.622625470161437988e-01
5.900700688362121582e-01
5.903910994529724121e-01
3.816053271293640137e-01
3.676549792289733887e-01
3.606579899787902832e-01
2.866688966751098633e-01
2.744930684566497803e-01
3.303107321262359619e-01
5.777041316032409668e-01
3.376306295394897461e-01
5.854716897010803223e-01
5.889585614204406738e-01
2.721880674362182617e-01
5.471343994140625000e-01
5.461765527725219727e-01
7.590436935424804688e-01
6.842135787010192871e-01
3.617272973060607910e-01
2.965803742408752441e-01
6.204349398612976074e-01
6.849617362022399902e-01
3.161616027355194092e-01
3.971665501594543457e-01
3.061857223510742188e-01
3.268003761768341064e-01
6.203514933586120605e-01
2.934952676296234131e-01
6.203440427780151367e-01
3.733704388141632080e-01
4.707326889038085938e-01
2.649450898170471191e-01
5.876202583312988281e-01
4.109569489955902100e-01
2.313401699066162109e-01
6.844184398651123047e-01
6.209412217140197754e-01
3.605427145957946777e-01
2.525954842567443848e-01
2.665773630142211914e-01
3.022632896900177002e-01
4.135361611843109131e-01
6.324082016944885254e-01
7.838687896728515625e-01
6.195868849754333496e-01
2.540834844112396240e-01
5.862905979156494141e-01
2.674588561058044434e-01
6.196480393409729004e-01
5.535110831260681152e-01
3.241685926914215088e-01
6.993528604507446289e-01
3.071103394031524658e-01
3.851638436317443848e-01
5.878043174743652344e-01
3.500084280967712402e-01
7.220500707626342773e-01
5.451127886772155762e-01
3.490808606147766113e-01
6.850585341453552246e-01
3.373661041259765625e-01
3.614508509635925293e-01
3.623127341270446777e-01
3.718732595443725586e-01
2.992618680000305176e-01
3.849819302558898926e-01
6.202874183654785156e-01
3.926333189010620117e-01
7.691544294357299805e-01
6.188557744026184082e-01
3.204928040504455566e-01
3.867728114128112793e-01
4.126552939414978027e-01
3.067485690116882324e-01
3.301376402378082275e-01
2.616085410118103027e-01
6.206708550453186035e-01
4.180537164211273193e-01
6.193292737007141113e-01
3.600013256072998047e-01
5.902717113494873047e-01
4.013975858688354492e-01
6.834498047828674316e-01
6.199935078620910645e-01
6.838362216949462891e-01
5.877214670181274414e-01
5.894677042961120605e-01
5.881156325340270996e-01
4.054427146911621094e-01
5.907713174819946289e-01
5.853931307792663574e-01
2.741778492927551270e-01
3.216615021228790283e-01
3.628333806991577148e-01
3.350933194160461426e-01
3.843656182289123535e-01
3.712937235832214355e-01
6.194880604743957520e-01
6.203601360321044922e-01
6.849144697189331055e-01
6.828724145889282227e-01
5.907537937164306641e-01
4.178275167942047119e-01
3.644153475761413574e-01
5.549219846725463867e-01
5.452097058296203613e-01
3.415543735027313232e-01
5.903995633125305176e-01
6.849558353424072266e-01
6.839878559112548828e-01
3.819399476051330566e-01
3.351255655288696289e-01
3.813556432723999023e-01
6.834670305252075195e-01
3.672290742397308350e-01
2.519470453262329102e-01
5.860486030578613281e-01
3.305389881134033203e-01
5.455228090286254883e-01
4.235012531280517578e-01
3.641230762004852295e-01
6.832551956176757812e-01
2.610764801502227783e-01
2.893863916397094727e-01
5.901628136634826660e-01
3.739940524101257324e-01
3.413619399070739746e-01
6.837067008018493652e-01
3.622718751430511475e-01
3.624666929244995117e-01
5.457049608230590820e-01
6.930727958679199219e-01
3.051134943962097168e-01
6.810417771339416504e-01
3.855710029602050781e-01
3.476023674011230469e-01
3.584214448928833008e-01
5.449814200401306152e-01
3.206280469894409180e-01
4.265658855438232422e-01
5.454013347625732422e-01
3.111760616302490234e-01
6.846284270286560059e-01
3.351872563362121582e-01
3.684633076190948486e-01
2.744673192501068115e-01
5.451382398605346680e-01
2.652181386947631836e-01
5.468239784240722656e-01
5.864409208297729492e-01
3.270551860332489014e-01
3.805694878101348877e-01
4.015085399150848389e-01
2.619064450263977051e-01
6.201173067092895508e-01
5.061586499214172363e-01
5.471263527870178223e-01
6.209901571273803711e-01
3.255591392517089844e-01
2.687301039695739746e-01
3.082641363143920898e-01
6.845070719718933105e-01
3.641595244407653809e-01
3.596170544624328613e-01
3.595709204673767090e-01
5.125370025634765625e-01
5.895910263061523438e-01
6.203692555427551270e-01
5.451271533966064453e-01
5.181489586830139160e-01
5.454283952713012695e-01
5.071331858634948730e-01
5.886716246604919434e-01
3.441053032875061035e-01
3.309512734413146973e-01
4.025253355503082275e-01
3.132212162017822266e-01
5.876311659812927246e-01
2.612547874450683594e-01
5.893089175224304199e-01
3.324649333953857422e-01
3.201221823692321777e-01
6.204748749732971191e-01
3.661580085754394531e-01
5.470384359359741211e-01
5.902308225631713867e-01
3.997826874256134033e-01
7.840945720672607422e-01
5.877279043197631836e-01
3.374162614345550537e-01
5.861925482749938965e-01
2.478634417057037354e-01
5.857974290847778320e-01
5.743858218193054199e-01
6.845357418060302734e-01
6.750234365463256836e-01
6.848344802856445312e-01
5.720833539962768555e-01
6.201657056808471680e-01
6.195306181907653809e-01
4.048781394958496094e-01
5.457768440246582031e-01
3.925124406814575195e-01
2.617752254009246826e-01
5.880207419395446777e-01
4.321471452713012695e-01
4.143159389495849609e-01
3.813570737838745117e-01
5.993762612342834473e-01
3.381941318511962891e-01
3.400862216949462891e-01
3.242437839508056641e-01
3.239272832870483398e-01
3.828555643558502197e-01
6.208807229995727539e-01
3.164935708045959473e-01
6.836838722229003906e-01
5.866637229919433594e-01
3.466358184814453125e-01
3.315649628639221191e-01
4.161087274551391602e-01
4.714038372039794922e-01
6.839461326599121094e-01
5.891098380088806152e-01
5.460521578788757324e-01
3.612009584903717041e-01
3.305643200874328613e-01
5.469884276390075684e-01
5.873624086380004883e-01
5.890503525733947754e-01
4.063254594802856445e-01
3.797174692153930664e-01
5.268039703369140625e-01
6.846437454223632812e-01
5.880054831504821777e-01
6.209207773208618164e-01
7.701349854469299316e-01
