0.000000000000000000e+00
7.599999999999999811e-02
7.599999999999999811e-02
8.000000000000000167e-02
8.799999999999999489e-02
9.199999999999999845e-02
1.100000000000000006e-01
1.140000000000000041e-01
1.140000000000000041e-01
1.260000000000000009e-01
1.260000000000000009e-01
1.479999999999999927e-01
1.479999999999999927e-01
1.499999999999999944e-01
1.499999999999999944e-01
1.779999999999999916e-01
1.779999999999999916e-01
1.920000000000000040e-01
1.920000000000000040e-01
2.159999999999999976e-01
2.159999999999999976e-01
2.280000000000000082e-01
2.280000000000000082e-01
2.839999999999999747e-01
2.839999999999999747e-01
2.979999999999999871e-01
2.979999999999999871e-01
3.019999999999999907e-01
3.019999999999999907e-01
3.039999999999999925e-01
3.039999999999999925e-01
3.059999999999999942e-01
3.059999999999999942e-01
3.300000000000000155e-01
3.300000000000000155e-01
3.340000000000000191e-01
3.340000000000000191e-01
3.380000000000000226e-01
3.380000000000000226e-01
3.459999999999999742e-01
3.459999999999999742e-01
3.559999999999999831e-01
3.579999999999999849e-01
3.639999999999999902e-01
3.639999999999999902e-01
3.659999999999999920e-01
3.659999999999999920e-01
3.739999999999999991e-01
3.739999999999999991e-01
3.800000000000000044e-01
3.800000000000000044e-01
4.139999999999999791e-01
4.139999999999999791e-01
4.339999999999999969e-01
4.339999999999999969e-01
4.500000000000000111e-01
4.500000000000000111e-01
4.819999999999999840e-01
4.819999999999999840e-01
4.839999999999999858e-01
4.839999999999999858e-01
4.979999999999999982e-01
4.979999999999999982e-01
5.020000000000000018e-01
5.040000000000000036e-01
5.160000000000000142e-01
5.160000000000000142e-01
5.180000000000000160e-01
5.180000000000000160e-01
5.220000000000000195e-01
5.220000000000000195e-01
5.320000000000000284e-01
5.320000000000000284e-01
5.360000000000000320e-01
5.360000000000000320e-01
5.380000000000000338e-01
5.380000000000000338e-01
5.480000000000000426e-01
5.480000000000000426e-01
5.500000000000000444e-01
5.500000000000000444e-01
5.540000000000000480e-01
5.540000000000000480e-01
5.639999999999999458e-01
5.639999999999999458e-01
5.659999999999999476e-01
5.659999999999999476e-01
5.699999999999999512e-01
5.719999999999999529e-01
5.779999999999999583e-01
5.779999999999999583e-01
5.979999999999999760e-01
5.979999999999999760e-01
5.999999999999999778e-01
5.999999999999999778e-01
6.099999999999999867e-01
6.099999999999999867e-01
6.119999999999999885e-01
6.119999999999999885e-01
6.139999999999999902e-01
6.139999999999999902e-01
6.159999999999999920e-01
6.159999999999999920e-01
6.179999999999999938e-01
6.179999999999999938e-01
6.219999999999999973e-01
6.219999999999999973e-01
6.400000000000000133e-01
6.400000000000000133e-01
6.480000000000000204e-01
6.480000000000000204e-01
6.500000000000000222e-01
6.500000000000000222e-01
6.520000000000000240e-01
6.520000000000000240e-01
6.540000000000000258e-01
6.540000000000000258e-01
6.600000000000000311e-01
6.600000000000000311e-01
6.620000000000000329e-01
6.620000000000000329e-01
6.640000000000000346e-01
6.640000000000000346e-01
6.660000000000000364e-01
6.660000000000000364e-01
6.700000000000000400e-01
6.700000000000000400e-01
6.820000000000000506e-01
6.820000000000000506e-01
6.879999999999999449e-01
6.879999999999999449e-01
6.899999999999999467e-01
6.899999999999999467e-01
6.939999999999999503e-01
6.939999999999999503e-01
6.999999999999999556e-01
6.999999999999999556e-01
7.059999999999999609e-01
7.059999999999999609e-01
7.099999999999999645e-01
7.099999999999999645e-01
7.199999999999999734e-01
7.199999999999999734e-01
7.219999999999999751e-01
7.219999999999999751e-01
7.239999999999999769e-01
7.239999999999999769e-01
7.279999999999999805e-01
7.279999999999999805e-01
7.339999999999999858e-01
7.339999999999999858e-01
7.399999999999999911e-01
7.399999999999999911e-01
7.419999999999999929e-01
7.419999999999999929e-01
7.580000000000000071e-01
7.580000000000000071e-01
7.620000000000000107e-01
7.620000000000000107e-01
7.660000000000000142e-01
7.660000000000000142e-01
7.680000000000000160e-01
7.680000000000000160e-01
7.700000000000000178e-01
7.700000000000000178e-01
7.720000000000000195e-01
7.720000000000000195e-01
7.760000000000000231e-01
7.760000000000000231e-01
7.820000000000000284e-01
7.820000000000000284e-01
7.860000000000000320e-01
7.860000000000000320e-01
7.900000000000000355e-01
7.900000000000000355e-01
7.920000000000000373e-01
7.920000000000000373e-01
7.940000000000000391e-01
7.940000000000000391e-01
7.960000000000000409e-01
7.960000000000000409e-01
8.020000000000000462e-01
8.020000000000000462e-01
8.040000000000000480e-01
8.040000000000000480e-01
8.080000000000000515e-01
8.080000000000000515e-01
8.100000000000000533e-01
8.100000000000000533e-01
8.120000000000000551e-01
8.120000000000000551e-01
8.139999999999999458e-01
8.139999999999999458e-01
8.179999999999999494e-01
8.179999999999999494e-01
8.199999999999999512e-01
8.199999999999999512e-01
8.219999999999999529e-01
8.219999999999999529e-01
8.279999999999999583e-01
8.279999999999999583e-01
8.299999999999999600e-01
8.299999999999999600e-01
8.319999999999999618e-01
8.319999999999999618e-01
8.359999999999999654e-01
8.359999999999999654e-01
8.379999999999999671e-01
8.379999999999999671e-01
8.419999999999999707e-01
8.419999999999999707e-01
8.459999999999999742e-01
8.459999999999999742e-01
8.519999999999999796e-01
8.519999999999999796e-01
8.539999999999999813e-01
8.539999999999999813e-01
8.559999999999999831e-01
8.559999999999999831e-01
8.579999999999999849e-01
8.579999999999999849e-01
8.599999999999999867e-01
8.599999999999999867e-01
8.619999999999999885e-01
8.619999999999999885e-01
8.639999999999999902e-01
8.639999999999999902e-01
8.659999999999999920e-01
8.659999999999999920e-01
8.679999999999999938e-01
8.679999999999999938e-01
8.719999999999999973e-01
8.719999999999999973e-01
8.739999999999999991e-01
8.739999999999999991e-01
8.820000000000000062e-01
8.820000000000000062e-01
8.860000000000000098e-01
8.860000000000000098e-01
8.880000000000000115e-01
8.880000000000000115e-01
8.920000000000000151e-01
8.920000000000000151e-01
8.960000000000000187e-01
8.960000000000000187e-01
8.980000000000000204e-01
8.980000000000000204e-01
9.000000000000000222e-01
9.000000000000000222e-01
9.020000000000000240e-01
9.020000000000000240e-01
9.040000000000000258e-01
9.040000000000000258e-01
9.060000000000000275e-01
9.060000000000000275e-01
9.100000000000000311e-01
9.100000000000000311e-01
9.120000000000000329e-01
9.120000000000000329e-01
9.140000000000000346e-01
9.140000000000000346e-01
9.160000000000000364e-01
9.160000000000000364e-01
9.180000000000000382e-01
9.180000000000000382e-01
9.200000000000000400e-01
9.200000000000000400e-01
9.240000000000000435e-01
9.240000000000000435e-01
9.260000000000000453e-01
9.260000000000000453e-01
9.280000000000000471e-01
9.280000000000000471e-01
9.320000000000000506e-01
9.320000000000000506e-01
9.340000000000000524e-01
9.340000000000000524e-01
9.360000000000000542e-01
9.360000000000000542e-01
9.379999999999999449e-01
9.379999999999999449e-01
9.399999999999999467e-01
9.399999999999999467e-01
9.419999999999999485e-01
9.419999999999999485e-01
9.459999999999999520e-01
9.459999999999999520e-01
9.479999999999999538e-01
9.479999999999999538e-01
9.519999999999999574e-01
9.519999999999999574e-01
9.559999999999999609e-01
9.559999999999999609e-01
9.579999999999999627e-01
9.579999999999999627e-01
9.599999999999999645e-01
9.599999999999999645e-01
9.639999999999999680e-01
9.639999999999999680e-01
9.659999999999999698e-01
9.659999999999999698e-01
9.679999999999999716e-01
9.679999999999999716e-01
9.699999999999999734e-01
9.699999999999999734e-01
9.719999999999999751e-01
9.719999999999999751e-01
9.739999999999999769e-01
9.739999999999999769e-01
9.759999999999999787e-01
9.759999999999999787e-01
9.779999999999999805e-01
9.779999999999999805e-01
9.799999999999999822e-01
9.799999999999999822e-01
9.819999999999999840e-01
9.819999999999999840e-01
9.839999999999999858e-01
9.839999999999999858e-01
9.879999999999999893e-01
9.879999999999999893e-01
9.899999999999999911e-01
9.899999999999999911e-01
9.919999999999999929e-01
9.919999999999999929e-01
9.939999999999999947e-01
9.939999999999999947e-01
9.959999999999999964e-01
9.959999999999999964e-01
9.979999999999999982e-01
9.979999999999999982e-01
1.000000000000000000e+00
1.000000000000000000e+00
