2.000000000000000000e+00
1.000000000000000000e+00
9.999998807907104492e-01
9.999997615814208984e-01
9.999989271163940430e-01
9.999988079071044922e-01
9.999951124191284180e-01
9.999946355819702148e-01
9.999922513961791992e-01
9.999836087226867676e-01
9.999830126762390137e-01
9.999666213989257812e-01
9.999623298645019531e-01
9.999539852142333984e-01
9.999439120292663574e-01
9.997596740722656250e-01
9.997541308403015137e-01
9.996763467788696289e-01
9.996340870857238770e-01
9.995132088661193848e-01
9.994977712631225586e-01
9.994482994079589844e-01
9.994316101074218750e-01
9.989297389984130859e-01
9.989190101623535156e-01
9.986085891723632812e-01
9.985864162445068359e-01
9.985220432281494141e-01
9.985047578811645508e-01
9.982814788818359375e-01
9.980911612510681152e-01
9.980880618095397949e-01
9.980785846710205078e-01
9.964395165443420410e-01
9.963349103927612305e-01
9.962121248245239258e-01
9.960969686508178711e-01
9.958430528640747070e-01
9.957263469696044922e-01
9.952608346939086914e-01
9.951117038726806641e-01
9.947367310523986816e-01
9.946873188018798828e-01
9.941512346267700195e-01
9.938958883285522461e-01
9.938203096389770508e-01
9.934942126274108887e-01
9.920543432235717773e-01
9.920236468315124512e-01
9.915344715118408203e-01
9.914194941520690918e-01
9.877634048461914062e-01
9.876989126205444336e-01
9.843484163284301758e-01
9.834303259849548340e-01
9.770436286926269531e-01
9.768921136856079102e-01
9.708753824234008789e-01
9.701337814331054688e-01
9.692287445068359375e-01
9.688593745231628418e-01
9.629662036895751953e-01
9.620429873466491699e-01
9.616404175758361816e-01
9.610226154327392578e-01
9.559627175331115723e-01
9.559214115142822266e-01
9.545381069183349609e-01
9.542332887649536133e-01
9.535776376724243164e-01
9.533395171165466309e-01
9.495025277137756348e-01
9.460129141807556152e-01
9.442867040634155273e-01
9.437608718872070312e-01
9.417752623558044434e-01
9.391571283340454102e-01
9.347496628761291504e-01
9.344240427017211914e-01
9.337717294692993164e-01
9.333763718605041504e-01
9.309204816818237305e-01
9.278959035873413086e-01
9.147640466690063477e-01
9.143141508102416992e-01
9.131178855895996094e-01
9.131118059158325195e-01
9.121490716934204102e-01
9.106147289276123047e-01
9.068921804428100586e-01
9.013341665267944336e-01
8.888430595397949219e-01
8.868231773376464844e-01
8.867076635360717773e-01
8.843863010406494141e-01
8.763610124588012695e-01
8.706381320953369141e-01
8.705363273620605469e-01
8.678482174873352051e-01
8.661121726036071777e-01
8.658190965652465820e-01
8.640210628509521484e-01
8.633605241775512695e-01
8.621470332145690918e-01
8.616764545440673828e-01
8.595165014266967773e-01
8.543202280998229980e-01
8.304493427276611328e-01
8.259004354476928711e-01
8.145520687103271484e-01
8.145393133163452148e-01
8.045865893363952637e-01
7.972227334976196289e-01
7.941602468490600586e-01
7.847869396209716797e-01
7.847485542297363281e-01
7.813639640808105469e-01
7.742616534233093262e-01
7.685511112213134766e-01
7.589956521987915039e-01
7.579742670059204102e-01
7.565409541130065918e-01
7.508908510208129883e-01
7.487013339996337891e-01
7.406785488128662109e-01
7.397503852844238281e-01
7.386062145233154297e-01
7.239080667495727539e-01
7.232051491737365723e-01
7.062821388244628906e-01
7.059116959571838379e-01
7.055749893188476562e-01
6.958919763565063477e-01
6.925230026245117188e-01
6.831991672515869141e-01
6.715381741523742676e-01
6.655361056327819824e-01
6.606546640396118164e-01
6.598149538040161133e-01
6.521233916282653809e-01
6.505063772201538086e-01
6.306128501892089844e-01
6.294310092926025391e-01
6.267390251159667969e-01
6.211559772491455078e-01
6.109272837638854980e-01
6.088796854019165039e-01
6.005518436431884766e-01
5.986002683639526367e-01
5.818989276885986328e-01
5.711996555328369141e-01
5.621828436851501465e-01
5.595551729202270508e-01
5.564278960227966309e-01
5.423545241355895996e-01
5.030531287193298340e-01
4.986502230167388916e-01
4.965025782585144043e-01
4.840210974216461182e-01
4.792396724224090576e-01
4.740658402442932129e-01
4.734096229076385498e-01
4.615117311477661133e-01
4.601957201957702637e-01
4.569339752197265625e-01
4.538302123546600342e-01
4.471102952957153320e-01
4.409559369087219238e-01
4.386506378650665283e-01
4.314228594303131104e-01
4.301387667655944824e-01
4.254341721534729004e-01
4.251208007335662842e-01
4.191980063915252686e-01
4.186636507511138916e-01
4.179428815841674805e-01
4.146842360496520996e-01
4.146044254302978516e-01
4.131530523300170898e-01
4.102342724800109863e-01
4.101859033107757568e-01
4.029405713081359863e-01
4.015759825706481934e-01
3.998447060585021973e-01
3.960778713226318359e-01
3.950715363025665283e-01
3.941885828971862793e-01
3.920663595199584961e-01
3.750592470169067383e-01
3.740481734275817871e-01
3.704168796539306641e-01
3.701649904251098633e-01
3.664330840110778809e-01
3.626971840858459473e-01
3.560404777526855469e-01
3.539131283760070801e-01
3.473569750785827637e-01
3.470699489116668701e-01
3.322901129722595215e-01
3.237419724464416504e-01
3.230462670326232910e-01
3.195348083972930908e-01
3.173285722732543945e-01
3.169713616371154785e-01
3.104637265205383301e-01
3.060924708843231201e-01
2.935398817062377930e-01
2.908554971218109131e-01
2.801080942153930664e-01
2.752727866172790527e-01
2.740235328674316406e-01
2.735196352005004883e-01
2.705661654472351074e-01
2.639260888099670410e-01
2.630198895931243896e-01
2.626869678497314453e-01
2.605148851871490479e-01
2.601328492164611816e-01
2.456735670566558838e-01
2.455490827560424805e-01
2.442811131477355957e-01
2.442727684974670410e-01
2.425108551979064941e-01
2.396366894245147705e-01
2.212087512016296387e-01
2.177049219608306885e-01
2.176721394062042236e-01
2.173531353473663330e-01
2.122474610805511475e-01
2.094539999961853027e-01
2.065850794315338135e-01
2.058131694793701172e-01
2.042436897754669189e-01
2.032024264335632324e-01
1.980404257774353027e-01
1.907959580421447754e-01
1.856982111930847168e-01
1.826747059822082520e-01
1.783420443534851074e-01
1.781917512416839600e-01
1.606114804744720459e-01
1.560880541801452637e-01
1.478579938411712646e-01
1.465800404548645020e-01
1.426500976085662842e-01
1.409707665443420410e-01
1.349371075630187988e-01
1.344854831695556641e-01
1.323896050453186035e-01
1.312126517295837402e-01
1.274474263191223145e-01
1.274449229240417480e-01
1.253427565097808838e-01
1.251570582389831543e-01
1.195152699947357178e-01
1.175710558891296387e-01
1.126422584056854248e-01
1.098504960536956787e-01
1.042308509349822998e-01
1.033241748809814453e-01
9.920632839202880859e-02
9.632205963134765625e-02
9.298312664031982422e-02
9.122616052627563477e-02
8.832073211669921875e-02
8.797881007194519043e-02
8.791255950927734375e-02
8.734515309333801270e-02
8.372148871421813965e-02
8.342754840850830078e-02
8.190321922302246094e-02
8.112922310829162598e-02
7.530242204666137695e-02
7.442021369934082031e-02
7.388752698898315430e-02
7.378518581390380859e-02
6.344428658485412598e-02
6.325140595436096191e-02
5.944976210594177246e-02
5.941471457481384277e-02
5.816698074340820312e-02
5.614855885505676270e-02
4.957398772239685059e-02
4.871833324432373047e-02
4.616424441337585449e-02
4.576641321182250977e-02
4.418829083442687988e-02
4.388740658760070801e-02
4.071739315986633301e-02
3.987547755241394043e-02
3.678897023200988770e-02
3.402364253997802734e-02
3.372928500175476074e-02
3.342342376708984375e-02
3.229796886444091797e-02
3.183463215827941895e-02
3.032314777374267578e-02
2.924096584320068359e-02
2.718496322631835938e-02
2.633330225944519043e-02
2.593329548835754395e-02
2.542713284492492676e-02
2.348938584327697754e-02
2.300804853439331055e-02
1.143628358840942383e-02
1.104435324668884277e-02
9.639620780944824219e-03
9.478807449340820312e-03
9.452939033508300781e-03
8.504986763000488281e-03
8.154690265655517578e-03
8.131265640258789062e-03
7.621526718139648438e-03
6.994187831878662109e-03
6.406873464584350586e-03
6.331712007522583008e-03
5.900174379348754883e-03
5.526781082153320312e-03
4.488646984100341797e-03
4.355907440185546875e-03
3.431648015975952148e-03
3.189682960510253906e-03
2.492725849151611328e-03
2.301961183547973633e-03
1.718819141387939453e-03
1.715540885925292969e-03
4.046857357025146484e-04
3.789663314819335938e-04
4.962894672644324601e-05
4.650569098885171115e-05
1.906608275703547406e-07
4.676193460229072230e-11
2.077217491575295192e-23
