0.000000000000000000e+00
0.000000000000000000e+00
1.338954816265283676e-02
1.338954816265283676e-02
2.309805186590419002e-02
2.309805186590419002e-02
3.246659822032484100e-02
3.246659822032484100e-02
3.375766579608252549e-02
3.375766579608252549e-02
3.844450545916801992e-02
3.844450545916801992e-02
4.156921938165305391e-02
4.156921938165305391e-02
4.709904457629687791e-02
4.709904457629687791e-02
4.958447337624954931e-02
4.958447337624954931e-02
5.191993836668144791e-02
5.191993836668144791e-02
5.621458885378420589e-02
5.621458885378420589e-02
5.820154637120907026e-02
5.820154637120907026e-02
5.884284153573823839e-02
5.884284153573823839e-02
5.947419608536125279e-02
5.947419608536125279e-02
6.942780422856537070e-02
6.942780422856537070e-02
6.991480529902090180e-02
6.991480529902090180e-02
7.039588056129421345e-02
7.039588056129421345e-02
7.134073170356469706e-02
7.134073170356469706e-02
7.180473521990037022e-02
7.180473521990037022e-02
7.615983193258765716e-02
7.615983193258765716e-02
7.656879259855152442e-02
7.656879259855152442e-02
7.776888838089432432e-02
7.776888838089432432e-02
7.816022006110268094e-02
7.816022006110268094e-02
7.893022234860358477e-02
7.893022234860358477e-02
7.968374991176055411e-02
7.968374991176055411e-02
8.254198931453009258e-02
8.254198931453009258e-02
8.388313298870041235e-02
8.388313298870041235e-02
8.420973815420637609e-02
8.420973815420637609e-02
8.516936068798450221e-02
8.516936068798450221e-02
8.700103447660838263e-02
8.700103447660838263e-02
8.816019509960262845e-02
8.816019509960262845e-02
9.007596793817981840e-02
9.007596793817981840e-02
9.059801322324900763e-02
9.059801322324900763e-02
9.160960648316310295e-02
9.160960648316310295e-02
9.257904730553237482e-02
9.257904730553237482e-02
9.304837451562493478e-02
9.304837451562493478e-02
9.524704719832527422e-02
9.524704719832527422e-02
9.545375843831399587e-02
9.545375843831399587e-02
9.565814131583363911e-02
9.565814131583363911e-02
9.645268269986066734e-02
9.645268269986066734e-02
9.702484217972218161e-02
9.702484217972218161e-02
9.721111047611788458e-02
9.721111047611788458e-02
9.810963255460700139e-02
9.810963255460700139e-02
9.862291822897960303e-02
9.862291822897960303e-02
9.943631127510714485e-02
9.943631127510714485e-02
9.974718041127779433e-02
9.974718041127779433e-02
9.989954954853400015e-02
9.989954954853400015e-02
1.000498875561586926e-01
1.000498875561586926e-01
1.001982035767108870e-01
1.001982035767108870e-01
1.003445065760951299e-01
1.003445065760951299e-01
1.004888053466653497e-01
1.004888053466653497e-01
1.006311085102414987e-01
1.013129804121860739e-01
1.013129804121860739e-01
1.014434818014444961e-01
1.014434818014444961e-01
1.016986725577084250e-01
1.016986725577084250e-01
1.019461622622450658e-01
1.019461622622450658e-01
1.024182600906693719e-01
1.024182600906693719e-01
1.026429734565401375e-01
1.026429734565401375e-01
1.030699762297440369e-01
1.030699762297440369e-01
1.031720892489824543e-01
1.031720892489824543e-01
1.036551011769319408e-01
1.036551011769319408e-01
1.037462288471248661e-01
1.037462288471248661e-01
1.038355430476481794e-01
1.038355430476481794e-01
1.040087496319420379e-01
1.040087496319420379e-01
1.040926510374291514e-01
1.041747570191550731e-01
1.041747570191550731e-01
1.042550718190726755e-01
1.042550718190726755e-01
1.044103443151108562e-01
1.044103443151108562e-01
1.045585003718014494e-01
1.045585003718014494e-01
1.048335824056394749e-01
1.048335824056394749e-01
1.051935359230784656e-01
1.051935359230784656e-01
1.052995726487054862e-01
1.052995726487054862e-01
1.054908526840123706e-01
1.054908526840123706e-01
1.055343545960271689e-01
1.055343545960271689e-01
1.055761336666578287e-01
1.055761336666578287e-01
1.056161919404406679e-01
1.056161919404406679e-01
1.056911538398554867e-01
1.056911538398554867e-01
1.057592549141681548e-01
1.057592549141681548e-01
1.059811303959341672e-01
1.059811303959341672e-01
1.060524398587792960e-01
1.060524398587792960e-01
1.060626230111248874e-01
1.060626230111248874e-01
1.060651686464505750e-01
1.060651686464505750e-01
1.060448018528018232e-01
1.060448018528018232e-01
1.060354657649976995e-01
1.060354657649976995e-01
1.060116974677794699e-01
1.060116974677794699e-01
1.059811303959341672e-01
1.059811303959341672e-01
1.059437586646801988e-01
1.059437586646801988e-01
1.059225188522252004e-01
1.059225188522252004e-01
1.058485710815219305e-01
1.058485710815219305e-01
1.057592549141681548e-01
1.057592549141681548e-01
1.057260611202365808e-01
1.057260611202365808e-01
1.056161919404406402e-01
1.056161919404406402e-01
1.055761336666578287e-01
1.055761336666578287e-01
1.055343545960271689e-01
1.055343545960271689e-01
1.054908526840123706e-01
1.054908526840123706e-01
1.053499881347881306e-01
1.053499881347881306e-01
1.049605640228747916e-01
1.049605640228747916e-01
1.048979504089569970e-01
1.048979504089569970e-01
1.048335824056394749e-01
1.048335824056394749e-01
1.047674567792881012e-01
1.047674567792881012e-01
1.046995701996908945e-01
1.046995701996908945e-01
1.045585003718014216e-01
1.045585003718014216e-01
1.044103443151108424e-01
1.044103443151108424e-01
1.043335995736752037e-01
1.043335995736752037e-01
1.041747570191550731e-01
1.041747570191550731e-01
1.039230484541326383e-01
1.039230484541326383e-01
1.036551011769319408e-01
1.036551011769319408e-01
1.035621552498788012e-01
1.035621552498788012e-01
1.033707889106008637e-01
1.033707889106008637e-01
1.032723583540145484e-01
1.032723583540145484e-01
1.030699762297440369e-01
1.030699762297440369e-01
1.029660138103830891e-01
1.029660138103830891e-01
1.027525182173167073e-01
1.027525182173167073e-01
1.025315561181044388e-01
1.025315561181044388e-01
1.021860068698253743e-01
1.021860068698253743e-01
1.020670367944519069e-01
1.020670367944519069e-01
1.015720433977775339e-01
1.015720433977775339e-01
1.014434818014444961e-01
1.014434818014444961e-01
1.010461280801991102e-01
1.010461280801991102e-01
1.007714245210416804e-01
1.007714245210416804e-01
1.006311085102414987e-01
1.006311085102414987e-01
1.004888053466653497e-01
1.004888053466653497e-01
1.003445065760951299e-01
1.001982035767108870e-01
1.001982035767108870e-01
1.000498875561586926e-01
1.000498875561586926e-01
9.989954954853400015e-02
9.989954954853400015e-02
9.959277082198285391e-02
9.959277082198285391e-02
9.943631127510714485e-02
9.943631127510714485e-02
9.895453501482384673e-02
9.895453501482384673e-02
9.862291822897960303e-02
9.862291822897960303e-02
9.845394862574075034e-02
9.845394862574075034e-02
9.775673889814452677e-02
9.775673889814452677e-02
9.757704648122939028e-02
9.757704648122939028e-02
9.739517441844847134e-02
9.739517441844847134e-02
9.545375843831399587e-02
9.545375843831399587e-02
9.503799240303847928e-02
9.503799240303847928e-02
9.482657855263998403e-02
9.482657855263998403e-02
9.439661010862626656e-02
9.439661010862626656e-02
9.417802291405356907e-02
9.417802291405356907e-02
9.395701144672494176e-02
9.395701144672494176e-02
9.373355855828796601e-02
9.373355855828796601e-02
9.350764674613515348e-02
9.350764674613515348e-02
9.327925814456287934e-02
9.327925814456287934e-02
9.281497723966752877e-02
9.281497723966752877e-02
9.234056530041387378e-02
9.234056530041387378e-02
9.185586535436918165e-02
9.185586535436918165e-02
9.160960648316310295e-02
9.160960648316310295e-02
9.136071365745782047e-02
9.136071365745782047e-02
9.085493932637894732e-02
9.085493932637894732e-02
9.059801322324900763e-02
9.033836394356496713e-02
9.033836394356496713e-02
8.981080113215782201e-02
8.981080113215782201e-02
8.927205609819904852e-02
8.927205609819904852e-02
8.899842695239056078e-02
8.899842695239056078e-02
8.872192513691302962e-02
8.872192513691302962e-02
8.758664281726979972e-02
8.758664281726979972e-02
8.729536070147142501e-02
8.729536070147142501e-02
8.700103447660838263e-02
8.700103447660838263e-02
8.640312494348800776e-02
8.640312494348800776e-02
8.609947735033006422e-02
8.609947735033006422e-02
8.579265702844270092e-02
8.579265702844270092e-02
8.548262981448334630e-02
8.548262981448334630e-02
8.516936068798448833e-02
8.516936068798448833e-02
8.288256752779801784e-02
8.288256752779801784e-02
8.219781018980981679e-02
8.219781018980981679e-02
8.184998472815986637e-02
8.184998472815986637e-02
8.149846624323675570e-02
8.149846624323675570e-02
8.078415686259281248e-02
8.078415686259281248e-02
7.968374991176056799e-02
7.968374991176056799e-02
7.930901588091987531e-02
7.930901588091987531e-02
7.854731058413139122e-02
7.854731058413139122e-02
7.816022006110269482e-02
7.816022006110269482e-02
7.656879259855153830e-02
7.656879259855153830e-02
7.615983193258765716e-02
7.615983193258765716e-02
7.490514001054934812e-02
7.490514001054934812e-02
7.404471621932250114e-02
7.404471621932250114e-02
7.360706487831178424e-02
7.360706487831178424e-02
7.316433557410331745e-02
7.316433557410331745e-02
7.134073170356469706e-02
7.134073170356469706e-02
7.039588056129421345e-02
7.039588056129421345e-02
6.991480529902090180e-02
6.991480529902090180e-02
6.942780422856537070e-02
6.942780422856537070e-02
6.843551709456136001e-02
6.843551709456136001e-02
6.792996393345133999e-02
6.792996393345133999e-02
6.741795013199378128e-02
6.741795013199378128e-02
6.689932735087850135e-02
6.689932735087850135e-02
6.637394066951274318e-02
6.637394066951274318e-02
6.584162816941876994e-02
6.584162816941876994e-02
6.530222048292079473e-02
6.530222048292079473e-02
6.363961030678927377e-02
6.363961030678927377e-02
6.306996115426105609e-02
6.306996115426105609e-02
6.249223951819937034e-02
6.249223951819937034e-02
6.190621939676173302e-02
6.190621939676173302e-02
6.009592332263477554e-02
6.009592332263477554e-02
5.947419608536123892e-02
5.947419608536123892e-02
5.884284153573821757e-02
5.884284153573821757e-02
5.820154637120906332e-02
5.820154637120906332e-02
5.688778427747031435e-02
5.688778427747031435e-02
5.621458885378419201e-02
5.621458885378419201e-02
5.552999189627168264e-02
5.552999189627168264e-02
5.483356636222012914e-02
5.483356636222012914e-02
5.412485565800613518e-02
5.412485565800613518e-02
5.266858646290023538e-02
5.266858646290023538e-02
5.191993836668142015e-02
5.191993836668142015e-02
5.115681772745449274e-02
5.115681772745449274e-02
5.037856687124001032e-02
5.037856687124001032e-02
4.794559416672194985e-02
4.794559416672194985e-02
4.709904457629689178e-02
4.709904457629689178e-02
4.534666470645885850e-02
4.534666470645885850e-02
4.443849682426264519e-02
4.443849682426264519e-02
4.156921938165307473e-02
4.156921938165307473e-02
4.055884613743346301e-02
4.055884613743346301e-02
3.844450545916804074e-02
3.844450545916804074e-02
3.733523804664973245e-02
3.733523804664973245e-02
3.618701424544447376e-02
3.618701424544447376e-02
3.499599977140246260e-02
3.499599977140246260e-02
3.375766579608253937e-02
3.375766579608253937e-02
3.246659822032485487e-02
3.246659822032485487e-02
3.111623370525425092e-02
3.111623370525425092e-02
2.969848480983500530e-02
2.969848480983500530e-02
2.492348290267635408e-02
2.492348290267635408e-02
2.309805186590420042e-02
2.309805186590420042e-02
2.110687091920544073e-02
2.110687091920544073e-02
0.000000000000000000e+00
