0.000000000000000000e+00
0.000000000000000000e+00
2.000000000000000042e-03
2.000000000000000042e-03
4.000000000000000083e-03
4.000000000000000083e-03
1.600000000000000033e-02
1.600000000000000033e-02
2.000000000000000042e-02
2.199999999999999872e-02
2.199999999999999872e-02
2.400000000000000050e-02
2.400000000000000050e-02
2.800000000000000058e-02
2.800000000000000058e-02
3.200000000000000067e-02
3.200000000000000067e-02
3.400000000000000244e-02
3.400000000000000244e-02
3.599999999999999728e-02
3.599999999999999728e-02
4.000000000000000083e-02
4.000000000000000083e-02
5.199999999999999761e-02
5.199999999999999761e-02
5.800000000000000294e-02
5.800000000000000294e-02
5.999999999999999778e-02
5.999999999999999778e-02
6.199999999999999956e-02
6.400000000000000133e-02
8.599999999999999312e-02
8.599999999999999312e-02
9.400000000000000022e-02
9.400000000000000022e-02
1.160000000000000059e-01
1.199999999999999956e-01
1.219999999999999973e-01
1.260000000000000009e-01
1.340000000000000080e-01
1.340000000000000080e-01
1.499999999999999944e-01
1.499999999999999944e-01
1.559999999999999998e-01
1.559999999999999998e-01
1.779999999999999916e-01
1.779999999999999916e-01
1.799999999999999933e-01
1.799999999999999933e-01
1.819999999999999951e-01
1.819999999999999951e-01
1.859999999999999987e-01
1.859999999999999987e-01
2.020000000000000129e-01
2.020000000000000129e-01
2.119999999999999940e-01
2.119999999999999940e-01
2.399999999999999911e-01
2.399999999999999911e-01
2.419999999999999929e-01
2.419999999999999929e-01
2.520000000000000018e-01
2.520000000000000018e-01
2.540000000000000036e-01
2.540000000000000036e-01
2.640000000000000124e-01
2.640000000000000124e-01
2.800000000000000266e-01
2.800000000000000266e-01
2.859999999999999765e-01
2.859999999999999765e-01
2.899999999999999800e-01
2.899999999999999800e-01
2.919999999999999818e-01
3.260000000000000120e-01
3.260000000000000120e-01
3.300000000000000155e-01
3.320000000000000173e-01
3.360000000000000209e-01
3.360000000000000209e-01
3.420000000000000262e-01
3.420000000000000262e-01
3.459999999999999742e-01
3.459999999999999742e-01
3.559999999999999831e-01
3.579999999999999849e-01
3.699999999999999956e-01
3.699999999999999956e-01
3.719999999999999973e-01
3.719999999999999973e-01
3.780000000000000027e-01
3.780000000000000027e-01
3.820000000000000062e-01
3.820000000000000062e-01
3.920000000000000151e-01
3.920000000000000151e-01
4.079999999999999738e-01
4.079999999999999738e-01
4.119999999999999774e-01
4.119999999999999774e-01
4.139999999999999791e-01
4.139999999999999791e-01
4.159999999999999809e-01
4.159999999999999809e-01
4.239999999999999880e-01
4.239999999999999880e-01
4.259999999999999898e-01
4.259999999999999898e-01
4.299999999999999933e-01
4.319999999999999951e-01
4.339999999999999969e-01
4.339999999999999969e-01
4.359999999999999987e-01
4.359999999999999987e-01
4.380000000000000004e-01
4.380000000000000004e-01
4.560000000000000164e-01
4.560000000000000164e-01
4.699999999999999734e-01
4.699999999999999734e-01
4.759999999999999787e-01
4.759999999999999787e-01
4.779999999999999805e-01
4.779999999999999805e-01
4.819999999999999840e-01
4.819999999999999840e-01
4.839999999999999858e-01
4.839999999999999858e-01
4.919999999999999929e-01
4.919999999999999929e-01
4.939999999999999947e-01
4.939999999999999947e-01
4.979999999999999982e-01
4.979999999999999982e-01
5.000000000000000000e-01
5.000000000000000000e-01
5.020000000000000018e-01
5.020000000000000018e-01
5.040000000000000036e-01
5.040000000000000036e-01
5.060000000000000053e-01
5.060000000000000053e-01
5.100000000000000089e-01
5.100000000000000089e-01
5.120000000000000107e-01
5.120000000000000107e-01
5.160000000000000142e-01
5.160000000000000142e-01
5.180000000000000160e-01
5.180000000000000160e-01
5.200000000000000178e-01
5.200000000000000178e-01
5.220000000000000195e-01
5.220000000000000195e-01
5.280000000000000249e-01
5.280000000000000249e-01
5.320000000000000284e-01
5.320000000000000284e-01
5.360000000000000320e-01
5.360000000000000320e-01
5.400000000000000355e-01
5.400000000000000355e-01
5.420000000000000373e-01
5.420000000000000373e-01
5.460000000000000409e-01
5.460000000000000409e-01
5.600000000000000533e-01
5.600000000000000533e-01
5.679999999999999494e-01
5.679999999999999494e-01
5.699999999999999512e-01
5.699999999999999512e-01
5.719999999999999529e-01
5.719999999999999529e-01
5.819999999999999618e-01
5.819999999999999618e-01
5.859999999999999654e-01
5.859999999999999654e-01
5.899999999999999689e-01
5.899999999999999689e-01
5.939999999999999725e-01
5.939999999999999725e-01
5.979999999999999760e-01
5.979999999999999760e-01
5.999999999999999778e-01
5.999999999999999778e-01
6.019999999999999796e-01
6.019999999999999796e-01
6.059999999999999831e-01
6.059999999999999831e-01
6.139999999999999902e-01
6.139999999999999902e-01
6.159999999999999920e-01
6.159999999999999920e-01
6.179999999999999938e-01
6.179999999999999938e-01
6.199999999999999956e-01
6.199999999999999956e-01
6.320000000000000062e-01
6.320000000000000062e-01
6.380000000000000115e-01
6.380000000000000115e-01
6.420000000000000151e-01
6.420000000000000151e-01
6.440000000000000169e-01
6.440000000000000169e-01
6.500000000000000222e-01
6.500000000000000222e-01
6.520000000000000240e-01
6.520000000000000240e-01
6.540000000000000258e-01
6.540000000000000258e-01
6.580000000000000293e-01
6.580000000000000293e-01
6.600000000000000311e-01
6.600000000000000311e-01
6.640000000000000346e-01
6.640000000000000346e-01
6.680000000000000382e-01
6.680000000000000382e-01
6.740000000000000435e-01
6.740000000000000435e-01
6.800000000000000488e-01
6.800000000000000488e-01
6.820000000000000506e-01
6.820000000000000506e-01
6.840000000000000524e-01
6.840000000000000524e-01
6.860000000000000542e-01
6.860000000000000542e-01
6.879999999999999449e-01
6.879999999999999449e-01
6.899999999999999467e-01
6.899999999999999467e-01
6.939999999999999503e-01
6.939999999999999503e-01
6.979999999999999538e-01
6.979999999999999538e-01
7.019999999999999574e-01
7.019999999999999574e-01
7.039999999999999591e-01
7.039999999999999591e-01
7.099999999999999645e-01
7.099999999999999645e-01
7.119999999999999662e-01
7.119999999999999662e-01
7.139999999999999680e-01
7.139999999999999680e-01
7.159999999999999698e-01
7.159999999999999698e-01
7.179999999999999716e-01
7.179999999999999716e-01
7.239999999999999769e-01
7.239999999999999769e-01
7.359999999999999876e-01
7.359999999999999876e-01
7.379999999999999893e-01
7.379999999999999893e-01
7.399999999999999911e-01
7.399999999999999911e-01
7.439999999999999947e-01
7.439999999999999947e-01
7.459999999999999964e-01
7.459999999999999964e-01
7.479999999999999982e-01
7.479999999999999982e-01
7.520000000000000018e-01
7.520000000000000018e-01
7.540000000000000036e-01
7.540000000000000036e-01
7.560000000000000053e-01
7.560000000000000053e-01
7.580000000000000071e-01
7.580000000000000071e-01
7.620000000000000107e-01
7.620000000000000107e-01
7.640000000000000124e-01
7.640000000000000124e-01
7.720000000000000195e-01
7.720000000000000195e-01
7.780000000000000249e-01
7.780000000000000249e-01
7.800000000000000266e-01
7.800000000000000266e-01
7.820000000000000284e-01
7.820000000000000284e-01
7.860000000000000320e-01
7.860000000000000320e-01
7.880000000000000338e-01
7.880000000000000338e-01
7.960000000000000409e-01
7.960000000000000409e-01
8.060000000000000497e-01
8.060000000000000497e-01
8.100000000000000533e-01
8.100000000000000533e-01
8.120000000000000551e-01
8.120000000000000551e-01
8.139999999999999458e-01
8.139999999999999458e-01
8.159999999999999476e-01
8.159999999999999476e-01
8.239999999999999547e-01
8.239999999999999547e-01
8.259999999999999565e-01
8.259999999999999565e-01
8.279999999999999583e-01
8.279999999999999583e-01
8.299999999999999600e-01
8.299999999999999600e-01
8.319999999999999618e-01
8.319999999999999618e-01
8.339999999999999636e-01
8.339999999999999636e-01
8.379999999999999671e-01
8.379999999999999671e-01
8.399999999999999689e-01
8.399999999999999689e-01
8.419999999999999707e-01
8.419999999999999707e-01
8.459999999999999742e-01
8.459999999999999742e-01
8.519999999999999796e-01
8.519999999999999796e-01
8.539999999999999813e-01
8.539999999999999813e-01
8.559999999999999831e-01
8.559999999999999831e-01
8.579999999999999849e-01
8.579999999999999849e-01
8.619999999999999885e-01
8.619999999999999885e-01
8.639999999999999902e-01
8.639999999999999902e-01
8.659999999999999920e-01
8.659999999999999920e-01
8.679999999999999938e-01
8.679999999999999938e-01
8.699999999999999956e-01
8.699999999999999956e-01
8.719999999999999973e-01
8.719999999999999973e-01
8.739999999999999991e-01
8.739999999999999991e-01
8.780000000000000027e-01
8.780000000000000027e-01
8.820000000000000062e-01
8.820000000000000062e-01
8.840000000000000080e-01
8.840000000000000080e-01
8.860000000000000098e-01
8.860000000000000098e-01
8.920000000000000151e-01
8.920000000000000151e-01
9.000000000000000222e-01
9.000000000000000222e-01
9.080000000000000293e-01
9.080000000000000293e-01
9.100000000000000311e-01
9.100000000000000311e-01
9.120000000000000329e-01
9.120000000000000329e-01
9.200000000000000400e-01
9.200000000000000400e-01
9.280000000000000471e-01
9.280000000000000471e-01
9.300000000000000488e-01
9.300000000000000488e-01
9.320000000000000506e-01
9.320000000000000506e-01
9.340000000000000524e-01
9.340000000000000524e-01
9.360000000000000542e-01
9.360000000000000542e-01
9.379999999999999449e-01
9.379999999999999449e-01
9.399999999999999467e-01
9.399999999999999467e-01
9.439999999999999503e-01
9.439999999999999503e-01
9.459999999999999520e-01
9.459999999999999520e-01
9.479999999999999538e-01
9.479999999999999538e-01
9.539999999999999591e-01
9.539999999999999591e-01
9.579999999999999627e-01
9.579999999999999627e-01
9.599999999999999645e-01
9.599999999999999645e-01
9.619999999999999662e-01
9.619999999999999662e-01
9.639999999999999680e-01
9.639999999999999680e-01
9.659999999999999698e-01
9.659999999999999698e-01
9.739999999999999769e-01
9.739999999999999769e-01
9.759999999999999787e-01
9.759999999999999787e-01
9.779999999999999805e-01
9.779999999999999805e-01
9.799999999999999822e-01
9.799999999999999822e-01
9.819999999999999840e-01
9.819999999999999840e-01
9.839999999999999858e-01
9.839999999999999858e-01
9.859999999999999876e-01
9.859999999999999876e-01
9.879999999999999893e-01
9.879999999999999893e-01
9.899999999999999911e-01
9.899999999999999911e-01
9.939999999999999947e-01
9.939999999999999947e-01
9.959999999999999964e-01
9.959999999999999964e-01
9.979999999999999982e-01
9.979999999999999982e-01
1.000000000000000000e+00
1.000000000000000000e+00
