1.993545055389404297e+00
9.935450553894042969e-01
9.912785291671752930e-01
7.215359210968017578e-01
7.214771509170532227e-01
7.213499546051025391e-01
7.212195992469787598e-01
7.209926843643188477e-01
7.209494709968566895e-01
7.209385037422180176e-01
7.209019660949707031e-01
7.209017872810363770e-01
7.207987308502197266e-01
7.207843065261840820e-01
7.207627296447753906e-01
7.206587791442871094e-01
7.206537127494812012e-01
7.206234931945800781e-01
7.206223607063293457e-01
7.205809950828552246e-01
7.205618619918823242e-01
7.205188870429992676e-01
7.204928994178771973e-01
7.204655408859252930e-01
7.204616069793701172e-01
7.204313874244689941e-01
7.204270362854003906e-01
7.203785777091979980e-01
7.203628420829772949e-01
7.203587889671325684e-01
7.203453183174133301e-01
7.201825380325317383e-01
7.201699018478393555e-01
7.201373577117919922e-01
7.200981378555297852e-01
7.200713157653808594e-01
7.200707197189331055e-01
7.200695872306823730e-01
7.200635671615600586e-01
7.200531363487243652e-01
7.200449109077453613e-01
7.199985980987548828e-01
7.198698520660400391e-01
7.198453545570373535e-01
7.198384404182434082e-01
7.197456359863281250e-01
7.197238206863403320e-01
7.197065353393554688e-01
7.197027802467346191e-01
7.197014093399047852e-01
7.196962237358093262e-01
7.196588516235351562e-01
7.196383476257324219e-01
7.195712327957153320e-01
7.195584177970886230e-01
7.083321809768676758e-01
7.083085775375366211e-01
7.082163095474243164e-01
7.082104682922363281e-01
7.082098722457885742e-01
7.082023620605468750e-01
7.081888914108276367e-01
7.081822156906127930e-01
7.081779837608337402e-01
7.081581354141235352e-01
7.081169486045837402e-01
7.080731391906738281e-01
7.079991698265075684e-01
7.078710794448852539e-01
7.078582048416137695e-01
7.078574895858764648e-01
7.078400850296020508e-01
7.074374556541442871e-01
7.074058651924133301e-01
7.072634696960449219e-01
7.072504758834838867e-01
7.072176933288574219e-01
7.072159051895141602e-01
7.071933150291442871e-01
7.071908712387084961e-01
7.071769237518310547e-01
7.071754932403564453e-01
7.071405649185180664e-01
7.071282863616943359e-01
7.070755958557128906e-01
7.070698738098144531e-01
7.069665193557739258e-01
7.069464921951293945e-01
7.069396972656250000e-01
7.067223787307739258e-01
7.065677642822265625e-01
7.061848640441894531e-01
6.471135020256042480e-01
6.470991373062133789e-01
6.469117999076843262e-01
6.469044685363769531e-01
6.467590928077697754e-01
6.467319726943969727e-01
6.467239856719970703e-01
6.467077732086181641e-01
6.466946601867675781e-01
6.466495990753173828e-01
6.465832591056823730e-01
6.465427875518798828e-01
6.464582085609436035e-01
6.461580991744995117e-01
6.461276412010192871e-01
6.461127400398254395e-01
6.460632085800170898e-01
6.460541486740112305e-01
6.459791660308837891e-01
6.459391713142395020e-01
6.459320783615112305e-01
6.459057927131652832e-01
6.458520889282226562e-01
6.458505392074584961e-01
6.456920504570007324e-01
6.456384658813476562e-01
6.454360485076904297e-01
6.452832221984863281e-01
6.452293395996093750e-01
6.451684236526489258e-01
6.451632976531982422e-01
6.450986862182617188e-01
6.449674367904663086e-01
6.441983580589294434e-01
6.441688537597656250e-01
5.936429500579833984e-01
5.933820605278015137e-01
5.932791829109191895e-01
5.932035446166992188e-01
5.931686162948608398e-01
5.929899215698242188e-01
5.926595926284790039e-01
5.923858880996704102e-01
5.922676324844360352e-01
5.921893119812011719e-01
5.918908119201660156e-01
5.917137861251831055e-01
5.916574001312255859e-01
5.915963649749755859e-01
5.909520983695983887e-01
5.907610654830932617e-01
5.905937552452087402e-01
5.905929803848266602e-01
5.905701518058776855e-01
5.904242396354675293e-01
5.902310609817504883e-01
5.900369286537170410e-01
5.898337364196777344e-01
5.898280143737792969e-01
5.897061824798583984e-01
5.897023677825927734e-01
5.896780490875244141e-01
5.895560979843139648e-01
5.895508527755737305e-01
5.894413590431213379e-01
5.893793702125549316e-01
5.892631411552429199e-01
5.892176032066345215e-01
5.891243815422058105e-01
5.890727639198303223e-01
5.888846516609191895e-01
5.888294577598571777e-01
5.887486934661865234e-01
5.885419845581054688e-01
5.882260799407958984e-01
5.882226228713989258e-01
5.878200531005859375e-01
5.875552892684936523e-01
5.873515605926513672e-01
5.872524976730346680e-01
5.871367454528808594e-01
5.856038331985473633e-01
5.852621197700500488e-01
5.851295590400695801e-01
5.851033926010131836e-01
5.850448012351989746e-01
5.849877595901489258e-01
5.849602818489074707e-01
5.708639025688171387e-01
5.705696344375610352e-01
5.702580809593200684e-01
5.700384974479675293e-01
5.698884725570678711e-01
5.698395967483520508e-01
5.697621107101440430e-01
5.697423815727233887e-01
5.687559843063354492e-01
5.687385201454162598e-01
5.682701468467712402e-01
5.679836273193359375e-01
5.618757605552673340e-01
5.617632865905761719e-01
5.617036819458007812e-01
5.613786578178405762e-01
5.613681077957153320e-01
5.613645315170288086e-01
5.613102316856384277e-01
5.612431764602661133e-01
5.611234307289123535e-01
5.610278844833374023e-01
5.610119104385375977e-01
5.609933137893676758e-01
5.609372258186340332e-01
5.605487823486328125e-01
5.603642463684082031e-01
5.601106286048889160e-01
5.600774884223937988e-01
5.600705146789550781e-01
5.600689649581909180e-01
5.600405335426330566e-01
5.597904324531555176e-01
5.597528815269470215e-01
5.597493052482604980e-01
5.596548318862915039e-01
5.595059394836425781e-01
5.594713687896728516e-01
5.593972802162170410e-01
5.593802332878112793e-01
5.592663288116455078e-01
5.592217445373535156e-01
5.591074228286743164e-01
5.590487718582153320e-01
5.590373873710632324e-01
5.590144395828247070e-01
5.589649677276611328e-01
5.589514970779418945e-01
5.588709115982055664e-01
5.372958183288574219e-01
5.371765494346618652e-01
5.366567373275756836e-01
5.364586710929870605e-01
5.362557172775268555e-01
5.361239910125732422e-01
5.359237194061279297e-01
5.358205437660217285e-01
5.356075763702392578e-01
5.355706214904785156e-01
5.354213714599609375e-01
5.353993177413940430e-01
5.353929996490478516e-01
5.350480079650878906e-01
5.348646044731140137e-01
5.347265601158142090e-01
4.832888841629028320e-01
4.832417964935302734e-01
4.831266105175018311e-01
4.829421043395996094e-01
4.583823382854461670e-01
4.583180546760559082e-01
4.582620263099670410e-01
4.581463932991027832e-01
4.581190049648284912e-01
4.580627381801605225e-01
4.578368961811065674e-01
4.578132629394531250e-01
4.577177762985229492e-01
4.576783180236816406e-01
4.576488733291625977e-01
4.576396644115447998e-01
4.575791656970977783e-01
4.575221836566925049e-01
4.575171470642089844e-01
4.575142264366149902e-01
4.575003683567047119e-01
4.573549926280975342e-01
4.573318362236022949e-01
4.572575092315673828e-01
4.572437107563018799e-01
4.572369456291198730e-01
4.571817517280578613e-01
4.571308791637420654e-01
4.570909142494201660e-01
4.570799469947814941e-01
4.570772647857666016e-01
4.569531977176666260e-01
4.569437801837921143e-01
4.484397172927856445e-01
4.443331956863403320e-01
4.429028034210205078e-01
4.426915645599365234e-01
4.425849914550781250e-01
4.416868090629577637e-01
4.416452944278717041e-01
4.413353204727172852e-01
4.412822723388671875e-01
4.408368170261383057e-01
4.407097399234771729e-01
4.406591653823852539e-01
4.405832290649414062e-01
4.403601288795471191e-01
4.402201771736145020e-01
4.402168691158294678e-01
4.402106404304504395e-01
4.400860667228698730e-01
4.400456845760345459e-01
4.394355416297912598e-01
4.382043480873107910e-01
4.371008574962615967e-01
4.356815218925476074e-01
4.352961480617523193e-01
4.349721670150756836e-01
4.347466528415679932e-01
4.347200989723205566e-01
4.345034360885620117e-01
4.344380497932434082e-01
4.340524077415466309e-01
4.338697791099548340e-01
4.338106215000152588e-01
4.338048696517944336e-01
4.336492121219635010e-01
4.336451590061187744e-01
4.332686364650726318e-01
4.224551618099212646e-01
4.188820421695709229e-01
4.187090098857879639e-01
4.186796545982360840e-01
4.185580015182495117e-01
4.184460043907165527e-01
4.182769954204559326e-01
4.172019660472869873e-01
4.170544147491455078e-01
4.170398116111755371e-01
4.170134663581848145e-01
4.159149229526519775e-01
4.158641099929809570e-01
4.157826304435729980e-01
4.157629013061523438e-01
4.155401587486267090e-01
4.152734577655792236e-01
4.151882529258728027e-01
4.150056838989257812e-01
4.149451255798339844e-01
4.149416089057922363e-01
4.144605100154876709e-01
4.142904579639434814e-01
4.141798317432403564e-01
4.141211509704589844e-01
4.139883816242218018e-01
4.139443337917327881e-01
4.137700796127319336e-01
4.135455489158630371e-01
4.134073257446289062e-01
4.132099747657775879e-01
4.131351709365844727e-01
4.128139615058898926e-01
4.093499779701232910e-01
4.093232452869415283e-01
4.093028008937835693e-01
4.092883169651031494e-01
4.092427492141723633e-01
4.091942906379699707e-01
4.091937243938446045e-01
4.091763496398925781e-01
4.086904525756835938e-01
4.085731506347656250e-01
4.081334769725799561e-01
4.080417752265930176e-01
4.076166152954101562e-01
4.075888097286224365e-01
4.074174761772155762e-01
4.073333144187927246e-01
4.073052108287811279e-01
4.072271883487701416e-01
4.071455001831054688e-01
4.071362614631652832e-01
4.069794118404388428e-01
4.067554473876953125e-01
4.067332446575164795e-01
4.065676033496856689e-01
4.060553312301635742e-01
4.059402942657470703e-01
4.058973193168640137e-01
4.057693779468536377e-01
4.057329893112182617e-01
4.055882096290588379e-01
4.020168781280517578e-01
3.972770571708679199e-01
3.971664011478424072e-01
3.971422016620635986e-01
3.966630995273590088e-01
3.966282010078430176e-01
3.959735631942749023e-01
3.902851641178131104e-01
3.840612173080444336e-01
3.714956045150756836e-01
3.093340992927551270e-01
3.093111217021942139e-01
3.092797994613647461e-01
3.092764019966125488e-01
3.092291951179504395e-01
3.091869354248046875e-01
3.091785907745361328e-01
3.091759681701660156e-01
3.090906143188476562e-01
3.052819371223449707e-01
3.051908612251281738e-01
3.051715791225433350e-01
3.045253157615661621e-01
3.044737279415130615e-01
3.041627407073974609e-01
3.040588498115539551e-01
3.037051558494567871e-01
3.036729097366333008e-01
3.035239279270172119e-01
3.033984303474426270e-01
3.033278286457061768e-01
3.032811880111694336e-01
3.029742240905761719e-01
2.742491364479064941e-01
2.726301252841949463e-01
2.726130485534667969e-01
2.725931107997894287e-01
2.725421190261840820e-01
2.725317478179931641e-01
2.725195884704589844e-01
2.725183069705963135e-01
2.725088596343994141e-01
2.724165916442871094e-01
2.723251581192016602e-01
2.722755968570709229e-01
