0.000000000000000000e+00
0.000000000000000000e+00
0.000000000000000000e+00
2.960038385129161974e-03
2.960038385129161974e-03
4.184057673928814371e-03
4.184057673928814371e-03
5.121868226728760673e-03
5.121868226728760673e-03
5.911295440178163454e-03
5.911295440178163454e-03
6.605753368545871571e-03
6.605753368545871571e-03
7.232649962975233257e-03
7.232649962975233257e-03
7.808274940323413349e-03
7.808274940323413349e-03
8.343247193768506265e-03
8.343247193768506265e-03
8.844946244316920225e-03
8.844946244316920225e-03
9.318747691040487474e-03
9.318747691040487474e-03
9.768711641233728676e-03
9.768711641233728676e-03
1.019799391379327957e-02
1.019799391379327957e-02
1.060910536934385820e-02
1.060910536934385820e-02
1.100408277621551731e-02
1.100408277621551731e-02
1.138460552191651078e-02
1.138460552191651078e-02
1.175207778094525778e-02
1.175207778094525778e-02
1.311283839018820112e-02
1.311283839018820112e-02
1.342989354411870673e-02
1.342989354411870673e-02
1.373900413790663314e-02
1.373900413790663314e-02
1.404069488780225299e-02
1.404069488780225299e-02
1.433543425568906647e-02
1.433543425568906647e-02
1.490569865657083090e-02
1.490569865657083090e-02
1.518194543577943909e-02
1.518194543577943909e-02
1.545269446165805152e-02
1.545269446165805152e-02
1.571822983581856736e-02
1.571822983581856736e-02
1.597881148126365294e-02
1.597881148126365294e-02
1.648604874206414939e-02
1.648604874206414939e-02
1.697609868141713649e-02
1.697609868141713649e-02
1.721513910204594197e-02
1.721513910204594197e-02
1.745040934477630826e-02
1.745040934477630826e-02
1.813505464860722116e-02
1.813505464860722116e-02
1.835665317123416976e-02
1.835665317123416976e-02
1.857514221549538824e-02
1.857514221549538824e-02
1.900321936113282331e-02
1.900321936113282331e-02
1.921300578181067351e-02
1.921300578181067351e-02
1.942008033949225651e-02
1.942008033949225651e-02
1.962452887966138065e-02
1.962452887966138065e-02
1.982643264031328997e-02
1.982643264031328997e-02
2.002586859212311318e-02
2.002586859212311318e-02
2.022290974694226223e-02
2.022290974694226223e-02
2.061008157598146623e-02
2.061008157598146623e-02
2.098846309399034563e-02
2.098846309399034563e-02
2.135852148606089823e-02
2.135852148606089823e-02
2.172068216324710491e-02
2.172068216324710491e-02
2.189892364075844006e-02
2.189892364075844006e-02
2.207533383092140367e-02
2.207533383092140367e-02
2.224995629221243609e-02
2.224995629221243609e-02
2.259400340644624958e-02
2.259400340644624958e-02
2.276350661908013023e-02
2.276350661908013023e-02
2.309765731275283812e-02
2.309765731275283812e-02
2.326237454370091301e-02
2.326237454370091301e-02
2.374748539211935655e-02
2.374748539211935655e-02
2.406366164614229947e-02
2.406366164614229947e-02
2.452763883654142038e-02
2.452763883654142038e-02
2.483039785476216788e-02
2.483039785476216788e-02
2.512813134515350100e-02
2.512813134515350100e-02
2.542101588678824520e-02
2.542101588678824520e-02
2.556569198806669246e-02
2.556569198806669246e-02
2.570921720078113426e-02
2.570921720078113426e-02
2.613307637146821197e-02
2.613307637146821197e-02
2.627218413890972104e-02
2.627218413890972104e-02
2.641023139535993158e-02
2.641023139535993158e-02
2.654723468499153166e-02
2.654723468499153166e-02
2.668321008835830566e-02
2.668321008835830566e-02
2.721713920999278835e-02
2.721713920999278835e-02
2.747832335987360902e-02
2.747832335987360902e-02
2.773579959379160464e-02
2.773579959379160464e-02
2.786317942248152379e-02
2.786317942248152379e-02
2.798967023899551904e-02
2.798967023899551904e-02
2.811528404234806683e-02
2.811528404234806683e-02
2.824003253560445834e-02
2.824003253560445834e-02
2.836392713602916421e-02
2.836392713602916421e-02
2.848697898478937118e-02
2.848697898478937118e-02
2.873059766679436633e-02
2.873059766679436633e-02
2.885118548345507600e-02
2.885118548345507600e-02
2.897097253193503877e-02
2.897097253193503877e-02
2.920818366733209104e-02
2.920818366733209104e-02
2.932562686794043874e-02
2.932562686794043874e-02
2.944230754181169363e-02
2.944230754181169363e-02
2.955823471913469891e-02
2.955823471913469891e-02
2.967341723112092503e-02
2.967341723112092503e-02
2.978786371609744993e-02
2.978786371609744993e-02
2.990158262536102979e-02
2.990158262536102979e-02
3.001458222880466417e-02
3.001458222880466417e-02
3.023845572303757515e-02
3.023845572303757515e-02
3.034934529425877686e-02
3.034934529425877686e-02
3.067791600538726654e-02
3.067791600538726654e-02
3.089362067172867973e-02
3.089362067172867973e-02
3.131725631963039325e-02
3.131725631963039325e-02
3.142158398337579345e-02
3.142158398337579345e-02
3.152529176383832982e-02
3.152529176383832982e-02
3.162838575871070729e-02
3.162838575871070729e-02
3.173087195058436893e-02
3.173087195058436893e-02
3.193404429816519563e-02
3.193404429816519563e-02
3.213485447724195865e-02
3.213485447724195865e-02
3.223438756972928781e-02
3.223438756972928781e-02
3.233334649944859251e-02
3.233334649944859251e-02
3.243173652222738901e-02
3.243173652222738901e-02
3.262683040447513644e-02
3.262683040447513644e-02
3.272354431665090713e-02
3.272354431665090713e-02
3.281970943169874172e-02
3.281970943169874172e-02
3.291533055970030652e-02
3.291533055970030652e-02
3.301041242795116348e-02
3.301041242795116348e-02
3.329246854629479280e-02
3.329246854629479280e-02
3.347789277638588135e-02
3.347789277638588135e-02
3.356983396401598541e-02
3.356983396401598541e-02
3.366126682304007578e-02
3.366126682304007578e-02
3.384262401262870534e-02
3.384262401262870534e-02
3.393255640573090981e-02
3.393255640573090981e-02
3.428740238424022452e-02
3.428740238424022452e-02
3.437491188506804074e-02
3.437491188506804074e-02
3.454851413894134693e-02
3.454851413894134693e-02
3.463461399328247869e-02
3.463461399328247869e-02
3.480542850449389047e-02
3.480542850449389047e-02
3.489014994298740568e-02
3.489014994298740568e-02
3.497441860621472443e-02
3.497441860621472443e-02
3.505823775915184459e-02
3.505823775915184459e-02
3.522454035262691935e-02
3.522454035262691935e-02
3.530703008461605341e-02
3.530703008461605341e-02
3.538908289111218630e-02
3.538908289111218630e-02
3.555188981246600044e-02
3.555188981246600044e-02
3.595146791196462271e-02
3.595146791196462271e-02
3.634069790482127860e-02
3.634069790482127860e-02
3.649356689657057284e-02
3.649356689657057284e-02
3.656940663110075374e-02
3.656940663110075374e-02
3.679457617251608026e-02
3.679457617251608026e-02
3.701627111558319222e-02
3.701627111558319222e-02
3.716216816028505843e-02
3.716216816028505843e-02
3.723455352374469007e-02
3.723455352374469007e-02
3.744948306914042124e-02
3.744948306914042124e-02
3.752039115505972217e-02
3.752039115505972217e-02
3.793826486516473084e-02
3.793826486516473084e-02
3.800666652330150080e-02
3.800666652330150080e-02
3.820977731852056442e-02
3.820977731852056442e-02
3.834345783079579073e-02
3.834345783079579073e-02
3.840978550410543979e-02
3.840978550410543979e-02
3.860673930073383470e-02
3.860673930073383470e-02
3.873636798612579285e-02
3.873636798612579285e-02
3.899166814885762777e-02
3.899166814885762777e-02
3.924177762893659577e-02
3.924177762893659577e-02
3.942601285625925434e-02
3.942601285625925434e-02
3.954726491929237003e-02
3.954726491929237003e-02
3.978604928787071032e-02
3.978604928787071032e-02
3.996192647844725582e-02
3.996192647844725582e-02
4.001994776922185998e-02
4.001994776922185998e-02
4.030557950708129472e-02
4.030557950708129472e-02
4.047342413241722392e-02
4.047342413241722392e-02
4.069316160043911362e-02
4.069316160043911362e-02
4.080131340867878403e-02
4.080131340867878403e-02
4.090833273613769805e-02
4.090833273613769805e-02
4.101422844783778054e-02
4.101422844783778054e-02
4.111900922488091747e-02
4.111900922488091747e-02
4.132525980795902221e-02
4.132525980795902221e-02
4.137613869339304418e-02
4.137613869339304418e-02
4.177347869047394469e-02
4.177347869047394469e-02
4.191810242507201106e-02
4.191810242507201106e-02
4.206037633161587019e-02
4.206037633161587019e-02
4.215393190829060804e-02
4.215393190829060804e-02
4.220032417669863922e-02
4.220032417669863922e-02
4.224646056232399249e-02
4.224646056232399249e-02
4.251795166104378049e-02
4.251795166104378049e-02
4.260643864887365267e-02
4.260643864887365267e-02
4.269393108830761563e-02
4.269393108830761563e-02
4.278043508135032785e-02
4.278043508135032785e-02
4.282331828503829069e-02
4.282331828503829069e-02
4.295050154926258884e-02
4.295050154926258884e-02
4.299240959830955000e-02
4.299240959830955000e-02
4.315762879688975207e-02
4.315762879688975207e-02
4.323880026476337179e-02
4.323880026476337179e-02
4.327902883641125686e-02
4.327902883641125686e-02
4.331902018566001489e-02
4.331902018566001489e-02
4.339829383626371551e-02
4.339829383626371551e-02
4.343757743163224883e-02
4.343757743163224883e-02
4.347662639275610280e-02
4.347662639275610280e-02
4.351544135128852103e-02
4.351544135128852103e-02
4.381761076218586293e-02
4.381761076218586293e-02
4.399901826053462250e-02
4.399901826053462250e-02
4.403462023562149108e-02
4.403462023562149108e-02
4.406999699155694089e-02
4.406999699155694089e-02
4.417478133813969310e-02
4.417478133813969310e-02
4.427755791517921230e-02
4.427755791517921230e-02
4.434496711072420660e-02
4.434496711072420660e-02
4.437834067216373662e-02
4.437834067216373662e-02
4.444442820814667461e-02
4.444442820814667461e-02
4.457397855530403213e-02
4.457397855530403213e-02
4.466885964293483557e-02
4.466885964293483557e-02
4.473103412822745928e-02
4.473103412822745928e-02
4.479234915813898321e-02
4.479234915813898321e-02
4.485280825736738530e-02
4.485280825736738530e-02
4.488271791580539238e-02
4.488271791580539238e-02
4.491241488256047382e-02
4.491241488256047382e-02
4.497117242342989207e-02
4.497117242342989207e-02
4.505772395482203485e-02
4.505772395482203485e-02
4.508615348283487312e-02
4.508615348283487312e-02
4.511437318529904622e-02
4.511437318529904622e-02
4.514238345571711802e-02
4.514238345571711802e-02
4.519777725499128651e-02
4.519777725499128651e-02
4.533262349557805326e-02
4.533262349557805326e-02
4.538511447185136077e-02
4.538511447185136077e-02
4.546230901075114239e-02
4.546230901075114239e-02
4.548763074195140421e-02
4.548763074195140421e-02
4.553766158662493624e-02
4.553766158662493624e-02
4.558687784421495276e-02
4.558687784421495276e-02
4.565918063008386069e-02
4.565918063008386069e-02
4.570637183123257147e-02
4.570637183123257147e-02
4.572966517765959110e-02
4.572966517765959110e-02
4.579833988185660898e-02
4.579833988185660898e-02
4.582083067518054331e-02
4.582083067518054331e-02
4.586521287239645611e-02
4.586521287239645611e-02
4.588710485602038452e-02
4.588710485602038452e-02
4.597268530741863146e-02
4.597268530741863146e-02
4.599358493628807193e-02
4.599358493628807193e-02
4.603479151177296280e-02
4.603479151177296280e-02
4.605509898867511664e-02
4.605509898867511664e-02
4.609512362401083779e-02
4.609512362401083779e-02
4.613436287099418470e-02
4.613436287099418470e-02
4.622903794034537162e-02
4.622903794034537162e-02
4.624738807298219706e-02
4.624738807298219706e-02
4.626554379224377678e-02
4.626554379224377678e-02
4.631884674367851840e-02
4.631884674367851840e-02
4.635341409783510364e-02
4.635341409783510364e-02
4.637040804392072307e-02
4.637040804392072307e-02
4.646832868545309331e-02
4.646832868545309331e-02
4.648397684584267692e-02
4.648397684584267692e-02
4.657385173862760297e-02
4.657385173862760297e-02
4.658816359665193807e-02
4.658816359665193807e-02
4.660228527637923224e-02
4.660228527637923224e-02
4.668303111271172867e-02
4.668303111271172867e-02
4.670843250692494064e-02
4.670843250692494064e-02
4.672085005807972979e-02
4.672085005807972979e-02
4.675697192560381715e-02
4.675697192560381715e-02
4.681341434040380695e-02
4.681341434040380695e-02
4.683467824784728201e-02
4.683467824784728201e-02
4.685519338873737893e-02
4.685519338873737893e-02
4.686517048041230482e-02
4.686517048041230482e-02
4.689398126582788873e-02
4.689398126582788873e-02
4.695468451872680804e-02
4.695468451872680804e-02
4.701936055027766681e-02
4.701936055027766681e-02
4.703169600867708466e-02
4.703169600867708466e-02
4.703758642941030521e-02
4.703758642941030521e-02
4.704329207115254263e-02
4.704329207115254263e-02
4.708633815762620911e-02
4.708633815762620911e-02
4.711666752512379264e-02
4.711666752512379264e-02
4.712052622604548380e-02
4.712052622604548380e-02
4.712364970489201638e-02
4.712364970489201638e-02
4.712861009875459611e-02
4.712861009875459611e-02
4.711868878882671807e-02
4.711868878882671807e-02
4.709736927834862197e-02
4.709736927834862197e-02
4.705414928435600053e-02
4.705414928435600053e-02
4.700628511385416403e-02
4.700628511385416403e-02
4.697035497739836946e-02
4.697035497739836946e-02
4.696261258075454248e-02
4.696261258075454248e-02
4.694657069725294285e-02
4.694657069725294285e-02
4.692978538836331537e-02
4.692978538836331537e-02
4.683467824784728201e-02
4.683467824784728201e-02
4.668303111271172867e-02
4.668303111271172867e-02
4.667004696143411263e-02
4.667004696143411263e-02
4.665687363112112906e-02
4.665687363112112906e-02
4.657385173862760297e-02
4.657385173862760297e-02
4.655934952692972195e-02
4.655934952692972195e-02
4.648397684584267692e-02
4.648397684584267692e-02
4.640381753515573915e-02
4.640381753515573915e-02
4.630127290299596021e-02
4.630127290299596021e-02
4.626554379224377678e-02
4.626554379224377678e-02
4.575275743256029121e-02
4.575275743256029121e-02
4.570637183123257147e-02
4.570637183123257147e-02
4.565918063008386069e-02
4.565918063008386069e-02
4.561118132859426355e-02
4.561118132859426355e-02
4.551274815454573602e-02
4.551274815454573602e-02
4.519777725499128651e-02
4.519777725499128651e-02
4.502908420383462673e-02
4.502908420383462673e-02
4.494189957926352647e-02
4.494189957926352647e-02
4.473103412822745928e-02
4.473103412822745928e-02
4.454191786025803179e-02
4.454191786025803179e-02
4.431137302571075409e-02
4.431137302571075409e-02
4.410514907028607878e-02
4.410514907028607878e-02
4.406999699155694089e-02
4.406999699155694089e-02
4.399901826053462250e-02
4.399901826053462250e-02
4.385434714633817954e-02
4.385434714633817954e-02
4.374345166837956961e-02
4.374345166837956961e-02
4.366837358277540770e-02
4.366837358277540770e-02
4.355402293285263321e-02
4.355402293285263321e-02
4.339829383626371551e-02
4.339829383626371551e-02
4.331902018566001489e-02
4.331902018566001489e-02
4.327902883641125686e-02
4.327902883641125686e-02
4.323880026476336486e-02
4.323880026476336486e-02
4.307550040275447134e-02
4.307550040275447134e-02
4.303407564872652191e-02
4.303407564872652191e-02
4.286595661209074287e-02
4.286595661209074287e-02
4.282331828503829069e-02
4.282331828503829069e-02
4.269393108830761563e-02
4.269393108830761563e-02
4.260643864887365267e-02
4.260643864887365267e-02
4.251795166104378743e-02
4.251795166104378743e-02
4.233796902666372292e-02
4.233796902666372292e-02
4.215393190829061498e-02
4.215393190829061498e-02
4.206037633161587019e-02
4.206037633161587019e-02
4.196578696425279364e-02
4.196578696425279364e-02
4.191810242507200412e-02
4.191810242507200412e-02
4.187015679985557626e-02
4.187015679985557626e-02
4.177347869047395856e-02
4.177347869047395856e-02
4.172474438312122336e-02
4.172474438312122336e-02
4.157694931632306690e-02
4.157694931632306690e-02
4.111900922488091747e-02
4.111900922488091747e-02
4.106675766767679120e-02
4.106675766767679120e-02
4.058386825758752287e-02
4.058386825758752287e-02
4.047342413241722392e-02
4.047342413241722392e-02
4.036181977809464444e-02
4.036181977809464444e-02
4.024904554321502570e-02
4.024904554321502570e-02
3.990360385256309927e-02
3.990360385256309927e-02
3.911736545299288048e-02
3.911736545299288048e-02
3.873636798612578591e-02
3.873636798612578591e-02
3.867171990004770327e-02
3.867171990004770327e-02
3.840978550410543979e-02
3.840978550410543979e-02
3.834345783079579073e-02
3.834345783079579073e-02
3.780040310524404590e-02
3.780040310524404590e-02
3.766111715552315775e-02
3.766111715552315775e-02
3.744948306914042818e-02
3.744948306914042818e-02
3.708940809408918515e-02
3.708940809408918515e-02
3.694275498620420289e-02
3.694275498620420289e-02
3.656940663110074680e-02
3.656940663110074680e-02
3.626366363318545005e-02
3.626366363318545005e-02
3.579289765166328990e-02
3.579289765166328990e-02
3.571298485348128188e-02
3.571298485348128188e-02
3.563264986109523219e-02
3.563264986109523219e-02
3.530703008461603953e-02
3.530703008461603953e-02
3.514161061829107480e-02
3.514161061829107480e-02
3.505823775915184459e-02
3.505823775915184459e-02
3.480542850449389047e-02
3.480542850449389047e-02
3.463461399328247869e-02
3.463461399328247869e-02
3.366126682304008272e-02
3.366126682304008272e-02
3.262683040447513644e-02
3.262683040447513644e-02
3.223438756972928781e-02
3.223438756972928781e-02
3.193404429816519563e-02
3.193404429816519563e-02
3.078609787311775703e-02
3.078609787311775703e-02
3.067791600538728042e-02
3.067791600538728042e-02
3.045954693034808730e-02
3.045954693034808730e-02
2.955823471913469891e-02
2.955823471913469891e-02
2.944230754181169363e-02
2.944230754181169363e-02
2.932562686794043874e-02
2.932562686794043874e-02
2.920818366733208757e-02
2.920818366733208757e-02
2.885118548345508294e-02
2.885118548345508294e-02
2.848697898478937118e-02
2.848697898478937118e-02
2.836392713602915727e-02
2.836392713602915727e-02
2.824003253560445834e-02
2.824003253560445834e-02
2.811528404234805989e-02
2.811528404234805989e-02
2.773579959379161158e-02
2.773579959379161158e-02
2.760751844734383315e-02
2.760751844734383315e-02
2.734820137879286073e-02
2.734820137879286073e-02
2.613307637146820850e-02
2.613307637146820850e-02
2.570921720078114814e-02
2.570921720078114814e-02
2.527516913375398022e-02
2.527516913375398022e-02
2.512813134515350100e-02
2.512813134515350100e-02
2.467965802422824456e-02
2.467965802422824456e-02
2.452763883654142385e-02
2.452763883654142385e-02
2.390627731510131665e-02
2.390627731510131665e-02
2.293137940463223917e-02
2.293137940463223917e-02
2.224995629221242915e-02
2.224995629221242915e-02
2.154056393843298972e-02
2.154056393843298972e-02
2.098846309399033869e-02
2.098846309399033869e-02
2.080034088038604928e-02
2.080034088038604928e-02
2.002586859212311665e-02
2.002586859212311665e-02
1.962452887966138065e-02
1.962452887966138065e-02
1.745040934477629438e-02
1.745040934477629438e-02
1.697609868141714343e-02
1.697609868141714343e-02
1.490569865657083784e-02
1.490569865657083784e-02
9.318747691040503087e-03
9.318747691040503087e-03
8.844946244316927164e-03
8.844946244316927164e-03
8.343247193768507999e-03
8.343247193768507999e-03
2.960038385129182791e-03
2.960038385129182791e-03
0.000000000000000000e+00
