0.000000000000000000e+00
9.477341399358787596e-03
5.820154637120907026e-02
5.820154637120907026e-02
6.689932735087850135e-02
6.689932735087850135e-02
7.447737911607792138e-02
7.447737911607792138e-02
7.532808241286910456e-02
7.532808241286910456e-02
8.042126584430264735e-02
8.042126584430264735e-02
8.355309689054021827e-02
8.388313298870041235e-02
8.816019509960262845e-02
8.844252370890373638e-02
9.395701144672494176e-02
9.395701144672494176e-02
9.586021072374083241e-02
9.586021072374083241e-02
1.000498875561586926e-01
1.000498875561586926e-01
1.019461622622450658e-01
1.020670367944519069e-01
1.030699762297440369e-01
1.030699762297440369e-01
1.050805405391502662e-01
1.050805405391502662e-01
1.052474227712964089e-01
1.052474227712964089e-01
1.055343545960271689e-01
1.055343545960271689e-01
1.059437586646801988e-01
1.059632955319906866e-01
1.059811303959341672e-01
1.059811303959341672e-01
1.060448018528018232e-01
1.060448018528018232e-01
1.059632955319906866e-01
1.059632955319906866e-01
1.059225188522252004e-01
1.059225188522252004e-01
1.058485710815219305e-01
1.058485710815219305e-01
1.050214263852857766e-01
1.050214263852857766e-01
1.049605640228747916e-01
1.049605640228747916e-01
1.045585003718014216e-01
1.045585003718014216e-01
1.044103443151108424e-01
1.044103443151108424e-01
1.040926510374291514e-01
1.040926510374291514e-01
1.035621552498788012e-01
1.035621552498788012e-01
1.028601963832463106e-01
1.027525182173167073e-01
1.027525182173167073e-01
1.026429734565401375e-01
1.026429734565401375e-01
1.025315561181044388e-01
1.025315561181044388e-01
1.021860068698253743e-01
1.021860068698253743e-01
1.015720433977775339e-01
1.015720433977775339e-01
1.014434818014444961e-01
1.014434818014444961e-01
1.010461280801991102e-01
1.010461280801991102e-01
1.009097616685323412e-01
1.009097616685323412e-01
1.007714245210416804e-01
1.007714245210416804e-01
1.004888053466653497e-01
1.004888053466653497e-01
1.003445065760951299e-01
1.003445065760951299e-01
9.989954954853400015e-02
9.989954954853400015e-02
9.959277082198285391e-02
9.959277082198285391e-02
9.943631127510714485e-02
9.943631127510714485e-02
9.927779207859126209e-02
9.927779207859126209e-02
9.878977679901904119e-02
9.878977679901904119e-02
9.862291822897960303e-02
9.862291822897960303e-02
9.845394862574075034e-02
9.845394862574075034e-02
9.775673889814452677e-02
9.775673889814452677e-02
9.739517441844847134e-02
9.739517441844847134e-02
9.664564139163234202e-02
9.664564139163234202e-02
9.645268269986066734e-02
9.645268269986066734e-02
9.625746724280667688e-02
9.625746724280667688e-02
9.565814131583365298e-02
9.565814131583365298e-02
9.545375843831399587e-02
9.545375843831399587e-02
9.524704719832527422e-02
9.524704719832527422e-02
9.461278983308757384e-02
9.461278983308757384e-02
9.439661010862626656e-02
9.439661010862626656e-02
9.417802291405356907e-02
9.417802291405356907e-02
9.373355855828796601e-02
9.373355855828796601e-02
9.281497723966752877e-02
9.281497723966752877e-02
9.234056530041387378e-02
9.234056530041387378e-02
9.209951139935543263e-02
9.209951139935543263e-02
9.185586535436918165e-02
9.185586535436918165e-02
9.160960648316310295e-02
9.160960648316310295e-02
9.136071365745782047e-02
9.136071365745782047e-02
9.085493932637894732e-02
9.085493932637894732e-02
9.059801322324900763e-02
9.059801322324900763e-02
9.033836394356496713e-02
9.033836394356496713e-02
8.981080113215782201e-02
8.981080113215782201e-02
8.954283890965263060e-02
8.954283890965263060e-02
8.899842695239056078e-02
8.899842695239056078e-02
8.872192513691302962e-02
8.872192513691302962e-02
8.844252370890373638e-02
8.844252370890373638e-02
8.758664281726979972e-02
8.758664281726979972e-02
8.700103447660838263e-02
8.700103447660838263e-02
8.670363314187011505e-02
8.670363314187011505e-02
8.640312494348800776e-02
8.640312494348800776e-02
8.516936068798448833e-02
8.516936068798448833e-02
8.485281374238570762e-02
8.485281374238570762e-02
8.453295215476623603e-02
8.453295215476623603e-02
8.420973815420636222e-02
8.420973815420636222e-02
8.388313298870041235e-02
8.388313298870041235e-02
8.321958904008117108e-02
8.321958904008117108e-02
8.288256752779801784e-02
8.288256752779801784e-02
8.254198931453010646e-02
8.254198931453010646e-02
8.184998472815986637e-02
8.184998472815986637e-02
8.078415686259281248e-02
8.078415686259281248e-02
8.042126584430266123e-02
8.042126584430266123e-02
8.005448144857350845e-02
8.005448144857350845e-02
7.968374991176056799e-02
7.968374991176056799e-02
7.930901588091987531e-02
7.930901588091987531e-02
7.893022234860358477e-02
7.893022234860358477e-02
7.854731058413139122e-02
7.854731058413139122e-02
7.776888838089432432e-02
7.776888838089432432e-02
7.737325119186863609e-02
7.737325119186863609e-02
7.697324210399353328e-02
7.697324210399353328e-02
7.615983193258765716e-02
7.615983193258765716e-02
7.532808241286911843e-02
7.532808241286911843e-02
7.490514001054934812e-02
7.490514001054934812e-02
7.447737911607792138e-02
7.447737911607792138e-02
7.404471621932250114e-02
7.404471621932250114e-02
7.360706487831178424e-02
7.360706487831178424e-02
7.316433557410331745e-02
7.316433557410331745e-02
7.226326867780062668e-02
7.226326867780062668e-02
7.180473521990037022e-02
7.180473521990037022e-02
7.087115068912033800e-02
7.087115068912033800e-02
7.039588056129421345e-02
7.039588056129421345e-02
6.991480529902090180e-02
6.991480529902090180e-02
6.942780422856537070e-02
6.942780422856537070e-02
6.843551709456136001e-02
6.843551709456136001e-02
6.792996393345133999e-02
6.792996393345133999e-02
6.637394066951274318e-02
6.637394066951274318e-02
6.475554030351379775e-02
6.475554030351379775e-02
6.306996115426105609e-02
6.306996115426105609e-02
6.249223951819937034e-02
6.249223951819937034e-02
6.131166283832137354e-02
6.131166283832137354e-02
6.070831903454418366e-02
6.070831903454418366e-02
6.009592332263477554e-02
6.009592332263477554e-02
5.884284153573821757e-02
5.884284153573821757e-02
5.820154637120906332e-02
5.820154637120906332e-02
5.754997827975261854e-02
5.754997827975261854e-02
5.688778427747031435e-02
5.688778427747031435e-02
5.621458885378419201e-02
5.621458885378419201e-02
5.552999189627168264e-02
5.552999189627168264e-02
5.483356636222012914e-02
5.483356636222012914e-02
5.412485565800613518e-02
5.412485565800613518e-02
5.340337068013589067e-02
5.340337068013589067e-02
5.191993836668142015e-02
5.191993836668142015e-02
5.115681772745449274e-02
5.115681772745449274e-02
5.037856687124001032e-02
5.037856687124001032e-02
4.958447337624956319e-02
4.958447337624956319e-02
4.877376343896379363e-02
4.877376343896379363e-02
4.794559416672194985e-02
4.794559416672194985e-02
4.709904457629689178e-02
4.709904457629689178e-02
4.623310502226734425e-02
4.623310502226734425e-02
4.534666470645885850e-02
4.534666470645885850e-02
4.443849682426264519e-02
4.443849682426264519e-02
4.350724077667993822e-02
4.350724077667993822e-02
4.255138070615337165e-02
4.255138070615337165e-02
4.156921938165307473e-02
4.156921938165307473e-02
4.055884613743346301e-02
4.055884613743346301e-02
3.951809712018028442e-02
3.951809712018028442e-02
3.844450545916804074e-02
3.844450545916804074e-02
3.733523804664973245e-02
3.733523804664973245e-02
3.618701424544447376e-02
3.618701424544447376e-02
3.499599977140246260e-02
3.499599977140246260e-02
3.375766579608253937e-02
3.375766579608253937e-02
3.246659822032485487e-02
3.246659822032485487e-02
3.111623370525425092e-02
3.111623370525425092e-02
2.969848480983500530e-02
2.969848480983500530e-02
2.820319130878632535e-02
2.820319130878632535e-02
2.661728761538261281e-02
2.661728761538261281e-02
2.492348290267635408e-02
2.492348290267635408e-02
2.309805186590420042e-02
2.309805186590420042e-02
1.889761889762835503e-02
1.889761889762835503e-02
1.638230752977126378e-02
1.638230752977126378e-02
1.338954816265284370e-02
1.338954816265284370e-02
9.477341399358792801e-03
9.477341399358792801e-03
0.000000000000000000e+00
