0.000000000000000000e+00
2.000000000000000042e-03
2.000000000000000042e-03
1.000000000000000021e-02
1.000000000000000021e-02
1.799999999999999864e-02
1.799999999999999864e-02
2.199999999999999872e-02
2.199999999999999872e-02
2.800000000000000058e-02
2.800000000000000058e-02
2.999999999999999889e-02
2.999999999999999889e-02
3.599999999999999728e-02
3.599999999999999728e-02
3.799999999999999906e-02
3.799999999999999906e-02
4.000000000000000083e-02
4.200000000000000261e-02
4.399999999999999745e-02
4.399999999999999745e-02
4.800000000000000100e-02
4.800000000000000100e-02
5.800000000000000294e-02
5.999999999999999778e-02
6.600000000000000311e-02
6.600000000000000311e-02
8.000000000000000167e-02
8.000000000000000167e-02
8.200000000000000344e-02
8.200000000000000344e-02
8.400000000000000522e-02
8.400000000000000522e-02
9.199999999999999845e-02
9.199999999999999845e-02
1.000000000000000056e-01
1.000000000000000056e-01
1.100000000000000006e-01
1.100000000000000006e-01
1.199999999999999956e-01
1.199999999999999956e-01
1.280000000000000027e-01
1.280000000000000027e-01
1.300000000000000044e-01
1.300000000000000044e-01
1.439999999999999891e-01
1.439999999999999891e-01
1.499999999999999944e-01
1.499999999999999944e-01
1.539999999999999980e-01
1.539999999999999980e-01
1.640000000000000069e-01
1.640000000000000069e-01
1.660000000000000087e-01
1.660000000000000087e-01
1.700000000000000122e-01
1.700000000000000122e-01
1.759999999999999898e-01
1.759999999999999898e-01
1.819999999999999951e-01
1.819999999999999951e-01
1.859999999999999987e-01
1.859999999999999987e-01
1.920000000000000040e-01
1.920000000000000040e-01
1.940000000000000058e-01
1.940000000000000058e-01
2.000000000000000111e-01
2.000000000000000111e-01
2.119999999999999940e-01
2.119999999999999940e-01
2.159999999999999976e-01
2.159999999999999976e-01
2.179999999999999993e-01
2.179999999999999993e-01
2.240000000000000047e-01
2.240000000000000047e-01
2.320000000000000118e-01
2.320000000000000118e-01
2.479999999999999982e-01
2.479999999999999982e-01
2.520000000000000018e-01
2.520000000000000018e-01
2.540000000000000036e-01
2.540000000000000036e-01
2.680000000000000160e-01
2.680000000000000160e-01
2.859999999999999765e-01
2.899999999999999800e-01
3.039999999999999925e-01
3.059999999999999942e-01
3.059999999999999942e-01
3.099999999999999978e-01
3.099999999999999978e-01
3.200000000000000067e-01
3.200000000000000067e-01
3.220000000000000084e-01
3.220000000000000084e-01
3.260000000000000120e-01
3.260000000000000120e-01
3.280000000000000138e-01
3.280000000000000138e-01
3.300000000000000155e-01
3.300000000000000155e-01
3.320000000000000173e-01
3.320000000000000173e-01
3.380000000000000226e-01
3.380000000000000226e-01
3.400000000000000244e-01
3.400000000000000244e-01
3.420000000000000262e-01
3.420000000000000262e-01
3.479999999999999760e-01
3.479999999999999760e-01
3.499999999999999778e-01
3.499999999999999778e-01
3.519999999999999796e-01
3.519999999999999796e-01
3.539999999999999813e-01
3.539999999999999813e-01
3.659999999999999920e-01
3.679999999999999938e-01
3.760000000000000009e-01
3.760000000000000009e-01
3.980000000000000204e-01
3.980000000000000204e-01
4.000000000000000222e-01
4.000000000000000222e-01
4.020000000000000240e-01
4.020000000000000240e-01
4.060000000000000275e-01
4.060000000000000275e-01
4.159999999999999809e-01
4.159999999999999809e-01
4.179999999999999827e-01
4.179999999999999827e-01
4.279999999999999916e-01
4.279999999999999916e-01
4.299999999999999933e-01
4.299999999999999933e-01
4.400000000000000022e-01
4.400000000000000022e-01
4.460000000000000075e-01
4.460000000000000075e-01
4.500000000000000111e-01
4.500000000000000111e-01
4.520000000000000129e-01
4.520000000000000129e-01
4.540000000000000147e-01
4.540000000000000147e-01
4.560000000000000164e-01
4.560000000000000164e-01
4.580000000000000182e-01
4.580000000000000182e-01
4.640000000000000235e-01
4.640000000000000235e-01
4.739999999999999769e-01
4.739999999999999769e-01
4.779999999999999805e-01
4.779999999999999805e-01
4.859999999999999876e-01
4.859999999999999876e-01
4.879999999999999893e-01
4.899999999999999911e-01
4.899999999999999911e-01
4.959999999999999964e-01
4.959999999999999964e-01
5.000000000000000000e-01
5.000000000000000000e-01
5.040000000000000036e-01
5.040000000000000036e-01
5.180000000000000160e-01
5.180000000000000160e-01
5.220000000000000195e-01
5.220000000000000195e-01
5.320000000000000284e-01
5.320000000000000284e-01
5.400000000000000355e-01
5.400000000000000355e-01
5.420000000000000373e-01
5.420000000000000373e-01
5.460000000000000409e-01
5.460000000000000409e-01
5.500000000000000444e-01
5.500000000000000444e-01
5.520000000000000462e-01
5.520000000000000462e-01
5.540000000000000480e-01
5.540000000000000480e-01
5.580000000000000515e-01
5.580000000000000515e-01
5.699999999999999512e-01
5.699999999999999512e-01
5.719999999999999529e-01
5.719999999999999529e-01
5.779999999999999583e-01
5.779999999999999583e-01
5.859999999999999654e-01
5.859999999999999654e-01
5.879999999999999671e-01
5.879999999999999671e-01
5.979999999999999760e-01
5.979999999999999760e-01
5.999999999999999778e-01
5.999999999999999778e-01
6.019999999999999796e-01
6.019999999999999796e-01
6.039999999999999813e-01
6.039999999999999813e-01
6.059999999999999831e-01
6.059999999999999831e-01
6.119999999999999885e-01
6.119999999999999885e-01
6.199999999999999956e-01
6.199999999999999956e-01
6.219999999999999973e-01
6.219999999999999973e-01
6.260000000000000009e-01
6.260000000000000009e-01
6.300000000000000044e-01
6.300000000000000044e-01
6.380000000000000115e-01
6.380000000000000115e-01
6.440000000000000169e-01
6.440000000000000169e-01
6.480000000000000204e-01
6.480000000000000204e-01
6.520000000000000240e-01
6.520000000000000240e-01
6.540000000000000258e-01
6.540000000000000258e-01
6.580000000000000293e-01
6.580000000000000293e-01
6.600000000000000311e-01
6.600000000000000311e-01
6.700000000000000400e-01
6.700000000000000400e-01
6.720000000000000417e-01
6.720000000000000417e-01
6.740000000000000435e-01
6.740000000000000435e-01
6.840000000000000524e-01
6.840000000000000524e-01
6.860000000000000542e-01
6.860000000000000542e-01
6.879999999999999449e-01
6.879999999999999449e-01
6.919999999999999485e-01
6.919999999999999485e-01
6.939999999999999503e-01
6.939999999999999503e-01
7.119999999999999662e-01
7.119999999999999662e-01
7.139999999999999680e-01
7.139999999999999680e-01
7.159999999999999698e-01
7.159999999999999698e-01
7.219999999999999751e-01
7.219999999999999751e-01
7.279999999999999805e-01
7.279999999999999805e-01
7.339999999999999858e-01
7.339999999999999858e-01
7.379999999999999893e-01
7.379999999999999893e-01
7.399999999999999911e-01
7.399999999999999911e-01
7.419999999999999929e-01
7.419999999999999929e-01
7.459999999999999964e-01
7.459999999999999964e-01
7.479999999999999982e-01
7.479999999999999982e-01
7.500000000000000000e-01
7.500000000000000000e-01
7.560000000000000053e-01
7.560000000000000053e-01
7.580000000000000071e-01
7.580000000000000071e-01
7.640000000000000124e-01
7.640000000000000124e-01
7.700000000000000178e-01
7.700000000000000178e-01
7.720000000000000195e-01
7.720000000000000195e-01
7.800000000000000266e-01
7.800000000000000266e-01
7.840000000000000302e-01
7.840000000000000302e-01
7.880000000000000338e-01
7.880000000000000338e-01
7.900000000000000355e-01
7.900000000000000355e-01
7.920000000000000373e-01
7.920000000000000373e-01
7.940000000000000391e-01
7.940000000000000391e-01
7.960000000000000409e-01
7.960000000000000409e-01
8.040000000000000480e-01
8.040000000000000480e-01
8.080000000000000515e-01
8.080000000000000515e-01
8.100000000000000533e-01
8.100000000000000533e-01
8.159999999999999476e-01
8.159999999999999476e-01
8.199999999999999512e-01
8.199999999999999512e-01
8.239999999999999547e-01
8.239999999999999547e-01
8.259999999999999565e-01
8.259999999999999565e-01
8.279999999999999583e-01
8.279999999999999583e-01
8.299999999999999600e-01
8.299999999999999600e-01
8.319999999999999618e-01
8.319999999999999618e-01
8.359999999999999654e-01
8.359999999999999654e-01
8.379999999999999671e-01
8.379999999999999671e-01
8.459999999999999742e-01
8.459999999999999742e-01
8.479999999999999760e-01
8.479999999999999760e-01
8.499999999999999778e-01
8.499999999999999778e-01
8.539999999999999813e-01
8.539999999999999813e-01
8.579999999999999849e-01
8.579999999999999849e-01
8.599999999999999867e-01
8.599999999999999867e-01
8.619999999999999885e-01
8.619999999999999885e-01
8.659999999999999920e-01
8.659999999999999920e-01
8.679999999999999938e-01
8.679999999999999938e-01
8.739999999999999991e-01
8.739999999999999991e-01
8.760000000000000009e-01
8.760000000000000009e-01
8.800000000000000044e-01
8.800000000000000044e-01
8.820000000000000062e-01
8.820000000000000062e-01
8.840000000000000080e-01
8.840000000000000080e-01
8.880000000000000115e-01
8.880000000000000115e-01
8.900000000000000133e-01
8.900000000000000133e-01
8.920000000000000151e-01
8.920000000000000151e-01
8.980000000000000204e-01
8.980000000000000204e-01
9.000000000000000222e-01
9.000000000000000222e-01
9.020000000000000240e-01
9.020000000000000240e-01
9.080000000000000293e-01
9.080000000000000293e-01
9.140000000000000346e-01
9.140000000000000346e-01
9.160000000000000364e-01
9.160000000000000364e-01
9.180000000000000382e-01
9.180000000000000382e-01
9.220000000000000417e-01
9.220000000000000417e-01
9.260000000000000453e-01
9.260000000000000453e-01
9.300000000000000488e-01
9.300000000000000488e-01
9.320000000000000506e-01
9.320000000000000506e-01
9.340000000000000524e-01
9.340000000000000524e-01
9.360000000000000542e-01
9.360000000000000542e-01
9.379999999999999449e-01
9.379999999999999449e-01
9.399999999999999467e-01
9.399999999999999467e-01
9.419999999999999485e-01
9.419999999999999485e-01
9.439999999999999503e-01
9.439999999999999503e-01
9.519999999999999574e-01
9.519999999999999574e-01
9.539999999999999591e-01
9.539999999999999591e-01
9.579999999999999627e-01
9.579999999999999627e-01
9.599999999999999645e-01
9.599999999999999645e-01
9.619999999999999662e-01
9.619999999999999662e-01
9.639999999999999680e-01
9.639999999999999680e-01
9.659999999999999698e-01
9.659999999999999698e-01
9.679999999999999716e-01
9.679999999999999716e-01
9.699999999999999734e-01
9.699999999999999734e-01
9.739999999999999769e-01
9.739999999999999769e-01
9.759999999999999787e-01
9.759999999999999787e-01
9.779999999999999805e-01
9.779999999999999805e-01
9.799999999999999822e-01
9.799999999999999822e-01
9.819999999999999840e-01
9.819999999999999840e-01
9.899999999999999911e-01
9.899999999999999911e-01
9.919999999999999929e-01
9.919999999999999929e-01
9.979999999999999982e-01
9.979999999999999982e-01
1.000000000000000000e+00
